
!!dfdy(iH,iH)
nt = nt + 1
iat = eloc(nt)
dfdy(iat) =  -ratraw(iR018)*ys(iE)-ratraw(iR037)*ys(iHEP)-ratraw(iR067)-ratraw(iR099)*ys(iHEPP)-ratraw(iR100)*ys(iCP)-ratraw(iR101)*ys(iC2P)-ratraw(iR102)*ys(iC3P)-ratraw(iR103)*ys(iC4P)-ratraw(iR104)*ys(iNP)-ratraw(iR105)*ys(iN2P)-ratraw(iR106)*ys(iN3P)-ratraw(iR107)*ys(iN4P)-ratraw(iR108)*ys(iOP)-ratraw(iR109)*ys(iO2P)-ratraw(iR110)*ys(iO3P)-ratraw(iR111)*ys(iO4P)-ratraw(iR112)*ys(iMG2P)-ratraw(iR113)*ys(iSI2P)-ratraw(iR114)*ys(iSI3P)-ratraw(iR115)*ys(iSI4P)-ratraw(iR116)*ys(iFE2P)-ratraw(iR117)*ys(iFE3P)-ratraw(iR118)*ys(iFE4P)

!!dfdy(iH,iHP)
nt = nt + 1
iat = eloc(nt)
dfdy(iat) =  +ratraw(iR017)*ys(iE)+ratraw(iR038)*ys(iHE)+ratraw(iR067)+ratraw(iR119)*ys(iC)+ratraw(iR120)*ys(iN)+ratraw(iR121)*ys(iO)+ratraw(iR122)*ys(iNA)+ratraw(iR123)*ys(iMG)+ratraw(iR124)*ys(iMGP)+ratraw(iR125)*ys(iSI)+ratraw(iR126)*ys(iSIP)+ratraw(iR127)*ys(iFE)+ratraw(iR128)*ys(iFEP)

!!dfdy(iH,iHE)
nt = nt + 1
iat = eloc(nt)
dfdy(iat) =  +ratraw(iR038)*ys(iHP)

!!dfdy(iH,iHEP)
nt = nt + 1
iat = eloc(nt)
dfdy(iat) =  -ratraw(iR037)*ys(iH)

!!dfdy(iH,iHEPP)
nt = nt + 1
iat = eloc(nt)
dfdy(iat) =  -ratraw(iR099)*ys(iH)

!!dfdy(iH,iC)
nt = nt + 1
iat = eloc(nt)
dfdy(iat) =  +ratraw(iR119)*ys(iHP)

!!dfdy(iH,iCP)
nt = nt + 1
iat = eloc(nt)
dfdy(iat) =  -ratraw(iR100)*ys(iH)

!!dfdy(iH,iC2P)
nt = nt + 1
iat = eloc(nt)
dfdy(iat) =  -ratraw(iR101)*ys(iH)

!!dfdy(iH,iC3P)
nt = nt + 1
iat = eloc(nt)
dfdy(iat) =  -ratraw(iR102)*ys(iH)

!!dfdy(iH,iC4P)
nt = nt + 1
iat = eloc(nt)
dfdy(iat) =  -ratraw(iR103)*ys(iH)

!!dfdy(iH,iN)
nt = nt + 1
iat = eloc(nt)
dfdy(iat) =  +ratraw(iR120)*ys(iHP)

!!dfdy(iH,iNP)
nt = nt + 1
iat = eloc(nt)
dfdy(iat) =  -ratraw(iR104)*ys(iH)

!!dfdy(iH,iN2P)
nt = nt + 1
iat = eloc(nt)
dfdy(iat) =  -ratraw(iR105)*ys(iH)

!!dfdy(iH,iN3P)
nt = nt + 1
iat = eloc(nt)
dfdy(iat) =  -ratraw(iR106)*ys(iH)

!!dfdy(iH,iN4P)
nt = nt + 1
iat = eloc(nt)
dfdy(iat) =  -ratraw(iR107)*ys(iH)

!!dfdy(iH,iO)
nt = nt + 1
iat = eloc(nt)
dfdy(iat) =  +ratraw(iR121)*ys(iHP)

!!dfdy(iH,iOP)
nt = nt + 1
iat = eloc(nt)
dfdy(iat) =  -ratraw(iR108)*ys(iH)

!!dfdy(iH,iO2P)
nt = nt + 1
iat = eloc(nt)
dfdy(iat) =  -ratraw(iR109)*ys(iH)

!!dfdy(iH,iO3P)
nt = nt + 1
iat = eloc(nt)
dfdy(iat) =  -ratraw(iR110)*ys(iH)

!!dfdy(iH,iO4P)
nt = nt + 1
iat = eloc(nt)
dfdy(iat) =  -ratraw(iR111)*ys(iH)

!!dfdy(iH,iNA)
nt = nt + 1
iat = eloc(nt)
dfdy(iat) =  +ratraw(iR122)*ys(iHP)

!!dfdy(iH,iMG)
nt = nt + 1
iat = eloc(nt)
dfdy(iat) =  +ratraw(iR123)*ys(iHP)

!!dfdy(iH,iMGP)
nt = nt + 1
iat = eloc(nt)
dfdy(iat) =  +ratraw(iR124)*ys(iHP)

!!dfdy(iH,iMG2P)
nt = nt + 1
iat = eloc(nt)
dfdy(iat) =  -ratraw(iR112)*ys(iH)

!!dfdy(iH,iSI)
nt = nt + 1
iat = eloc(nt)
dfdy(iat) =  +ratraw(iR125)*ys(iHP)

!!dfdy(iH,iSIP)
nt = nt + 1
iat = eloc(nt)
dfdy(iat) =  +ratraw(iR126)*ys(iHP)

!!dfdy(iH,iSI2P)
nt = nt + 1
iat = eloc(nt)
dfdy(iat) =  -ratraw(iR113)*ys(iH)

!!dfdy(iH,iSI3P)
nt = nt + 1
iat = eloc(nt)
dfdy(iat) =  -ratraw(iR114)*ys(iH)

!!dfdy(iH,iSI4P)
nt = nt + 1
iat = eloc(nt)
dfdy(iat) =  -ratraw(iR115)*ys(iH)

!!dfdy(iH,iFE)
nt = nt + 1
iat = eloc(nt)
dfdy(iat) =  +ratraw(iR127)*ys(iHP)

!!dfdy(iH,iFEP)
nt = nt + 1
iat = eloc(nt)
dfdy(iat) =  +ratraw(iR128)*ys(iHP)

!!dfdy(iH,iFE2P)
nt = nt + 1
iat = eloc(nt)
dfdy(iat) =  -ratraw(iR116)*ys(iH)

!!dfdy(iH,iFE3P)
nt = nt + 1
iat = eloc(nt)
dfdy(iat) =  -ratraw(iR117)*ys(iH)

!!dfdy(iH,iFE4P)
nt = nt + 1
iat = eloc(nt)
dfdy(iat) =  -ratraw(iR118)*ys(iH)

!!dfdy(iH,iE)
nt = nt + 1
iat = eloc(nt)
dfdy(iat) =  +ratraw(iR017)*ys(iHP)-ratraw(iR018)*ys(iH)+ratraw(iR067)

!!dfdy(iHP,iH)
nt = nt + 1
iat = eloc(nt)
dfdy(iat) =  +ratraw(iR018)*ys(iE)+ratraw(iR037)*ys(iHEP)+ratraw(iR099)*ys(iHEPP)+ratraw(iR100)*ys(iCP)+ratraw(iR101)*ys(iC2P)+ratraw(iR102)*ys(iC3P)+ratraw(iR103)*ys(iC4P)+ratraw(iR104)*ys(iNP)+ratraw(iR105)*ys(iN2P)+ratraw(iR106)*ys(iN3P)+ratraw(iR107)*ys(iN4P)+ratraw(iR108)*ys(iOP)+ratraw(iR109)*ys(iO2P)+ratraw(iR110)*ys(iO3P)+ratraw(iR111)*ys(iO4P)+ratraw(iR112)*ys(iMG2P)+ratraw(iR113)*ys(iSI2P)+ratraw(iR114)*ys(iSI3P)+ratraw(iR115)*ys(iSI4P)+ratraw(iR116)*ys(iFE2P)+ratraw(iR117)*ys(iFE3P)+ratraw(iR118)*ys(iFE4P)

!!dfdy(iHP,iHP)
nt = nt + 1
iat = eloc(nt)
dfdy(iat) =  -ratraw(iR017)*ys(iE)-ratraw(iR038)*ys(iHE)-ratraw(iR119)*ys(iC)-ratraw(iR120)*ys(iN)-ratraw(iR121)*ys(iO)-ratraw(iR122)*ys(iNA)-ratraw(iR123)*ys(iMG)-ratraw(iR124)*ys(iMGP)-ratraw(iR125)*ys(iSI)-ratraw(iR126)*ys(iSIP)-ratraw(iR127)*ys(iFE)-ratraw(iR128)*ys(iFEP)

!!dfdy(iHP,iHE)
nt = nt + 1
iat = eloc(nt)
dfdy(iat) =  -ratraw(iR038)*ys(iHP)

!!dfdy(iHP,iHEP)
nt = nt + 1
iat = eloc(nt)
dfdy(iat) =  +ratraw(iR037)*ys(iH)

!!dfdy(iHP,iHEPP)
nt = nt + 1
iat = eloc(nt)
dfdy(iat) =  +ratraw(iR099)*ys(iH)

!!dfdy(iHP,iC)
nt = nt + 1
iat = eloc(nt)
dfdy(iat) =  -ratraw(iR119)*ys(iHP)

!!dfdy(iHP,iCP)
nt = nt + 1
iat = eloc(nt)
dfdy(iat) =  +ratraw(iR100)*ys(iH)

!!dfdy(iHP,iC2P)
nt = nt + 1
iat = eloc(nt)
dfdy(iat) =  +ratraw(iR101)*ys(iH)

!!dfdy(iHP,iC3P)
nt = nt + 1
iat = eloc(nt)
dfdy(iat) =  +ratraw(iR102)*ys(iH)

!!dfdy(iHP,iC4P)
nt = nt + 1
iat = eloc(nt)
dfdy(iat) =  +ratraw(iR103)*ys(iH)

!!dfdy(iHP,iN)
nt = nt + 1
iat = eloc(nt)
dfdy(iat) =  -ratraw(iR120)*ys(iHP)

!!dfdy(iHP,iNP)
nt = nt + 1
iat = eloc(nt)
dfdy(iat) =  +ratraw(iR104)*ys(iH)

!!dfdy(iHP,iN2P)
nt = nt + 1
iat = eloc(nt)
dfdy(iat) =  +ratraw(iR105)*ys(iH)

!!dfdy(iHP,iN3P)
nt = nt + 1
iat = eloc(nt)
dfdy(iat) =  +ratraw(iR106)*ys(iH)

!!dfdy(iHP,iN4P)
nt = nt + 1
iat = eloc(nt)
dfdy(iat) =  +ratraw(iR107)*ys(iH)

!!dfdy(iHP,iO)
nt = nt + 1
iat = eloc(nt)
dfdy(iat) =  -ratraw(iR121)*ys(iHP)

!!dfdy(iHP,iOP)
nt = nt + 1
iat = eloc(nt)
dfdy(iat) =  +ratraw(iR108)*ys(iH)

!!dfdy(iHP,iO2P)
nt = nt + 1
iat = eloc(nt)
dfdy(iat) =  +ratraw(iR109)*ys(iH)

!!dfdy(iHP,iO3P)
nt = nt + 1
iat = eloc(nt)
dfdy(iat) =  +ratraw(iR110)*ys(iH)

!!dfdy(iHP,iO4P)
nt = nt + 1
iat = eloc(nt)
dfdy(iat) =  +ratraw(iR111)*ys(iH)

!!dfdy(iHP,iNA)
nt = nt + 1
iat = eloc(nt)
dfdy(iat) =  -ratraw(iR122)*ys(iHP)

!!dfdy(iHP,iMG)
nt = nt + 1
iat = eloc(nt)
dfdy(iat) =  -ratraw(iR123)*ys(iHP)

!!dfdy(iHP,iMGP)
nt = nt + 1
iat = eloc(nt)
dfdy(iat) =  -ratraw(iR124)*ys(iHP)

!!dfdy(iHP,iMG2P)
nt = nt + 1
iat = eloc(nt)
dfdy(iat) =  +ratraw(iR112)*ys(iH)

!!dfdy(iHP,iSI)
nt = nt + 1
iat = eloc(nt)
dfdy(iat) =  -ratraw(iR125)*ys(iHP)

!!dfdy(iHP,iSIP)
nt = nt + 1
iat = eloc(nt)
dfdy(iat) =  -ratraw(iR126)*ys(iHP)

!!dfdy(iHP,iSI2P)
nt = nt + 1
iat = eloc(nt)
dfdy(iat) =  +ratraw(iR113)*ys(iH)

!!dfdy(iHP,iSI3P)
nt = nt + 1
iat = eloc(nt)
dfdy(iat) =  +ratraw(iR114)*ys(iH)

!!dfdy(iHP,iSI4P)
nt = nt + 1
iat = eloc(nt)
dfdy(iat) =  +ratraw(iR115)*ys(iH)

!!dfdy(iHP,iFE)
nt = nt + 1
iat = eloc(nt)
dfdy(iat) =  -ratraw(iR127)*ys(iHP)

!!dfdy(iHP,iFEP)
nt = nt + 1
iat = eloc(nt)
dfdy(iat) =  -ratraw(iR128)*ys(iHP)

!!dfdy(iHP,iFE2P)
nt = nt + 1
iat = eloc(nt)
dfdy(iat) =  +ratraw(iR116)*ys(iH)

!!dfdy(iHP,iFE3P)
nt = nt + 1
iat = eloc(nt)
dfdy(iat) =  +ratraw(iR117)*ys(iH)

!!dfdy(iHP,iFE4P)
nt = nt + 1
iat = eloc(nt)
dfdy(iat) =  +ratraw(iR118)*ys(iH)

!!dfdy(iHP,iE)
nt = nt + 1
iat = eloc(nt)
dfdy(iat) =  -ratraw(iR017)*ys(iHP)+ratraw(iR018)*ys(iH)

!!dfdy(iHE,iH)
nt = nt + 1
iat = eloc(nt)
dfdy(iat) =  +ratraw(iR037)*ys(iHEP)

!!dfdy(iHE,iHP)
nt = nt + 1
iat = eloc(nt)
dfdy(iat) =  -ratraw(iR038)*ys(iHE)

!!dfdy(iHE,iHE)
nt = nt + 1
iat = eloc(nt)
dfdy(iat) =  -ratraw(iR019)*ys(iE)-ratraw(iR038)*ys(iHP)-ratraw(iR068)-ratraw(iR129)*ys(iC3P)-ratraw(iR130)*ys(iC4P)-ratraw(iR131)*ys(iN2P)-ratraw(iR132)*ys(iN3P)-ratraw(iR133)*ys(iN4P)-ratraw(iR134)*ys(iO2P)-ratraw(iR135)*ys(iO3P)-ratraw(iR136)*ys(iO4P)-ratraw(iR137)*ys(iSI3P)-ratraw(iR138)*ys(iSI4P)-ratraw(iR139)*ys(iFE3P)-ratraw(iR140)*ys(iFE4P)

!!dfdy(iHE,iHEP)
nt = nt + 1
iat = eloc(nt)
dfdy(iat) =  +ratraw(iR001)*ys(iE)+ratraw(iR037)*ys(iH)+ratraw(iR068)+ratraw(iR141)*ys(iSI)

!!dfdy(iHE,iC3P)
nt = nt + 1
iat = eloc(nt)
dfdy(iat) =  -ratraw(iR129)*ys(iHE)

!!dfdy(iHE,iC4P)
nt = nt + 1
iat = eloc(nt)
dfdy(iat) =  -ratraw(iR130)*ys(iHE)

!!dfdy(iHE,iN2P)
nt = nt + 1
iat = eloc(nt)
dfdy(iat) =  -ratraw(iR131)*ys(iHE)

!!dfdy(iHE,iN3P)
nt = nt + 1
iat = eloc(nt)
dfdy(iat) =  -ratraw(iR132)*ys(iHE)

!!dfdy(iHE,iN4P)
nt = nt + 1
iat = eloc(nt)
dfdy(iat) =  -ratraw(iR133)*ys(iHE)

!!dfdy(iHE,iO2P)
nt = nt + 1
iat = eloc(nt)
dfdy(iat) =  -ratraw(iR134)*ys(iHE)

!!dfdy(iHE,iO3P)
nt = nt + 1
iat = eloc(nt)
dfdy(iat) =  -ratraw(iR135)*ys(iHE)

!!dfdy(iHE,iO4P)
nt = nt + 1
iat = eloc(nt)
dfdy(iat) =  -ratraw(iR136)*ys(iHE)

!!dfdy(iHE,iSI)
nt = nt + 1
iat = eloc(nt)
dfdy(iat) =  +ratraw(iR141)*ys(iHEP)

!!dfdy(iHE,iSI3P)
nt = nt + 1
iat = eloc(nt)
dfdy(iat) =  -ratraw(iR137)*ys(iHE)

!!dfdy(iHE,iSI4P)
nt = nt + 1
iat = eloc(nt)
dfdy(iat) =  -ratraw(iR138)*ys(iHE)

!!dfdy(iHE,iFE3P)
nt = nt + 1
iat = eloc(nt)
dfdy(iat) =  -ratraw(iR139)*ys(iHE)

!!dfdy(iHE,iFE4P)
nt = nt + 1
iat = eloc(nt)
dfdy(iat) =  -ratraw(iR140)*ys(iHE)

!!dfdy(iHE,iE)
nt = nt + 1
iat = eloc(nt)
dfdy(iat) =  +ratraw(iR001)*ys(iHEP)-ratraw(iR019)*ys(iHE)+ratraw(iR068)

!!dfdy(iHEP,iH)
nt = nt + 1
iat = eloc(nt)
dfdy(iat) =  -ratraw(iR037)*ys(iHEP)+ratraw(iR099)*ys(iHEPP)

!!dfdy(iHEP,iHP)
nt = nt + 1
iat = eloc(nt)
dfdy(iat) =  +ratraw(iR038)*ys(iHE)

!!dfdy(iHEP,iHE)
nt = nt + 1
iat = eloc(nt)
dfdy(iat) =  +ratraw(iR019)*ys(iE)+ratraw(iR038)*ys(iHP)+ratraw(iR129)*ys(iC3P)+ratraw(iR130)*ys(iC4P)+ratraw(iR131)*ys(iN2P)+ratraw(iR132)*ys(iN3P)+ratraw(iR133)*ys(iN4P)+ratraw(iR134)*ys(iO2P)+ratraw(iR135)*ys(iO3P)+ratraw(iR136)*ys(iO4P)+ratraw(iR137)*ys(iSI3P)+ratraw(iR138)*ys(iSI4P)+ratraw(iR139)*ys(iFE3P)+ratraw(iR140)*ys(iFE4P)

!!dfdy(iHEP,iHEP)
nt = nt + 1
iat = eloc(nt)
dfdy(iat) =  -ratraw(iR001)*ys(iE)-ratraw(iR020)*ys(iE)-ratraw(iR037)*ys(iH)-ratraw(iR069)-ratraw(iR141)*ys(iSI)

!!dfdy(iHEP,iHEPP)
nt = nt + 1
iat = eloc(nt)
dfdy(iat) =  +ratraw(iR036)*ys(iE)+ratraw(iR069)+ratraw(iR099)*ys(iH)

!!dfdy(iHEP,iC3P)
nt = nt + 1
iat = eloc(nt)
dfdy(iat) =  +ratraw(iR129)*ys(iHE)

!!dfdy(iHEP,iC4P)
nt = nt + 1
iat = eloc(nt)
dfdy(iat) =  +ratraw(iR130)*ys(iHE)

!!dfdy(iHEP,iN2P)
nt = nt + 1
iat = eloc(nt)
dfdy(iat) =  +ratraw(iR131)*ys(iHE)

!!dfdy(iHEP,iN3P)
nt = nt + 1
iat = eloc(nt)
dfdy(iat) =  +ratraw(iR132)*ys(iHE)

!!dfdy(iHEP,iN4P)
nt = nt + 1
iat = eloc(nt)
dfdy(iat) =  +ratraw(iR133)*ys(iHE)

!!dfdy(iHEP,iO2P)
nt = nt + 1
iat = eloc(nt)
dfdy(iat) =  +ratraw(iR134)*ys(iHE)

!!dfdy(iHEP,iO3P)
nt = nt + 1
iat = eloc(nt)
dfdy(iat) =  +ratraw(iR135)*ys(iHE)

!!dfdy(iHEP,iO4P)
nt = nt + 1
iat = eloc(nt)
dfdy(iat) =  +ratraw(iR136)*ys(iHE)

!!dfdy(iHEP,iSI)
nt = nt + 1
iat = eloc(nt)
dfdy(iat) =  -ratraw(iR141)*ys(iHEP)

!!dfdy(iHEP,iSI3P)
nt = nt + 1
iat = eloc(nt)
dfdy(iat) =  +ratraw(iR137)*ys(iHE)

!!dfdy(iHEP,iSI4P)
nt = nt + 1
iat = eloc(nt)
dfdy(iat) =  +ratraw(iR138)*ys(iHE)

!!dfdy(iHEP,iFE3P)
nt = nt + 1
iat = eloc(nt)
dfdy(iat) =  +ratraw(iR139)*ys(iHE)

!!dfdy(iHEP,iFE4P)
nt = nt + 1
iat = eloc(nt)
dfdy(iat) =  +ratraw(iR140)*ys(iHE)

!!dfdy(iHEP,iE)
nt = nt + 1
iat = eloc(nt)
dfdy(iat) =  -ratraw(iR001)*ys(iHEP)+ratraw(iR019)*ys(iHE)-ratraw(iR020)*ys(iHEP)+ratraw(iR036)*ys(iHEPP)+ratraw(iR069)

!!dfdy(iHEPP,iH)
nt = nt + 1
iat = eloc(nt)
dfdy(iat) =  -ratraw(iR099)*ys(iHEPP)

!!dfdy(iHEPP,iHEP)
nt = nt + 1
iat = eloc(nt)
dfdy(iat) =  +ratraw(iR020)*ys(iE)

!!dfdy(iHEPP,iHEPP)
nt = nt + 1
iat = eloc(nt)
dfdy(iat) =  -ratraw(iR036)*ys(iE)-ratraw(iR099)*ys(iH)

!!dfdy(iHEPP,iE)
nt = nt + 1
iat = eloc(nt)
dfdy(iat) =  +ratraw(iR020)*ys(iHEP)-ratraw(iR036)*ys(iHEPP)

!!dfdy(iC,iH)
nt = nt + 1
iat = eloc(nt)
dfdy(iat) =  +ratraw(iR100)*ys(iCP)

!!dfdy(iC,iHP)
nt = nt + 1
iat = eloc(nt)
dfdy(iat) =  -ratraw(iR119)*ys(iC)

!!dfdy(iC,iC)
nt = nt + 1
iat = eloc(nt)
dfdy(iat) =  -ratraw(iR021)*ys(iE)-ratraw(iR070)-ratraw(iR119)*ys(iHP)

!!dfdy(iC,iCP)
nt = nt + 1
iat = eloc(nt)
dfdy(iat) =  +ratraw(iR002)*ys(iE)+ratraw(iR070)+ratraw(iR100)*ys(iH)+ratraw(iR142)*ys(iFE)+ratraw(iR143)*ys(iMG)+ratraw(iR144)*ys(iNA)+ratraw(iR145)*ys(iSI)

!!dfdy(iC,iNA)
nt = nt + 1
iat = eloc(nt)
dfdy(iat) =  +ratraw(iR144)*ys(iCP)

!!dfdy(iC,iMG)
nt = nt + 1
iat = eloc(nt)
dfdy(iat) =  +ratraw(iR143)*ys(iCP)

!!dfdy(iC,iSI)
nt = nt + 1
iat = eloc(nt)
dfdy(iat) =  +ratraw(iR145)*ys(iCP)

!!dfdy(iC,iFE)
nt = nt + 1
iat = eloc(nt)
dfdy(iat) =  +ratraw(iR142)*ys(iCP)

!!dfdy(iC,iE)
nt = nt + 1
iat = eloc(nt)
dfdy(iat) =  +ratraw(iR002)*ys(iCP)-ratraw(iR021)*ys(iC)+ratraw(iR070)

!!dfdy(iCP,iH)
nt = nt + 1
iat = eloc(nt)
dfdy(iat) =  -ratraw(iR100)*ys(iCP)+ratraw(iR101)*ys(iC2P)

!!dfdy(iCP,iHP)
nt = nt + 1
iat = eloc(nt)
dfdy(iat) =  +ratraw(iR119)*ys(iC)

!!dfdy(iCP,iC)
nt = nt + 1
iat = eloc(nt)
dfdy(iat) =  +ratraw(iR021)*ys(iE)+ratraw(iR119)*ys(iHP)

!!dfdy(iCP,iCP)
nt = nt + 1
iat = eloc(nt)
dfdy(iat) =  -ratraw(iR002)*ys(iE)-ratraw(iR022)*ys(iE)-ratraw(iR071)-ratraw(iR100)*ys(iH)-ratraw(iR142)*ys(iFE)-ratraw(iR143)*ys(iMG)-ratraw(iR144)*ys(iNA)-ratraw(iR145)*ys(iSI)

!!dfdy(iCP,iC2P)
nt = nt + 1
iat = eloc(nt)
dfdy(iat) =  +ratraw(iR003)*ys(iE)+ratraw(iR071)+ratraw(iR101)*ys(iH)

!!dfdy(iCP,iNA)
nt = nt + 1
iat = eloc(nt)
dfdy(iat) =  -ratraw(iR144)*ys(iCP)

!!dfdy(iCP,iMG)
nt = nt + 1
iat = eloc(nt)
dfdy(iat) =  -ratraw(iR143)*ys(iCP)

!!dfdy(iCP,iSI)
nt = nt + 1
iat = eloc(nt)
dfdy(iat) =  -ratraw(iR145)*ys(iCP)

!!dfdy(iCP,iFE)
nt = nt + 1
iat = eloc(nt)
dfdy(iat) =  -ratraw(iR142)*ys(iCP)

!!dfdy(iCP,iE)
nt = nt + 1
iat = eloc(nt)
dfdy(iat) =  -ratraw(iR002)*ys(iCP)+ratraw(iR003)*ys(iC2P)+ratraw(iR021)*ys(iC)-ratraw(iR022)*ys(iCP)+ratraw(iR071)

!!dfdy(iC2P,iH)
nt = nt + 1
iat = eloc(nt)
dfdy(iat) =  -ratraw(iR101)*ys(iC2P)+ratraw(iR102)*ys(iC3P)

!!dfdy(iC2P,iHE)
nt = nt + 1
iat = eloc(nt)
dfdy(iat) =  +ratraw(iR129)*ys(iC3P)

!!dfdy(iC2P,iCP)
nt = nt + 1
iat = eloc(nt)
dfdy(iat) =  +ratraw(iR022)*ys(iE)

!!dfdy(iC2P,iC2P)
nt = nt + 1
iat = eloc(nt)
dfdy(iat) =  -ratraw(iR003)*ys(iE)-ratraw(iR023)*ys(iE)-ratraw(iR072)-ratraw(iR101)*ys(iH)

!!dfdy(iC2P,iC3P)
nt = nt + 1
iat = eloc(nt)
dfdy(iat) =  +ratraw(iR004)*ys(iE)+ratraw(iR072)+ratraw(iR102)*ys(iH)+ratraw(iR129)*ys(iHE)

!!dfdy(iC2P,iE)
nt = nt + 1
iat = eloc(nt)
dfdy(iat) =  -ratraw(iR003)*ys(iC2P)+ratraw(iR004)*ys(iC3P)+ratraw(iR022)*ys(iCP)-ratraw(iR023)*ys(iC2P)+ratraw(iR072)

!!dfdy(iC3P,iH)
nt = nt + 1
iat = eloc(nt)
dfdy(iat) =  -ratraw(iR102)*ys(iC3P)+ratraw(iR103)*ys(iC4P)

!!dfdy(iC3P,iHE)
nt = nt + 1
iat = eloc(nt)
dfdy(iat) =  -ratraw(iR129)*ys(iC3P)+ratraw(iR130)*ys(iC4P)

!!dfdy(iC3P,iC2P)
nt = nt + 1
iat = eloc(nt)
dfdy(iat) =  +ratraw(iR023)*ys(iE)

!!dfdy(iC3P,iC3P)
nt = nt + 1
iat = eloc(nt)
dfdy(iat) =  -ratraw(iR004)*ys(iE)-ratraw(iR024)*ys(iE)-ratraw(iR073)-ratraw(iR102)*ys(iH)-ratraw(iR129)*ys(iHE)

!!dfdy(iC3P,iC4P)
nt = nt + 1
iat = eloc(nt)
dfdy(iat) =  +ratraw(iR005)*ys(iE)+ratraw(iR073)+ratraw(iR103)*ys(iH)+ratraw(iR130)*ys(iHE)

!!dfdy(iC3P,iE)
nt = nt + 1
iat = eloc(nt)
dfdy(iat) =  -ratraw(iR004)*ys(iC3P)+ratraw(iR005)*ys(iC4P)+ratraw(iR023)*ys(iC2P)-ratraw(iR024)*ys(iC3P)+ratraw(iR073)

!!dfdy(iC4P,iH)
nt = nt + 1
iat = eloc(nt)
dfdy(iat) =  -ratraw(iR103)*ys(iC4P)

!!dfdy(iC4P,iHE)
nt = nt + 1
iat = eloc(nt)
dfdy(iat) =  -ratraw(iR130)*ys(iC4P)

!!dfdy(iC4P,iC3P)
nt = nt + 1
iat = eloc(nt)
dfdy(iat) =  +ratraw(iR024)*ys(iE)

!!dfdy(iC4P,iC4P)
nt = nt + 1
iat = eloc(nt)
dfdy(iat) =  -ratraw(iR005)*ys(iE)-ratraw(iR025)*ys(iE)-ratraw(iR074)-ratraw(iR103)*ys(iH)-ratraw(iR130)*ys(iHE)

!!dfdy(iC4P,iC5P)
nt = nt + 1
iat = eloc(nt)
dfdy(iat) =  +ratraw(iR006)*ys(iE)+ratraw(iR074)

!!dfdy(iC4P,iE)
nt = nt + 1
iat = eloc(nt)
dfdy(iat) =  -ratraw(iR005)*ys(iC4P)+ratraw(iR006)*ys(iC5P)+ratraw(iR024)*ys(iC3P)-ratraw(iR025)*ys(iC4P)+ratraw(iR074)

!!dfdy(iC5P,iC4P)
nt = nt + 1
iat = eloc(nt)
dfdy(iat) =  +ratraw(iR025)*ys(iE)

!!dfdy(iC5P,iC5P)
nt = nt + 1
iat = eloc(nt)
dfdy(iat) =  -ratraw(iR006)*ys(iE)

!!dfdy(iC5P,iE)
nt = nt + 1
iat = eloc(nt)
dfdy(iat) =  -ratraw(iR006)*ys(iC5P)+ratraw(iR025)*ys(iC4P)

!!dfdy(iN,iH)
nt = nt + 1
iat = eloc(nt)
dfdy(iat) =  +ratraw(iR104)*ys(iNP)

!!dfdy(iN,iHP)
nt = nt + 1
iat = eloc(nt)
dfdy(iat) =  -ratraw(iR120)*ys(iN)

!!dfdy(iN,iN)
nt = nt + 1
iat = eloc(nt)
dfdy(iat) =  -ratraw(iR053)*ys(iE)-ratraw(iR075)-ratraw(iR120)*ys(iHP)

!!dfdy(iN,iNP)
nt = nt + 1
iat = eloc(nt)
dfdy(iat) =  +ratraw(iR039)*ys(iE)+ratraw(iR075)+ratraw(iR104)*ys(iH)+ratraw(iR148)*ys(iFE)+ratraw(iR149)*ys(iMG)

!!dfdy(iN,iMG)
nt = nt + 1
iat = eloc(nt)
dfdy(iat) =  +ratraw(iR149)*ys(iNP)

!!dfdy(iN,iFE)
nt = nt + 1
iat = eloc(nt)
dfdy(iat) =  +ratraw(iR148)*ys(iNP)

!!dfdy(iN,iE)
nt = nt + 1
iat = eloc(nt)
dfdy(iat) =  +ratraw(iR039)*ys(iNP)-ratraw(iR053)*ys(iN)+ratraw(iR075)

!!dfdy(iNP,iH)
nt = nt + 1
iat = eloc(nt)
dfdy(iat) =  -ratraw(iR104)*ys(iNP)+ratraw(iR105)*ys(iN2P)

!!dfdy(iNP,iHP)
nt = nt + 1
iat = eloc(nt)
dfdy(iat) =  +ratraw(iR120)*ys(iN)

!!dfdy(iNP,iHE)
nt = nt + 1
iat = eloc(nt)
dfdy(iat) =  +ratraw(iR131)*ys(iN2P)

!!dfdy(iNP,iN)
nt = nt + 1
iat = eloc(nt)
dfdy(iat) =  +ratraw(iR053)*ys(iE)+ratraw(iR120)*ys(iHP)

!!dfdy(iNP,iNP)
nt = nt + 1
iat = eloc(nt)
dfdy(iat) =  -ratraw(iR039)*ys(iE)-ratraw(iR054)*ys(iE)-ratraw(iR076)-ratraw(iR104)*ys(iH)-ratraw(iR148)*ys(iFE)-ratraw(iR149)*ys(iMG)

!!dfdy(iNP,iN2P)
nt = nt + 1
iat = eloc(nt)
dfdy(iat) =  +ratraw(iR040)*ys(iE)+ratraw(iR076)+ratraw(iR105)*ys(iH)+ratraw(iR131)*ys(iHE)

!!dfdy(iNP,iMG)
nt = nt + 1
iat = eloc(nt)
dfdy(iat) =  -ratraw(iR149)*ys(iNP)

!!dfdy(iNP,iFE)
nt = nt + 1
iat = eloc(nt)
dfdy(iat) =  -ratraw(iR148)*ys(iNP)

!!dfdy(iNP,iE)
nt = nt + 1
iat = eloc(nt)
dfdy(iat) =  -ratraw(iR039)*ys(iNP)+ratraw(iR040)*ys(iN2P)+ratraw(iR053)*ys(iN)-ratraw(iR054)*ys(iNP)+ratraw(iR076)

!!dfdy(iN2P,iH)
nt = nt + 1
iat = eloc(nt)
dfdy(iat) =  -ratraw(iR105)*ys(iN2P)+ratraw(iR106)*ys(iN3P)

!!dfdy(iN2P,iHE)
nt = nt + 1
iat = eloc(nt)
dfdy(iat) =  -ratraw(iR131)*ys(iN2P)+ratraw(iR132)*ys(iN3P)

!!dfdy(iN2P,iNP)
nt = nt + 1
iat = eloc(nt)
dfdy(iat) =  +ratraw(iR054)*ys(iE)

!!dfdy(iN2P,iN2P)
nt = nt + 1
iat = eloc(nt)
dfdy(iat) =  -ratraw(iR040)*ys(iE)-ratraw(iR055)*ys(iE)-ratraw(iR077)-ratraw(iR105)*ys(iH)-ratraw(iR131)*ys(iHE)

!!dfdy(iN2P,iN3P)
nt = nt + 1
iat = eloc(nt)
dfdy(iat) =  +ratraw(iR041)*ys(iE)+ratraw(iR077)+ratraw(iR106)*ys(iH)+ratraw(iR132)*ys(iHE)

!!dfdy(iN2P,iE)
nt = nt + 1
iat = eloc(nt)
dfdy(iat) =  -ratraw(iR040)*ys(iN2P)+ratraw(iR041)*ys(iN3P)+ratraw(iR054)*ys(iNP)-ratraw(iR055)*ys(iN2P)+ratraw(iR077)

!!dfdy(iN3P,iH)
nt = nt + 1
iat = eloc(nt)
dfdy(iat) =  -ratraw(iR106)*ys(iN3P)+ratraw(iR107)*ys(iN4P)

!!dfdy(iN3P,iHE)
nt = nt + 1
iat = eloc(nt)
dfdy(iat) =  -ratraw(iR132)*ys(iN3P)+ratraw(iR133)*ys(iN4P)

!!dfdy(iN3P,iN2P)
nt = nt + 1
iat = eloc(nt)
dfdy(iat) =  +ratraw(iR055)*ys(iE)

!!dfdy(iN3P,iN3P)
nt = nt + 1
iat = eloc(nt)
dfdy(iat) =  -ratraw(iR041)*ys(iE)-ratraw(iR056)*ys(iE)-ratraw(iR078)-ratraw(iR106)*ys(iH)-ratraw(iR132)*ys(iHE)

!!dfdy(iN3P,iN4P)
nt = nt + 1
iat = eloc(nt)
dfdy(iat) =  +ratraw(iR042)*ys(iE)+ratraw(iR078)+ratraw(iR107)*ys(iH)+ratraw(iR133)*ys(iHE)

!!dfdy(iN3P,iE)
nt = nt + 1
iat = eloc(nt)
dfdy(iat) =  -ratraw(iR041)*ys(iN3P)+ratraw(iR042)*ys(iN4P)+ratraw(iR055)*ys(iN2P)-ratraw(iR056)*ys(iN3P)+ratraw(iR078)

!!dfdy(iN4P,iH)
nt = nt + 1
iat = eloc(nt)
dfdy(iat) =  -ratraw(iR107)*ys(iN4P)

!!dfdy(iN4P,iHE)
nt = nt + 1
iat = eloc(nt)
dfdy(iat) =  -ratraw(iR133)*ys(iN4P)

!!dfdy(iN4P,iN3P)
nt = nt + 1
iat = eloc(nt)
dfdy(iat) =  +ratraw(iR056)*ys(iE)

!!dfdy(iN4P,iN4P)
nt = nt + 1
iat = eloc(nt)
dfdy(iat) =  -ratraw(iR042)*ys(iE)-ratraw(iR057)*ys(iE)-ratraw(iR079)-ratraw(iR107)*ys(iH)-ratraw(iR133)*ys(iHE)

!!dfdy(iN4P,iN5P)
nt = nt + 1
iat = eloc(nt)
dfdy(iat) =  +ratraw(iR043)*ys(iE)+ratraw(iR079)

!!dfdy(iN4P,iE)
nt = nt + 1
iat = eloc(nt)
dfdy(iat) =  -ratraw(iR042)*ys(iN4P)+ratraw(iR043)*ys(iN5P)+ratraw(iR056)*ys(iN3P)-ratraw(iR057)*ys(iN4P)+ratraw(iR079)

!!dfdy(iN5P,iN4P)
nt = nt + 1
iat = eloc(nt)
dfdy(iat) =  +ratraw(iR057)*ys(iE)

!!dfdy(iN5P,iN5P)
nt = nt + 1
iat = eloc(nt)
dfdy(iat) =  -ratraw(iR043)*ys(iE)

!!dfdy(iN5P,iE)
nt = nt + 1
iat = eloc(nt)
dfdy(iat) =  -ratraw(iR043)*ys(iN5P)+ratraw(iR057)*ys(iN4P)

!!dfdy(iO,iH)
nt = nt + 1
iat = eloc(nt)
dfdy(iat) =  +ratraw(iR108)*ys(iOP)

!!dfdy(iO,iHP)
nt = nt + 1
iat = eloc(nt)
dfdy(iat) =  -ratraw(iR121)*ys(iO)

!!dfdy(iO,iO)
nt = nt + 1
iat = eloc(nt)
dfdy(iat) =  -ratraw(iR026)*ys(iE)-ratraw(iR080)-ratraw(iR121)*ys(iHP)

!!dfdy(iO,iOP)
nt = nt + 1
iat = eloc(nt)
dfdy(iat) =  +ratraw(iR007)*ys(iE)+ratraw(iR080)+ratraw(iR108)*ys(iH)+ratraw(iR150)*ys(iFE)

!!dfdy(iO,iFE)
nt = nt + 1
iat = eloc(nt)
dfdy(iat) =  +ratraw(iR150)*ys(iOP)

!!dfdy(iO,iE)
nt = nt + 1
iat = eloc(nt)
dfdy(iat) =  +ratraw(iR007)*ys(iOP)-ratraw(iR026)*ys(iO)+ratraw(iR080)

!!dfdy(iOP,iH)
nt = nt + 1
iat = eloc(nt)
dfdy(iat) =  -ratraw(iR108)*ys(iOP)+ratraw(iR109)*ys(iO2P)

!!dfdy(iOP,iHP)
nt = nt + 1
iat = eloc(nt)
dfdy(iat) =  +ratraw(iR121)*ys(iO)

!!dfdy(iOP,iHE)
nt = nt + 1
iat = eloc(nt)
dfdy(iat) =  +ratraw(iR134)*ys(iO2P)

!!dfdy(iOP,iO)
nt = nt + 1
iat = eloc(nt)
dfdy(iat) =  +ratraw(iR026)*ys(iE)+ratraw(iR121)*ys(iHP)

!!dfdy(iOP,iOP)
nt = nt + 1
iat = eloc(nt)
dfdy(iat) =  -ratraw(iR007)*ys(iE)-ratraw(iR027)*ys(iE)-ratraw(iR081)-ratraw(iR108)*ys(iH)-ratraw(iR150)*ys(iFE)

!!dfdy(iOP,iO2P)
nt = nt + 1
iat = eloc(nt)
dfdy(iat) =  +ratraw(iR008)*ys(iE)+ratraw(iR081)+ratraw(iR109)*ys(iH)+ratraw(iR134)*ys(iHE)

!!dfdy(iOP,iFE)
nt = nt + 1
iat = eloc(nt)
dfdy(iat) =  -ratraw(iR150)*ys(iOP)

!!dfdy(iOP,iE)
nt = nt + 1
iat = eloc(nt)
dfdy(iat) =  -ratraw(iR007)*ys(iOP)+ratraw(iR008)*ys(iO2P)+ratraw(iR026)*ys(iO)-ratraw(iR027)*ys(iOP)+ratraw(iR081)

!!dfdy(iO2P,iH)
nt = nt + 1
iat = eloc(nt)
dfdy(iat) =  -ratraw(iR109)*ys(iO2P)+ratraw(iR110)*ys(iO3P)

!!dfdy(iO2P,iHE)
nt = nt + 1
iat = eloc(nt)
dfdy(iat) =  -ratraw(iR134)*ys(iO2P)+ratraw(iR135)*ys(iO3P)

!!dfdy(iO2P,iOP)
nt = nt + 1
iat = eloc(nt)
dfdy(iat) =  +ratraw(iR027)*ys(iE)

!!dfdy(iO2P,iO2P)
nt = nt + 1
iat = eloc(nt)
dfdy(iat) =  -ratraw(iR008)*ys(iE)-ratraw(iR028)*ys(iE)-ratraw(iR082)-ratraw(iR109)*ys(iH)-ratraw(iR134)*ys(iHE)

!!dfdy(iO2P,iO3P)
nt = nt + 1
iat = eloc(nt)
dfdy(iat) =  +ratraw(iR009)*ys(iE)+ratraw(iR082)+ratraw(iR110)*ys(iH)+ratraw(iR135)*ys(iHE)

!!dfdy(iO2P,iE)
nt = nt + 1
iat = eloc(nt)
dfdy(iat) =  -ratraw(iR008)*ys(iO2P)+ratraw(iR009)*ys(iO3P)+ratraw(iR027)*ys(iOP)-ratraw(iR028)*ys(iO2P)+ratraw(iR082)

!!dfdy(iO3P,iH)
nt = nt + 1
iat = eloc(nt)
dfdy(iat) =  -ratraw(iR110)*ys(iO3P)+ratraw(iR111)*ys(iO4P)

!!dfdy(iO3P,iHE)
nt = nt + 1
iat = eloc(nt)
dfdy(iat) =  -ratraw(iR135)*ys(iO3P)+ratraw(iR136)*ys(iO4P)

!!dfdy(iO3P,iO2P)
nt = nt + 1
iat = eloc(nt)
dfdy(iat) =  +ratraw(iR028)*ys(iE)

!!dfdy(iO3P,iO3P)
nt = nt + 1
iat = eloc(nt)
dfdy(iat) =  -ratraw(iR009)*ys(iE)-ratraw(iR029)*ys(iE)-ratraw(iR083)-ratraw(iR110)*ys(iH)-ratraw(iR135)*ys(iHE)

!!dfdy(iO3P,iO4P)
nt = nt + 1
iat = eloc(nt)
dfdy(iat) =  +ratraw(iR010)*ys(iE)+ratraw(iR083)+ratraw(iR111)*ys(iH)+ratraw(iR136)*ys(iHE)

!!dfdy(iO3P,iE)
nt = nt + 1
iat = eloc(nt)
dfdy(iat) =  -ratraw(iR009)*ys(iO3P)+ratraw(iR010)*ys(iO4P)+ratraw(iR028)*ys(iO2P)-ratraw(iR029)*ys(iO3P)+ratraw(iR083)

!!dfdy(iO4P,iH)
nt = nt + 1
iat = eloc(nt)
dfdy(iat) =  -ratraw(iR111)*ys(iO4P)

!!dfdy(iO4P,iHE)
nt = nt + 1
iat = eloc(nt)
dfdy(iat) =  -ratraw(iR136)*ys(iO4P)

!!dfdy(iO4P,iO3P)
nt = nt + 1
iat = eloc(nt)
dfdy(iat) =  +ratraw(iR029)*ys(iE)

!!dfdy(iO4P,iO4P)
nt = nt + 1
iat = eloc(nt)
dfdy(iat) =  -ratraw(iR010)*ys(iE)-ratraw(iR030)*ys(iE)-ratraw(iR084)-ratraw(iR111)*ys(iH)-ratraw(iR136)*ys(iHE)

!!dfdy(iO4P,iO5P)
nt = nt + 1
iat = eloc(nt)
dfdy(iat) =  +ratraw(iR011)*ys(iE)+ratraw(iR084)

!!dfdy(iO4P,iE)
nt = nt + 1
iat = eloc(nt)
dfdy(iat) =  -ratraw(iR010)*ys(iO4P)+ratraw(iR011)*ys(iO5P)+ratraw(iR029)*ys(iO3P)-ratraw(iR030)*ys(iO4P)+ratraw(iR084)

!!dfdy(iO5P,iO4P)
nt = nt + 1
iat = eloc(nt)
dfdy(iat) =  +ratraw(iR030)*ys(iE)

!!dfdy(iO5P,iO5P)
nt = nt + 1
iat = eloc(nt)
dfdy(iat) =  -ratraw(iR011)*ys(iE)-ratraw(iR031)*ys(iE)-ratraw(iR085)

!!dfdy(iO5P,iO6P)
nt = nt + 1
iat = eloc(nt)
dfdy(iat) =  +ratraw(iR012)*ys(iE)+ratraw(iR085)

!!dfdy(iO5P,iE)
nt = nt + 1
iat = eloc(nt)
dfdy(iat) =  -ratraw(iR011)*ys(iO5P)+ratraw(iR012)*ys(iO6P)+ratraw(iR030)*ys(iO4P)-ratraw(iR031)*ys(iO5P)+ratraw(iR085)

!!dfdy(iO6P,iO5P)
nt = nt + 1
iat = eloc(nt)
dfdy(iat) =  +ratraw(iR031)*ys(iE)

!!dfdy(iO6P,iO6P)
nt = nt + 1
iat = eloc(nt)
dfdy(iat) =  -ratraw(iR012)*ys(iE)-ratraw(iR032)*ys(iE)-ratraw(iR086)

!!dfdy(iO6P,iO7P)
nt = nt + 1
iat = eloc(nt)
dfdy(iat) =  +ratraw(iR013)*ys(iE)+ratraw(iR086)

!!dfdy(iO6P,iE)
nt = nt + 1
iat = eloc(nt)
dfdy(iat) =  -ratraw(iR012)*ys(iO6P)+ratraw(iR013)*ys(iO7P)+ratraw(iR031)*ys(iO5P)-ratraw(iR032)*ys(iO6P)+ratraw(iR086)

!!dfdy(iO7P,iO6P)
nt = nt + 1
iat = eloc(nt)
dfdy(iat) =  +ratraw(iR032)*ys(iE)

!!dfdy(iO7P,iO7P)
nt = nt + 1
iat = eloc(nt)
dfdy(iat) =  -ratraw(iR013)*ys(iE)

!!dfdy(iO7P,iE)
nt = nt + 1
iat = eloc(nt)
dfdy(iat) =  -ratraw(iR013)*ys(iO7P)+ratraw(iR032)*ys(iO6P)

!!dfdy(iNA,iHP)
nt = nt + 1
iat = eloc(nt)
dfdy(iat) =  -ratraw(iR122)*ys(iNA)

!!dfdy(iNA,iCP)
nt = nt + 1
iat = eloc(nt)
dfdy(iat) =  -ratraw(iR144)*ys(iNA)

!!dfdy(iNA,iNA)
nt = nt + 1
iat = eloc(nt)
dfdy(iat) =  -ratraw(iR035)*ys(iE)-ratraw(iR087)-ratraw(iR122)*ys(iHP)-ratraw(iR144)*ys(iCP)-ratraw(iR146)*ys(iFEP)-ratraw(iR147)*ys(iMGP)-ratraw(iR153)*ys(iSIP)

!!dfdy(iNA,iNAP)
nt = nt + 1
iat = eloc(nt)
dfdy(iat) =  +ratraw(iR016)*ys(iE)+ratraw(iR087)

!!dfdy(iNA,iMGP)
nt = nt + 1
iat = eloc(nt)
dfdy(iat) =  -ratraw(iR147)*ys(iNA)

!!dfdy(iNA,iSIP)
nt = nt + 1
iat = eloc(nt)
dfdy(iat) =  -ratraw(iR153)*ys(iNA)

!!dfdy(iNA,iFEP)
nt = nt + 1
iat = eloc(nt)
dfdy(iat) =  -ratraw(iR146)*ys(iNA)

!!dfdy(iNA,iE)
nt = nt + 1
iat = eloc(nt)
dfdy(iat) =  +ratraw(iR016)*ys(iNAP)-ratraw(iR035)*ys(iNA)+ratraw(iR087)

!!dfdy(iNAP,iHP)
nt = nt + 1
iat = eloc(nt)
dfdy(iat) =  +ratraw(iR122)*ys(iNA)

!!dfdy(iNAP,iCP)
nt = nt + 1
iat = eloc(nt)
dfdy(iat) =  +ratraw(iR144)*ys(iNA)

!!dfdy(iNAP,iNA)
nt = nt + 1
iat = eloc(nt)
dfdy(iat) =  +ratraw(iR035)*ys(iE)+ratraw(iR122)*ys(iHP)+ratraw(iR144)*ys(iCP)+ratraw(iR146)*ys(iFEP)+ratraw(iR147)*ys(iMGP)+ratraw(iR153)*ys(iSIP)

!!dfdy(iNAP,iNAP)
nt = nt + 1
iat = eloc(nt)
dfdy(iat) =  -ratraw(iR016)*ys(iE)

!!dfdy(iNAP,iMGP)
nt = nt + 1
iat = eloc(nt)
dfdy(iat) =  +ratraw(iR147)*ys(iNA)

!!dfdy(iNAP,iSIP)
nt = nt + 1
iat = eloc(nt)
dfdy(iat) =  +ratraw(iR153)*ys(iNA)

!!dfdy(iNAP,iFEP)
nt = nt + 1
iat = eloc(nt)
dfdy(iat) =  +ratraw(iR146)*ys(iNA)

!!dfdy(iNAP,iE)
nt = nt + 1
iat = eloc(nt)
dfdy(iat) =  -ratraw(iR016)*ys(iNAP)+ratraw(iR035)*ys(iNA)

!!dfdy(iMG,iHP)
nt = nt + 1
iat = eloc(nt)
dfdy(iat) =  -ratraw(iR123)*ys(iMG)

!!dfdy(iMG,iCP)
nt = nt + 1
iat = eloc(nt)
dfdy(iat) =  -ratraw(iR143)*ys(iMG)

!!dfdy(iMG,iNP)
nt = nt + 1
iat = eloc(nt)
dfdy(iat) =  -ratraw(iR149)*ys(iMG)

!!dfdy(iMG,iNA)
nt = nt + 1
iat = eloc(nt)
dfdy(iat) =  +ratraw(iR147)*ys(iMGP)

!!dfdy(iMG,iMG)
nt = nt + 1
iat = eloc(nt)
dfdy(iat) =  -ratraw(iR033)*ys(iE)-ratraw(iR088)-ratraw(iR123)*ys(iHP)-ratraw(iR143)*ys(iCP)-ratraw(iR149)*ys(iNP)-ratraw(iR152)*ys(iSIP)

!!dfdy(iMG,iMGP)
nt = nt + 1
iat = eloc(nt)
dfdy(iat) =  +ratraw(iR014)*ys(iE)+ratraw(iR088)+ratraw(iR147)*ys(iNA)

!!dfdy(iMG,iSIP)
nt = nt + 1
iat = eloc(nt)
dfdy(iat) =  -ratraw(iR152)*ys(iMG)

!!dfdy(iMG,iE)
nt = nt + 1
iat = eloc(nt)
dfdy(iat) =  +ratraw(iR014)*ys(iMGP)-ratraw(iR033)*ys(iMG)+ratraw(iR088)

!!dfdy(iMGP,iH)
nt = nt + 1
iat = eloc(nt)
dfdy(iat) =  +ratraw(iR112)*ys(iMG2P)

!!dfdy(iMGP,iHP)
nt = nt + 1
iat = eloc(nt)
dfdy(iat) =  +ratraw(iR123)*ys(iMG)-ratraw(iR124)*ys(iMGP)

!!dfdy(iMGP,iCP)
nt = nt + 1
iat = eloc(nt)
dfdy(iat) =  +ratraw(iR143)*ys(iMG)

!!dfdy(iMGP,iNP)
nt = nt + 1
iat = eloc(nt)
dfdy(iat) =  +ratraw(iR149)*ys(iMG)

!!dfdy(iMGP,iNA)
nt = nt + 1
iat = eloc(nt)
dfdy(iat) =  -ratraw(iR147)*ys(iMGP)

!!dfdy(iMGP,iMG)
nt = nt + 1
iat = eloc(nt)
dfdy(iat) =  +ratraw(iR033)*ys(iE)+ratraw(iR123)*ys(iHP)+ratraw(iR143)*ys(iCP)+ratraw(iR149)*ys(iNP)+ratraw(iR152)*ys(iSIP)

!!dfdy(iMGP,iMGP)
nt = nt + 1
iat = eloc(nt)
dfdy(iat) =  -ratraw(iR014)*ys(iE)-ratraw(iR034)*ys(iE)-ratraw(iR089)-ratraw(iR124)*ys(iHP)-ratraw(iR147)*ys(iNA)

!!dfdy(iMGP,iMG2P)
nt = nt + 1
iat = eloc(nt)
dfdy(iat) =  +ratraw(iR015)*ys(iE)+ratraw(iR089)+ratraw(iR112)*ys(iH)

!!dfdy(iMGP,iSIP)
nt = nt + 1
iat = eloc(nt)
dfdy(iat) =  +ratraw(iR152)*ys(iMG)

!!dfdy(iMGP,iE)
nt = nt + 1
iat = eloc(nt)
dfdy(iat) =  -ratraw(iR014)*ys(iMGP)+ratraw(iR015)*ys(iMG2P)+ratraw(iR033)*ys(iMG)-ratraw(iR034)*ys(iMGP)+ratraw(iR089)

!!dfdy(iMG2P,iH)
nt = nt + 1
iat = eloc(nt)
dfdy(iat) =  -ratraw(iR112)*ys(iMG2P)

!!dfdy(iMG2P,iHP)
nt = nt + 1
iat = eloc(nt)
dfdy(iat) =  +ratraw(iR124)*ys(iMGP)

!!dfdy(iMG2P,iMGP)
nt = nt + 1
iat = eloc(nt)
dfdy(iat) =  +ratraw(iR034)*ys(iE)+ratraw(iR124)*ys(iHP)

!!dfdy(iMG2P,iMG2P)
nt = nt + 1
iat = eloc(nt)
dfdy(iat) =  -ratraw(iR015)*ys(iE)-ratraw(iR112)*ys(iH)

!!dfdy(iMG2P,iE)
nt = nt + 1
iat = eloc(nt)
dfdy(iat) =  -ratraw(iR015)*ys(iMG2P)+ratraw(iR034)*ys(iMGP)

!!dfdy(iSI,iHP)
nt = nt + 1
iat = eloc(nt)
dfdy(iat) =  -ratraw(iR125)*ys(iSI)

!!dfdy(iSI,iHEP)
nt = nt + 1
iat = eloc(nt)
dfdy(iat) =  -ratraw(iR141)*ys(iSI)

!!dfdy(iSI,iCP)
nt = nt + 1
iat = eloc(nt)
dfdy(iat) =  -ratraw(iR145)*ys(iSI)

!!dfdy(iSI,iNA)
nt = nt + 1
iat = eloc(nt)
dfdy(iat) =  +ratraw(iR153)*ys(iSIP)

!!dfdy(iSI,iMG)
nt = nt + 1
iat = eloc(nt)
dfdy(iat) =  +ratraw(iR152)*ys(iSIP)

!!dfdy(iSI,iSI)
nt = nt + 1
iat = eloc(nt)
dfdy(iat) =  -ratraw(iR058)*ys(iE)-ratraw(iR090)-ratraw(iR125)*ys(iHP)-ratraw(iR141)*ys(iHEP)-ratraw(iR145)*ys(iCP)

!!dfdy(iSI,iSIP)
nt = nt + 1
iat = eloc(nt)
dfdy(iat) =  +ratraw(iR044)*ys(iE)+ratraw(iR090)+ratraw(iR151)*ys(iFE)+ratraw(iR152)*ys(iMG)+ratraw(iR153)*ys(iNA)

!!dfdy(iSI,iFE)
nt = nt + 1
iat = eloc(nt)
dfdy(iat) =  +ratraw(iR151)*ys(iSIP)

!!dfdy(iSI,iE)
nt = nt + 1
iat = eloc(nt)
dfdy(iat) =  +ratraw(iR044)*ys(iSIP)-ratraw(iR058)*ys(iSI)+ratraw(iR090)

!!dfdy(iSIP,iH)
nt = nt + 1
iat = eloc(nt)
dfdy(iat) =  +ratraw(iR113)*ys(iSI2P)

!!dfdy(iSIP,iHP)
nt = nt + 1
iat = eloc(nt)
dfdy(iat) =  +ratraw(iR125)*ys(iSI)-ratraw(iR126)*ys(iSIP)

!!dfdy(iSIP,iCP)
nt = nt + 1
iat = eloc(nt)
dfdy(iat) =  +ratraw(iR145)*ys(iSI)

!!dfdy(iSIP,iNA)
nt = nt + 1
iat = eloc(nt)
dfdy(iat) =  -ratraw(iR153)*ys(iSIP)

!!dfdy(iSIP,iMG)
nt = nt + 1
iat = eloc(nt)
dfdy(iat) =  -ratraw(iR152)*ys(iSIP)

!!dfdy(iSIP,iSI)
nt = nt + 1
iat = eloc(nt)
dfdy(iat) =  +ratraw(iR058)*ys(iE)+ratraw(iR125)*ys(iHP)+ratraw(iR145)*ys(iCP)

!!dfdy(iSIP,iSIP)
nt = nt + 1
iat = eloc(nt)
dfdy(iat) =  -ratraw(iR044)*ys(iE)-ratraw(iR059)*ys(iE)-ratraw(iR091)-ratraw(iR126)*ys(iHP)-ratraw(iR151)*ys(iFE)-ratraw(iR152)*ys(iMG)-ratraw(iR153)*ys(iNA)

!!dfdy(iSIP,iSI2P)
nt = nt + 1
iat = eloc(nt)
dfdy(iat) =  +ratraw(iR045)*ys(iE)+ratraw(iR091)+ratraw(iR113)*ys(iH)

!!dfdy(iSIP,iFE)
nt = nt + 1
iat = eloc(nt)
dfdy(iat) =  -ratraw(iR151)*ys(iSIP)

!!dfdy(iSIP,iE)
nt = nt + 1
iat = eloc(nt)
dfdy(iat) =  -ratraw(iR044)*ys(iSIP)+ratraw(iR045)*ys(iSI2P)+ratraw(iR058)*ys(iSI)-ratraw(iR059)*ys(iSIP)+ratraw(iR091)

!!dfdy(iSI2P,iH)
nt = nt + 1
iat = eloc(nt)
dfdy(iat) =  -ratraw(iR113)*ys(iSI2P)+ratraw(iR114)*ys(iSI3P)

!!dfdy(iSI2P,iHP)
nt = nt + 1
iat = eloc(nt)
dfdy(iat) =  +ratraw(iR126)*ys(iSIP)

!!dfdy(iSI2P,iHE)
nt = nt + 1
iat = eloc(nt)
dfdy(iat) =  +ratraw(iR137)*ys(iSI3P)

!!dfdy(iSI2P,iHEP)
nt = nt + 1
iat = eloc(nt)
dfdy(iat) =  +ratraw(iR141)*ys(iSI)

!!dfdy(iSI2P,iSI)
nt = nt + 1
iat = eloc(nt)
dfdy(iat) =  +ratraw(iR141)*ys(iHEP)

!!dfdy(iSI2P,iSIP)
nt = nt + 1
iat = eloc(nt)
dfdy(iat) =  +ratraw(iR059)*ys(iE)+ratraw(iR126)*ys(iHP)

!!dfdy(iSI2P,iSI2P)
nt = nt + 1
iat = eloc(nt)
dfdy(iat) =  -ratraw(iR045)*ys(iE)-ratraw(iR060)*ys(iE)-ratraw(iR092)-ratraw(iR113)*ys(iH)

!!dfdy(iSI2P,iSI3P)
nt = nt + 1
iat = eloc(nt)
dfdy(iat) =  +ratraw(iR046)*ys(iE)+ratraw(iR092)+ratraw(iR114)*ys(iH)+ratraw(iR137)*ys(iHE)

!!dfdy(iSI2P,iE)
nt = nt + 1
iat = eloc(nt)
dfdy(iat) =  -ratraw(iR045)*ys(iSI2P)+ratraw(iR046)*ys(iSI3P)+ratraw(iR059)*ys(iSIP)-ratraw(iR060)*ys(iSI2P)+ratraw(iR092)

!!dfdy(iSI3P,iH)
nt = nt + 1
iat = eloc(nt)
dfdy(iat) =  -ratraw(iR114)*ys(iSI3P)+ratraw(iR115)*ys(iSI4P)

!!dfdy(iSI3P,iHE)
nt = nt + 1
iat = eloc(nt)
dfdy(iat) =  -ratraw(iR137)*ys(iSI3P)+ratraw(iR138)*ys(iSI4P)

!!dfdy(iSI3P,iSI2P)
nt = nt + 1
iat = eloc(nt)
dfdy(iat) =  +ratraw(iR060)*ys(iE)

!!dfdy(iSI3P,iSI3P)
nt = nt + 1
iat = eloc(nt)
dfdy(iat) =  -ratraw(iR046)*ys(iE)-ratraw(iR061)*ys(iE)-ratraw(iR093)-ratraw(iR114)*ys(iH)-ratraw(iR137)*ys(iHE)

!!dfdy(iSI3P,iSI4P)
nt = nt + 1
iat = eloc(nt)
dfdy(iat) =  +ratraw(iR047)*ys(iE)+ratraw(iR093)+ratraw(iR115)*ys(iH)+ratraw(iR138)*ys(iHE)

!!dfdy(iSI3P,iE)
nt = nt + 1
iat = eloc(nt)
dfdy(iat) =  -ratraw(iR046)*ys(iSI3P)+ratraw(iR047)*ys(iSI4P)+ratraw(iR060)*ys(iSI2P)-ratraw(iR061)*ys(iSI3P)+ratraw(iR093)

!!dfdy(iSI4P,iH)
nt = nt + 1
iat = eloc(nt)
dfdy(iat) =  -ratraw(iR115)*ys(iSI4P)

!!dfdy(iSI4P,iHE)
nt = nt + 1
iat = eloc(nt)
dfdy(iat) =  -ratraw(iR138)*ys(iSI4P)

!!dfdy(iSI4P,iSI3P)
nt = nt + 1
iat = eloc(nt)
dfdy(iat) =  +ratraw(iR061)*ys(iE)

!!dfdy(iSI4P,iSI4P)
nt = nt + 1
iat = eloc(nt)
dfdy(iat) =  -ratraw(iR047)*ys(iE)-ratraw(iR062)*ys(iE)-ratraw(iR094)-ratraw(iR115)*ys(iH)-ratraw(iR138)*ys(iHE)

!!dfdy(iSI4P,iSI5P)
nt = nt + 1
iat = eloc(nt)
dfdy(iat) =  +ratraw(iR048)*ys(iE)+ratraw(iR094)

!!dfdy(iSI4P,iE)
nt = nt + 1
iat = eloc(nt)
dfdy(iat) =  -ratraw(iR047)*ys(iSI4P)+ratraw(iR048)*ys(iSI5P)+ratraw(iR061)*ys(iSI3P)-ratraw(iR062)*ys(iSI4P)+ratraw(iR094)

!!dfdy(iSI5P,iSI4P)
nt = nt + 1
iat = eloc(nt)
dfdy(iat) =  +ratraw(iR062)*ys(iE)

!!dfdy(iSI5P,iSI5P)
nt = nt + 1
iat = eloc(nt)
dfdy(iat) =  -ratraw(iR048)*ys(iE)

!!dfdy(iSI5P,iE)
nt = nt + 1
iat = eloc(nt)
dfdy(iat) =  -ratraw(iR048)*ys(iSI5P)+ratraw(iR062)*ys(iSI4P)

!!dfdy(iFE,iHP)
nt = nt + 1
iat = eloc(nt)
dfdy(iat) =  -ratraw(iR127)*ys(iFE)

!!dfdy(iFE,iCP)
nt = nt + 1
iat = eloc(nt)
dfdy(iat) =  -ratraw(iR142)*ys(iFE)

!!dfdy(iFE,iNP)
nt = nt + 1
iat = eloc(nt)
dfdy(iat) =  -ratraw(iR148)*ys(iFE)

!!dfdy(iFE,iOP)
nt = nt + 1
iat = eloc(nt)
dfdy(iat) =  -ratraw(iR150)*ys(iFE)

!!dfdy(iFE,iNA)
nt = nt + 1
iat = eloc(nt)
dfdy(iat) =  +ratraw(iR146)*ys(iFEP)

!!dfdy(iFE,iSIP)
nt = nt + 1
iat = eloc(nt)
dfdy(iat) =  -ratraw(iR151)*ys(iFE)

!!dfdy(iFE,iFE)
nt = nt + 1
iat = eloc(nt)
dfdy(iat) =  -ratraw(iR063)*ys(iE)-ratraw(iR095)-ratraw(iR127)*ys(iHP)-ratraw(iR142)*ys(iCP)-ratraw(iR148)*ys(iNP)-ratraw(iR150)*ys(iOP)-ratraw(iR151)*ys(iSIP)

!!dfdy(iFE,iFEP)
nt = nt + 1
iat = eloc(nt)
dfdy(iat) =  +ratraw(iR049)*ys(iE)+ratraw(iR095)+ratraw(iR146)*ys(iNA)

!!dfdy(iFE,iE)
nt = nt + 1
iat = eloc(nt)
dfdy(iat) =  +ratraw(iR049)*ys(iFEP)-ratraw(iR063)*ys(iFE)+ratraw(iR095)

!!dfdy(iFEP,iH)
nt = nt + 1
iat = eloc(nt)
dfdy(iat) =  +ratraw(iR116)*ys(iFE2P)

!!dfdy(iFEP,iHP)
nt = nt + 1
iat = eloc(nt)
dfdy(iat) =  +ratraw(iR127)*ys(iFE)-ratraw(iR128)*ys(iFEP)

!!dfdy(iFEP,iCP)
nt = nt + 1
iat = eloc(nt)
dfdy(iat) =  +ratraw(iR142)*ys(iFE)

!!dfdy(iFEP,iNP)
nt = nt + 1
iat = eloc(nt)
dfdy(iat) =  +ratraw(iR148)*ys(iFE)

!!dfdy(iFEP,iOP)
nt = nt + 1
iat = eloc(nt)
dfdy(iat) =  +ratraw(iR150)*ys(iFE)

!!dfdy(iFEP,iNA)
nt = nt + 1
iat = eloc(nt)
dfdy(iat) =  -ratraw(iR146)*ys(iFEP)

!!dfdy(iFEP,iSIP)
nt = nt + 1
iat = eloc(nt)
dfdy(iat) =  +ratraw(iR151)*ys(iFE)

!!dfdy(iFEP,iFE)
nt = nt + 1
iat = eloc(nt)
dfdy(iat) =  +ratraw(iR063)*ys(iE)+ratraw(iR127)*ys(iHP)+ratraw(iR142)*ys(iCP)+ratraw(iR148)*ys(iNP)+ratraw(iR150)*ys(iOP)+ratraw(iR151)*ys(iSIP)

!!dfdy(iFEP,iFEP)
nt = nt + 1
iat = eloc(nt)
dfdy(iat) =  -ratraw(iR049)*ys(iE)-ratraw(iR064)*ys(iE)-ratraw(iR096)-ratraw(iR128)*ys(iHP)-ratraw(iR146)*ys(iNA)

!!dfdy(iFEP,iFE2P)
nt = nt + 1
iat = eloc(nt)
dfdy(iat) =  +ratraw(iR050)*ys(iE)+ratraw(iR096)+ratraw(iR116)*ys(iH)

!!dfdy(iFEP,iE)
nt = nt + 1
iat = eloc(nt)
dfdy(iat) =  -ratraw(iR049)*ys(iFEP)+ratraw(iR050)*ys(iFE2P)+ratraw(iR063)*ys(iFE)-ratraw(iR064)*ys(iFEP)+ratraw(iR096)

!!dfdy(iFE2P,iH)
nt = nt + 1
iat = eloc(nt)
dfdy(iat) =  -ratraw(iR116)*ys(iFE2P)+ratraw(iR117)*ys(iFE3P)

!!dfdy(iFE2P,iHP)
nt = nt + 1
iat = eloc(nt)
dfdy(iat) =  +ratraw(iR128)*ys(iFEP)

!!dfdy(iFE2P,iHE)
nt = nt + 1
iat = eloc(nt)
dfdy(iat) =  +ratraw(iR139)*ys(iFE3P)

!!dfdy(iFE2P,iFEP)
nt = nt + 1
iat = eloc(nt)
dfdy(iat) =  +ratraw(iR064)*ys(iE)+ratraw(iR128)*ys(iHP)

!!dfdy(iFE2P,iFE2P)
nt = nt + 1
iat = eloc(nt)
dfdy(iat) =  -ratraw(iR050)*ys(iE)-ratraw(iR065)*ys(iE)-ratraw(iR097)-ratraw(iR116)*ys(iH)

!!dfdy(iFE2P,iFE3P)
nt = nt + 1
iat = eloc(nt)
dfdy(iat) =  +ratraw(iR051)*ys(iE)+ratraw(iR097)+ratraw(iR117)*ys(iH)+ratraw(iR139)*ys(iHE)

!!dfdy(iFE2P,iE)
nt = nt + 1
iat = eloc(nt)
dfdy(iat) =  -ratraw(iR050)*ys(iFE2P)+ratraw(iR051)*ys(iFE3P)+ratraw(iR064)*ys(iFEP)-ratraw(iR065)*ys(iFE2P)+ratraw(iR097)

!!dfdy(iFE3P,iH)
nt = nt + 1
iat = eloc(nt)
dfdy(iat) =  -ratraw(iR117)*ys(iFE3P)+ratraw(iR118)*ys(iFE4P)

!!dfdy(iFE3P,iHE)
nt = nt + 1
iat = eloc(nt)
dfdy(iat) =  -ratraw(iR139)*ys(iFE3P)+ratraw(iR140)*ys(iFE4P)

!!dfdy(iFE3P,iFE2P)
nt = nt + 1
iat = eloc(nt)
dfdy(iat) =  +ratraw(iR065)*ys(iE)

!!dfdy(iFE3P,iFE3P)
nt = nt + 1
iat = eloc(nt)
dfdy(iat) =  -ratraw(iR051)*ys(iE)-ratraw(iR066)*ys(iE)-ratraw(iR098)-ratraw(iR117)*ys(iH)-ratraw(iR139)*ys(iHE)

!!dfdy(iFE3P,iFE4P)
nt = nt + 1
iat = eloc(nt)
dfdy(iat) =  +ratraw(iR052)*ys(iE)+ratraw(iR098)+ratraw(iR118)*ys(iH)+ratraw(iR140)*ys(iHE)

!!dfdy(iFE3P,iE)
nt = nt + 1
iat = eloc(nt)
dfdy(iat) =  -ratraw(iR051)*ys(iFE3P)+ratraw(iR052)*ys(iFE4P)+ratraw(iR065)*ys(iFE2P)-ratraw(iR066)*ys(iFE3P)+ratraw(iR098)

!!dfdy(iFE4P,iH)
nt = nt + 1
iat = eloc(nt)
dfdy(iat) =  -ratraw(iR118)*ys(iFE4P)

!!dfdy(iFE4P,iHE)
nt = nt + 1
iat = eloc(nt)
dfdy(iat) =  -ratraw(iR140)*ys(iFE4P)

!!dfdy(iFE4P,iFE3P)
nt = nt + 1
iat = eloc(nt)
dfdy(iat) =  +ratraw(iR066)*ys(iE)

!!dfdy(iFE4P,iFE4P)
nt = nt + 1
iat = eloc(nt)
dfdy(iat) =  -ratraw(iR052)*ys(iE)-ratraw(iR118)*ys(iH)-ratraw(iR140)*ys(iHE)

!!dfdy(iFE4P,iE)
nt = nt + 1
iat = eloc(nt)
dfdy(iat) =  -ratraw(iR052)*ys(iFE4P)+ratraw(iR066)*ys(iFE3P)

!!dfdy(iE,iH)
nt = nt + 1
iat = eloc(nt)
dfdy(iat) =  -ratraw(iR018)*ys(iE)+ratraw(iR018)*ys(iE)+ratraw(iR018)*ys(iE)

!!dfdy(iE,iHP)
nt = nt + 1
iat = eloc(nt)
dfdy(iat) =  -ratraw(iR017)*ys(iE)

!!dfdy(iE,iHE)
nt = nt + 1
iat = eloc(nt)
dfdy(iat) =  -ratraw(iR019)*ys(iE)+ratraw(iR019)*ys(iE)+ratraw(iR019)*ys(iE)

!!dfdy(iE,iHEP)
nt = nt + 1
iat = eloc(nt)
dfdy(iat) =  -ratraw(iR001)*ys(iE)-ratraw(iR020)*ys(iE)+ratraw(iR020)*ys(iE)+ratraw(iR020)*ys(iE)

!!dfdy(iE,iHEPP)
nt = nt + 1
iat = eloc(nt)
dfdy(iat) =  -ratraw(iR036)*ys(iE)

!!dfdy(iE,iC)
nt = nt + 1
iat = eloc(nt)
dfdy(iat) =  -ratraw(iR021)*ys(iE)+ratraw(iR021)*ys(iE)+ratraw(iR021)*ys(iE)

!!dfdy(iE,iCP)
nt = nt + 1
iat = eloc(nt)
dfdy(iat) =  -ratraw(iR002)*ys(iE)-ratraw(iR022)*ys(iE)+ratraw(iR022)*ys(iE)+ratraw(iR022)*ys(iE)

!!dfdy(iE,iC2P)
nt = nt + 1
iat = eloc(nt)
dfdy(iat) =  -ratraw(iR003)*ys(iE)-ratraw(iR023)*ys(iE)+ratraw(iR023)*ys(iE)+ratraw(iR023)*ys(iE)

!!dfdy(iE,iC3P)
nt = nt + 1
iat = eloc(nt)
dfdy(iat) =  -ratraw(iR004)*ys(iE)-ratraw(iR024)*ys(iE)+ratraw(iR024)*ys(iE)+ratraw(iR024)*ys(iE)

!!dfdy(iE,iC4P)
nt = nt + 1
iat = eloc(nt)
dfdy(iat) =  -ratraw(iR005)*ys(iE)-ratraw(iR025)*ys(iE)+ratraw(iR025)*ys(iE)+ratraw(iR025)*ys(iE)

!!dfdy(iE,iC5P)
nt = nt + 1
iat = eloc(nt)
dfdy(iat) =  -ratraw(iR006)*ys(iE)

!!dfdy(iE,iN)
nt = nt + 1
iat = eloc(nt)
dfdy(iat) =  -ratraw(iR053)*ys(iE)+ratraw(iR053)*ys(iE)+ratraw(iR053)*ys(iE)

!!dfdy(iE,iNP)
nt = nt + 1
iat = eloc(nt)
dfdy(iat) =  -ratraw(iR039)*ys(iE)-ratraw(iR054)*ys(iE)+ratraw(iR054)*ys(iE)+ratraw(iR054)*ys(iE)

!!dfdy(iE,iN2P)
nt = nt + 1
iat = eloc(nt)
dfdy(iat) =  -ratraw(iR040)*ys(iE)-ratraw(iR055)*ys(iE)+ratraw(iR055)*ys(iE)+ratraw(iR055)*ys(iE)

!!dfdy(iE,iN3P)
nt = nt + 1
iat = eloc(nt)
dfdy(iat) =  -ratraw(iR041)*ys(iE)-ratraw(iR056)*ys(iE)+ratraw(iR056)*ys(iE)+ratraw(iR056)*ys(iE)

!!dfdy(iE,iN4P)
nt = nt + 1
iat = eloc(nt)
dfdy(iat) =  -ratraw(iR042)*ys(iE)-ratraw(iR057)*ys(iE)+ratraw(iR057)*ys(iE)+ratraw(iR057)*ys(iE)

!!dfdy(iE,iN5P)
nt = nt + 1
iat = eloc(nt)
dfdy(iat) =  -ratraw(iR043)*ys(iE)

!!dfdy(iE,iO)
nt = nt + 1
iat = eloc(nt)
dfdy(iat) =  -ratraw(iR026)*ys(iE)+ratraw(iR026)*ys(iE)+ratraw(iR026)*ys(iE)

!!dfdy(iE,iOP)
nt = nt + 1
iat = eloc(nt)
dfdy(iat) =  -ratraw(iR007)*ys(iE)-ratraw(iR027)*ys(iE)+ratraw(iR027)*ys(iE)+ratraw(iR027)*ys(iE)

!!dfdy(iE,iO2P)
nt = nt + 1
iat = eloc(nt)
dfdy(iat) =  -ratraw(iR008)*ys(iE)-ratraw(iR028)*ys(iE)+ratraw(iR028)*ys(iE)+ratraw(iR028)*ys(iE)

!!dfdy(iE,iO3P)
nt = nt + 1
iat = eloc(nt)
dfdy(iat) =  -ratraw(iR009)*ys(iE)-ratraw(iR029)*ys(iE)+ratraw(iR029)*ys(iE)+ratraw(iR029)*ys(iE)

!!dfdy(iE,iO4P)
nt = nt + 1
iat = eloc(nt)
dfdy(iat) =  -ratraw(iR010)*ys(iE)-ratraw(iR030)*ys(iE)+ratraw(iR030)*ys(iE)+ratraw(iR030)*ys(iE)

!!dfdy(iE,iO5P)
nt = nt + 1
iat = eloc(nt)
dfdy(iat) =  -ratraw(iR011)*ys(iE)-ratraw(iR031)*ys(iE)+ratraw(iR031)*ys(iE)+ratraw(iR031)*ys(iE)

!!dfdy(iE,iO6P)
nt = nt + 1
iat = eloc(nt)
dfdy(iat) =  -ratraw(iR012)*ys(iE)-ratraw(iR032)*ys(iE)+ratraw(iR032)*ys(iE)+ratraw(iR032)*ys(iE)

!!dfdy(iE,iO7P)
nt = nt + 1
iat = eloc(nt)
dfdy(iat) =  -ratraw(iR013)*ys(iE)

!!dfdy(iE,iNA)
nt = nt + 1
iat = eloc(nt)
dfdy(iat) =  -ratraw(iR035)*ys(iE)+ratraw(iR035)*ys(iE)+ratraw(iR035)*ys(iE)

!!dfdy(iE,iNAP)
nt = nt + 1
iat = eloc(nt)
dfdy(iat) =  -ratraw(iR016)*ys(iE)

!!dfdy(iE,iMG)
nt = nt + 1
iat = eloc(nt)
dfdy(iat) =  -ratraw(iR033)*ys(iE)+ratraw(iR033)*ys(iE)+ratraw(iR033)*ys(iE)

!!dfdy(iE,iMGP)
nt = nt + 1
iat = eloc(nt)
dfdy(iat) =  -ratraw(iR014)*ys(iE)-ratraw(iR034)*ys(iE)+ratraw(iR034)*ys(iE)+ratraw(iR034)*ys(iE)

!!dfdy(iE,iMG2P)
nt = nt + 1
iat = eloc(nt)
dfdy(iat) =  -ratraw(iR015)*ys(iE)

!!dfdy(iE,iSI)
nt = nt + 1
iat = eloc(nt)
dfdy(iat) =  -ratraw(iR058)*ys(iE)+ratraw(iR058)*ys(iE)+ratraw(iR058)*ys(iE)

!!dfdy(iE,iSIP)
nt = nt + 1
iat = eloc(nt)
dfdy(iat) =  -ratraw(iR044)*ys(iE)-ratraw(iR059)*ys(iE)+ratraw(iR059)*ys(iE)+ratraw(iR059)*ys(iE)

!!dfdy(iE,iSI2P)
nt = nt + 1
iat = eloc(nt)
dfdy(iat) =  -ratraw(iR045)*ys(iE)-ratraw(iR060)*ys(iE)+ratraw(iR060)*ys(iE)+ratraw(iR060)*ys(iE)

!!dfdy(iE,iSI3P)
nt = nt + 1
iat = eloc(nt)
dfdy(iat) =  -ratraw(iR046)*ys(iE)-ratraw(iR061)*ys(iE)+ratraw(iR061)*ys(iE)+ratraw(iR061)*ys(iE)

!!dfdy(iE,iSI4P)
nt = nt + 1
iat = eloc(nt)
dfdy(iat) =  -ratraw(iR047)*ys(iE)-ratraw(iR062)*ys(iE)+ratraw(iR062)*ys(iE)+ratraw(iR062)*ys(iE)

!!dfdy(iE,iSI5P)
nt = nt + 1
iat = eloc(nt)
dfdy(iat) =  -ratraw(iR048)*ys(iE)

!!dfdy(iE,iFE)
nt = nt + 1
iat = eloc(nt)
dfdy(iat) =  -ratraw(iR063)*ys(iE)+ratraw(iR063)*ys(iE)+ratraw(iR063)*ys(iE)

!!dfdy(iE,iFEP)
nt = nt + 1
iat = eloc(nt)
dfdy(iat) =  -ratraw(iR049)*ys(iE)-ratraw(iR064)*ys(iE)+ratraw(iR064)*ys(iE)+ratraw(iR064)*ys(iE)

!!dfdy(iE,iFE2P)
nt = nt + 1
iat = eloc(nt)
dfdy(iat) =  -ratraw(iR050)*ys(iE)-ratraw(iR065)*ys(iE)+ratraw(iR065)*ys(iE)+ratraw(iR065)*ys(iE)

!!dfdy(iE,iFE3P)
nt = nt + 1
iat = eloc(nt)
dfdy(iat) =  -ratraw(iR051)*ys(iE)-ratraw(iR066)*ys(iE)+ratraw(iR066)*ys(iE)+ratraw(iR066)*ys(iE)

!!dfdy(iE,iFE4P)
nt = nt + 1
iat = eloc(nt)
dfdy(iat) =  -ratraw(iR052)*ys(iE)

!!dfdy(iE,iE)
nt = nt + 1
iat = eloc(nt)
dfdy(iat) =  -ratraw(iR001)*ys(iHEP)-ratraw(iR002)*ys(iCP)-ratraw(iR003)*ys(iC2P)-ratraw(iR004)*ys(iC3P)-ratraw(iR005)*ys(iC4P)-ratraw(iR006)*ys(iC5P)-ratraw(iR007)*ys(iOP)-ratraw(iR008)*ys(iO2P)-ratraw(iR009)*ys(iO3P)-ratraw(iR010)*ys(iO4P)-ratraw(iR011)*ys(iO5P)-ratraw(iR012)*ys(iO6P)-ratraw(iR013)*ys(iO7P)-ratraw(iR014)*ys(iMGP)-ratraw(iR015)*ys(iMG2P)-ratraw(iR016)*ys(iNAP)-ratraw(iR017)*ys(iHP)-ratraw(iR018)*ys(iH)+ratraw(iR018)*ys(iH)+ratraw(iR018)*ys(iH)-ratraw(iR019)*ys(iHE)+ratraw(iR019)*ys(iHE)+ratraw(iR019)*ys(iHE)-ratraw(iR020)*ys(iHEP)+ratraw(iR020)*ys(iHEP)+ratraw(iR020)*ys(iHEP)-ratraw(iR021)*ys(iC)+ratraw(iR021)*ys(iC)+ratraw(iR021)*ys(iC)-ratraw(iR022)*ys(iCP)+ratraw(iR022)*ys(iCP)+ratraw(iR022)*ys(iCP)-ratraw(iR023)*ys(iC2P)+ratraw(iR023)*ys(iC2P)+ratraw(iR023)*ys(iC2P)-ratraw(iR024)*ys(iC3P)+ratraw(iR024)*ys(iC3P)+ratraw(iR024)*ys(iC3P)-ratraw(iR025)*ys(iC4P)+ratraw(iR025)*ys(iC4P)+ratraw(iR025)*ys(iC4P)-ratraw(iR026)*ys(iO)+ratraw(iR026)*ys(iO)+ratraw(iR026)*ys(iO)-ratraw(iR027)*ys(iOP)+ratraw(iR027)*ys(iOP)+ratraw(iR027)*ys(iOP)-ratraw(iR028)*ys(iO2P)+ratraw(iR028)*ys(iO2P)+ratraw(iR028)*ys(iO2P)-ratraw(iR029)*ys(iO3P)+ratraw(iR029)*ys(iO3P)+ratraw(iR029)*ys(iO3P)-ratraw(iR030)*ys(iO4P)+ratraw(iR030)*ys(iO4P)+ratraw(iR030)*ys(iO4P)-ratraw(iR031)*ys(iO5P)+ratraw(iR031)*ys(iO5P)+ratraw(iR031)*ys(iO5P)-ratraw(iR032)*ys(iO6P)+ratraw(iR032)*ys(iO6P)+ratraw(iR032)*ys(iO6P)-ratraw(iR033)*ys(iMG)+ratraw(iR033)*ys(iMG)+ratraw(iR033)*ys(iMG)-ratraw(iR034)*ys(iMGP)+ratraw(iR034)*ys(iMGP)+ratraw(iR034)*ys(iMGP)-ratraw(iR035)*ys(iNA)+ratraw(iR035)*ys(iNA)+ratraw(iR035)*ys(iNA)-ratraw(iR036)*ys(iHEPP)-ratraw(iR039)*ys(iNP)-ratraw(iR040)*ys(iN2P)-ratraw(iR041)*ys(iN3P)-ratraw(iR042)*ys(iN4P)-ratraw(iR043)*ys(iN5P)-ratraw(iR044)*ys(iSIP)-ratraw(iR045)*ys(iSI2P)-ratraw(iR046)*ys(iSI3P)-ratraw(iR047)*ys(iSI4P)-ratraw(iR048)*ys(iSI5P)-ratraw(iR049)*ys(iFEP)-ratraw(iR050)*ys(iFE2P)-ratraw(iR051)*ys(iFE3P)-ratraw(iR052)*ys(iFE4P)-ratraw(iR053)*ys(iN)+ratraw(iR053)*ys(iN)+ratraw(iR053)*ys(iN)-ratraw(iR054)*ys(iNP)+ratraw(iR054)*ys(iNP)+ratraw(iR054)*ys(iNP)-ratraw(iR055)*ys(iN2P)+ratraw(iR055)*ys(iN2P)+ratraw(iR055)*ys(iN2P)-ratraw(iR056)*ys(iN3P)+ratraw(iR056)*ys(iN3P)+ratraw(iR056)*ys(iN3P)-ratraw(iR057)*ys(iN4P)+ratraw(iR057)*ys(iN4P)+ratraw(iR057)*ys(iN4P)-ratraw(iR058)*ys(iSI)+ratraw(iR058)*ys(iSI)+ratraw(iR058)*ys(iSI)-ratraw(iR059)*ys(iSIP)+ratraw(iR059)*ys(iSIP)+ratraw(iR059)*ys(iSIP)-ratraw(iR060)*ys(iSI2P)+ratraw(iR060)*ys(iSI2P)+ratraw(iR060)*ys(iSI2P)-ratraw(iR061)*ys(iSI3P)+ratraw(iR061)*ys(iSI3P)+ratraw(iR061)*ys(iSI3P)-ratraw(iR062)*ys(iSI4P)+ratraw(iR062)*ys(iSI4P)+ratraw(iR062)*ys(iSI4P)-ratraw(iR063)*ys(iFE)+ratraw(iR063)*ys(iFE)+ratraw(iR063)*ys(iFE)-ratraw(iR064)*ys(iFEP)+ratraw(iR064)*ys(iFEP)+ratraw(iR064)*ys(iFEP)-ratraw(iR065)*ys(iFE2P)+ratraw(iR065)*ys(iFE2P)+ratraw(iR065)*ys(iFE2P)-ratraw(iR066)*ys(iFE3P)+ratraw(iR066)*ys(iFE3P)+ratraw(iR066)*ys(iFE3P)
