RR RATE COEFFICIENT FITS (C)20110412 N. R. BADNELL, DEPARTMENT OF PHYSICS, UNIVERSITY OF STRATHCLYDE, GLASGOW G4 0NG, UK.
The fitting coefficients are tabulated by element Z (where Z is the nuclear charge), isoelectronic sequence N (where N=0,1 ... is the number of electrons of the initial target ion) and initial metastable levels M (where M=1 for the ground level etc.) of the ground and metastable terms. Results are available for all elements from He to Zn, plus Kr, Mo and Xe, for all sequences up to Mg-like. Other elements may be added on request. Here is a nice table, in Kelvin or eV, for those of you who just want the fit coefficients:

  Z  N  M  W      A        B        T0         T1        C        T2
  1  0  1  1  8.318E-11  0.7472  2.965E+00  7.001E+05
  2  0  1  1  1.818E-10  0.7492  1.017E+01  2.786E+06
  3  0  1  1  2.867E-10  0.7493  2.108E+01  6.268E+06
  4  0  1  1  3.375E-10  0.7475  4.628E+01  1.121E+07
  5  0  1  1  4.647E-10  0.7484  6.142E+01  1.753E+07
  6  0  1  1  5.337E-10  0.7485  9.502E+01  2.517E+07
  7  0  1  1  6.170E-10  0.7481  1.316E+02  3.427E+07
  8  0  1  1  6.552E-10  0.7470  1.951E+02  4.483E+07
  9  0  1  1  8.218E-10  0.7491  2.046E+02  5.638E+07
 10  0  1  1  8.278E-10  0.7470  2.991E+02  7.006E+07
 11  0  1  1  9.743E-10  0.7488  3.217E+02  8.428E+07
 12  0  1  1  1.022E-09  0.7476  4.098E+02  1.011E+08
 13  0  1  1  1.134E-09  0.7482  4.619E+02  1.179E+08
 14  0  1  1  1.261E-09  0.7488  5.068E+02  1.365E+08
 15  0  1  1  1.269E-09  0.7472  6.495E+02  1.581E+08
 16  0  1  1  1.432E-09  0.7485  6.688E+02  1.793E+08
 17  0  1  1  1.487E-09  0.7489  7.847E+02  2.012E+08
 18  0  1  1  1.615E-09  0.7483  8.433E+02  2.266E+08
 19  0  1  1  1.623E-09  0.7473  1.024E+03  2.543E+08
 20  0  1  1  1.809E-09  0.7490  1.025E+03  2.788E+08
 21  0  1  1  1.752E-09  0.7470  1.303E+03  3.095E+08
 22  0  1  1  1.899E-09  0.7476  1.348E+03  3.393E+08
 23  0  1  1  2.051E-09  0.7490  1.389E+03  3.691E+08
 24  0  1  1  2.046E-09  0.7476  1.638E+03  4.027E+08
 25  0  1  1  2.306E-09  0.7499  1.546E+03  4.333E+08
 26  0  1  1  2.275E-09  0.7481  1.836E+03  4.736E+08
 27  0  1  1  2.234E-09  0.7461  2.190E+03  5.152E+08
 28  0  1  1  2.577E-09  0.7497  1.949E+03  5.434E+08
 29  0  1  1  2.456E-09  0.7477  2.414E+03  5.896E+08
 30  0  1  1  2.854E-09  0.7491  2.125E+03  6.271E+08
 36  0  1  1  3.140E-09  0.7485  3.537E+03  9.062E+08
 42  0  1  1  3.583E-09  0.7474  5.008E+03  1.235E+09
 54  0  1  1  5.120E-09  0.7493  6.912E+03  2.036E+09
  2  1  1  2  5.235E-11  0.6988  7.301E+00  4.475E+06  0.0829  1.682E+05
  3  1  1  2  9.349E-11  0.6916  3.470E+01  7.329E+06  0.0351  6.293E+05
  4  1  1  2  1.324E-10  0.6806  8.525E+01  1.510E+07
  5  1  1  2  1.729E-10  0.6776  1.552E+02  2.065E+07
  6  1  1  2  2.044E-10  0.6742  2.647E+02  2.773E+07
  7  1  1  2  2.388E-10  0.6732  3.960E+02  3.583E+07
  8  1  1  2  2.652E-10  0.6705  5.842E+02  4.559E+07
  9  1  1  2  3.128E-10  0.6712  7.227E+02  5.587E+07
 10  1  1  2  3.415E-10  0.6706  9.552E+02  6.778E+07
 11  1  1  2  3.879E-10  0.6718  1.133E+03  8.008E+07
 12  1  1  2  4.214E-10  0.6713  1.396E+03  9.433E+07
 13  1  1  2  4.578E-10  0.6707  1.673E+03  1.096E+08
 14  1  1  2  4.870E-10  0.6697  2.026E+03  1.265E+08
 15  1  1  2  5.520E-10  0.6724  2.146E+03  1.423E+08
 16  1  1  2  5.546E-10  0.6692  2.754E+03  1.633E+08
 17  1  1  2  6.110E-10  0.6712  2.956E+03  1.810E+08
 18  1  1  2  6.405E-10  0.6698  3.425E+03  2.037E+08
 19  1  1  2  7.022E-10  0.6721  3.602E+03  2.234E+08
 20  1  1  2  7.045E-10  0.6693  4.391E+03  2.500E+08
 21  1  1  2  8.052E-10  0.6750  4.198E+03  2.669E+08
 22  1  1  2  8.152E-10  0.6728  4.937E+03  2.950E+08
 23  1  1  2  8.373E-10  0.6711  5.622E+03  3.232E+08
 24  1  1  2  8.771E-10  0.6722  6.118E+03  3.478E+08
 25  1  1  2  9.127E-10  0.6717  6.691E+03  3.775E+08
 26  1  1  2  9.983E-10  0.6754  6.651E+03  4.017E+08
 27  1  1  2  1.017E-09  0.6738  7.469E+03  4.347E+08
 28  1  1  2  1.063E-09  0.6744  7.979E+03  4.653E+08
 29  1  1  2  1.078E-09  0.6736  8.924E+03  4.988E+08
 30  1  1  2  1.142E-09  0.6750  9.193E+03  5.308E+08
 36  1  1  2  1.245E-09  0.6716  1.601E+04  7.664E+08
 42  1  1  2  1.536E-09  0.6764  2.012E+04  1.008E+09
 54  1  1  2  2.278E-09  0.6872  2.680E+04  1.560E+09
  3  2  1  1  8.700E-12  0.3640  1.470E+02  7.153E+06  0.1508  7.154E+05
  4  2  1  1  1.861E-11  0.4052  5.365E+02  2.254E+07
  5  2  1  1  3.251E-11  0.4558  9.164E+02  1.749E+07
  6  2  1  1  4.798E-11  0.4834  1.355E+03  1.872E+07
  7  2  1  1  6.245E-11  0.4985  1.957E+03  2.177E+07
  8  2  1  1  8.193E-11  0.5165  2.392E+03  2.487E+07
  9  2  1  1  9.958E-11  0.5274  3.012E+03  2.896E+07
 10  2  1  1  1.186E-10  0.5354  3.647E+03  3.365E+07
 11  2  1  1  1.393E-10  0.5433  4.258E+03  3.872E+07
 12  2  1  1  1.602E-10  0.5492  4.944E+03  4.434E+07
 13  2  1  1  1.761E-10  0.5514  5.962E+03  5.081E+07
 14  2  1  1  2.017E-10  0.5588  6.494E+03  5.693E+07
 15  2  1  1  2.190E-10  0.5607  7.591E+03  6.396E+07
 16  2  1  1  2.362E-10  0.5615  8.776E+03  7.208E+07
 17  2  1  1  2.594E-10  0.5663  9.623E+03  7.952E+07
 18  2  1  1  2.812E-10  0.5686  1.063E+04  8.779E+07
 19  2  1  1  3.046E-10  0.5712  1.160E+04  9.639E+07
 20  2  1  1  3.250E-10  0.5743  1.276E+04  1.051E+08
 21  2  1  1  3.366E-10  0.5721  1.473E+04  1.163E+08
 22  2  1  1  3.658E-10  0.5767  1.540E+04  1.250E+08
 23  2  1  1  3.815E-10  0.5761  1.718E+04  1.368E+08
 24  2  1  1  3.963E-10  0.5760  1.914E+04  1.479E+08
 25  2  1  1  4.386E-10  0.5838  1.888E+04  1.556E+08
 26  2  1  1  4.458E-10  0.5802  2.155E+04  1.701E+08
 27  2  1  1  4.629E-10  0.5805  2.352E+04  1.831E+08
 28  2  1  1  4.901E-10  0.5836  2.460E+04  1.937E+08
 29  2  1  1  5.041E-10  0.5828  2.701E+04  2.082E+08
 30  2  1  1  5.258E-10  0.5832  2.882E+04  2.221E+08
 36  2  1  1  6.300E-10  0.5851  4.346E+04  3.140E+08
 42  2  1  1  8.161E-10  0.5972  5.082E+04  4.054E+08
 54  2  1  1  1.082E-09  0.6049  8.335E+04  6.391E+08
  4  3  1  2  1.793E-10  0.7669  8.938E-01  2.138E+06  0.0310  1.382E+04
  4  3  2  2  2.198E-11  1.0178  1.817E+00  2.826E+06  0.0282  6.511E+03
  4  3  3  4  2.198E-11  1.0178  1.817E+00  2.826E+06  0.0282  6.511E+03
  5  3  1  2  3.417E-10  0.7512  3.604E+00  2.821E+06  0.0351  1.295E+07
  5  3  2  2  2.900E-11  0.9921  1.115E+01  5.009E+06  0.0233  1.132E+03
  5  3  3  4  2.874E-11  0.9964  1.117E+01  4.973E+06  0.0211  1.184E+03
  6  3  1  2  1.120E-10  0.6737  1.115E+02  5.938E+06
  6  3  2  2  1.009E-11  0.7316  5.995E+02  6.734E+06  0.2499  4.332E+02
  6  3  3  4  1.015E-11  0.7334  5.877E+02  6.707E+06  0.2494  4.050E+02
  7  3  1  2  1.533E-10  0.6682  1.823E+02  7.751E+06
  7  3  2  2  1.709E-11  1.0549  5.982E+02  4.752E+06  0.0651  2.257E+07
  7  3  3  4  1.709E-11  1.0549  5.982E+02  4.752E+06  0.0651  2.257E+07
  8  3  1  2  1.724E-10  0.6556  3.372E+02  1.030E+07
  8  3  2  2  2.047E-11  0.4335  1.883E+03  1.086E+07  0.4840  8.749E+02
  8  3  3  4  2.047E-11  0.4335  1.883E+03  1.086E+07  0.4840  8.749E+02
  9  3  1  2  2.244E-10  0.6574  4.147E+02  1.268E+07
  9  3  2  2  2.213E-11  0.4529  3.046E+03  1.357E+07  0.4727  1.282E+03
  9  3  3  4  2.314E-11  0.4522  2.786E+03  1.337E+07  0.4735  1.209E+03
 10  3  1  2  2.755E-10  0.6586  5.102E+02  1.535E+07
 10  3  2  2  3.054E-11  0.3980  3.707E+03  1.602E+07  0.5064  1.609E+03
 10  3  3  4  3.054E-11  0.3980  3.707E+03  1.602E+07  0.5064  1.609E+03
 11  3  1  2  3.171E-10  0.6576  6.526E+02  1.848E+07
 11  3  2  2  1.468E-10  1.0415  1.632E+02  1.005E+07  0.0541  6.782E+07
 11  3  3  4  3.421E-11  0.4092  4.838E+03  1.895E+07  0.5003  2.084E+03
 12  3  1  2  3.445E-10  0.6553  8.693E+02  2.196E+07
 12  3  2  2  1.288E-12  0.0000  4.695E+06  6.787E+07
 12  3  3  4  1.295E-12  0.0000  4.655E+06  6.854E+07
 13  3  1  2  3.916E-10  0.6565  1.025E+03  2.544E+07
 13  3  2  2  1.430E-12  0.0000  5.707E+06  7.659E+07
 13  3  3  4  1.430E-12  0.0000  5.707E+06  7.659E+07
 14  3  1  2  4.633E-10  0.6602  1.088E+03  2.896E+07
 14  3  2  2  1.892E-12  0.0000  5.456E+06  9.573E+07
 14  3  3  4  1.896E-12  0.0000  5.439E+06  9.616E+07
 15  3  1  2  4.972E-10  0.6581  1.329E+03  3.346E+07
 15  3  2  2  2.069E-12  0.0000  6.398E+06  1.073E+08
 15  3  3  4  2.066E-12  0.0000  6.421E+06  1.068E+08
 16  3  1  2  5.511E-10  0.6598  1.492E+03  3.755E+07
 16  3  2  2  2.242E-12  0.0000  7.597E+06  1.149E+08
 16  3  3  4  2.223E-12  0.0000  7.553E+06  1.169E+08
 17  3  1  2  6.038E-10  0.6611  1.670E+03  4.213E+07
 17  3  2  2  2.829E-12  0.0000  7.058E+06  1.456E+08
 17  3  3  4  2.826E-12  0.0000  7.072E+06  1.453E+08
 18  3  1  2  6.557E-10  0.6624  1.868E+03  4.693E+07
 18  3  2  2  3.014E-12  0.0000  8.138E+06  1.583E+08
 18  3  3  4  3.024E-12  0.0000  8.120E+06  1.578E+08
 19  3  1  2  7.052E-10  0.6613  2.094E+03  5.246E+07
 19  3  2  2  3.682E-12  0.0000  7.805E+06  1.875E+08
 19  3  3  4  3.185E-12  0.0000  9.359E+06  1.691E+08
 20  3  1  2  7.848E-10  0.6644  2.173E+03  5.749E+07
 20  3  2  2  3.907E-12  0.0000  8.811E+06  2.034E+08
 20  3  3  4  3.381E-12  0.0000  1.054E+07  1.844E+08
 21  3  1  2  8.463E-10  0.6653  2.355E+03  6.304E+07
 21  3  2  2  4.135E-12  0.0000  9.815E+06  2.227E+08
 21  3  3  4  3.577E-12  0.0000  1.181E+07  1.998E+08
 22  3  1  2  9.040E-10  0.6666  2.565E+03  6.864E+07
 22  3  2  2  4.353E-12  0.0000  1.105E+07  2.366E+08
 22  3  3  4  4.339E-12  0.0000  1.104E+07  2.362E+08
 23  3  1  2  9.483E-10  0.6655  2.859E+03  7.531E+07
 23  3  2  2  5.169E-12  0.0000  1.044E+07  2.777E+08
 23  3  3  4  4.541E-12  0.0000  1.231E+07  2.513E+08
 24  3  1  2  9.718E-10  0.6643  3.285E+03  8.221E+07
 24  3  2  2  5.471E-12  0.0000  1.134E+07  3.040E+08
 24  3  3  4  4.791E-12  0.0000  1.344E+07  2.736E+08
 25  3  1  2  1.065E-09  0.6668  3.327E+03  8.827E+07
 25  3  2  2  5.636E-12  0.0000  1.279E+07  3.137E+08
 25  3  3  4  5.041E-12  0.0000  1.461E+07  2.954E+08
 26  3  1  2  1.186E-09  0.6713  3.253E+03  9.392E+07
 26  3  2  2  6.646E-12  0.0000  1.196E+07  3.701E+08
 26  3  3  4  5.189E-12  0.0000  1.643E+07  3.035E+08
 27  3  1  2  1.181E-09  0.6681  3.839E+03  1.023E+08
 27  3  2  2  6.921E-12  0.0000  1.301E+07  3.953E+08
 27  3  3  4  5.463E-12  0.0000  1.753E+07  3.313E+08
 28  3  1  2  1.259E-09  0.6699  3.991E+03  1.094E+08
 28  3  2  2  7.196E-12  0.0000  1.417E+07  4.195E+08
 28  3  3  4  5.631E-12  0.0000  1.937E+07  3.462E+08
 29  3  1  2  1.249E-09  0.6668  4.697E+03  1.181E+08
 29  3  2  2  7.479E-12  0.0000  1.528E+07  4.471E+08
 29  3  3  4  5.850E-12  0.0000  2.093E+07  3.676E+08
 30  3  1  2  1.381E-09  0.6705  4.543E+03  1.249E+08
 30  3  2  2  8.613E-12  0.0000  1.450E+07  5.094E+08
 30  3  3  4  6.088E-12  0.0000  2.255E+07  3.907E+08
 36  3  1  2  1.674E-09  0.6723  6.836E+03  1.776E+08
 36  3  2  2  1.140E-11  0.0000  1.967E+07  7.300E+08
 36  3  3  4  7.415E-12  0.0000  3.387E+07  5.330E+08
 42  3  1  2  1.926E-09  0.6717  9.982E+03  2.408E+08
 42  3  2  2  1.444E-11  0.0000  2.534E+07  9.888E+08
 42  3  3  4  8.706E-12  0.0000  4.803E+07  6.849E+08
 54  3  1  2  2.883E-09  0.6818  1.355E+04  3.811E+08
 54  3  2  2  2.090E-11  0.0000  3.853E+07  1.655E+09
 54  3  3  4  1.945E-09  1.0138  2.062E+03  2.916E+08
  5  4  1  1  1.998E-09  0.8277  1.269E-02  1.016E+06  0.0901  3.058E+04
  5  4  2  1  1.826E-13  2.0998  6.000E+04  7.873E+05
  5  4  3  3  1.826E-13  2.0998  6.000E+04  7.873E+05
  5  4  4  5  1.826E-13  2.0998  6.000E+04  7.873E+05
  6  4  1  1  2.067E-09  0.8012  1.643E-01  2.172E+06  0.0427  6.341E+04
  6  4  2  1  5.474E-13  1.5292  4.738E+04  2.034E+06
  6  4  3  3  5.474E-13  1.5292  4.738E+04  2.034E+06
  6  4  4  5  5.430E-13  1.5326  4.816E+04  2.031E+06
  7  4  1  1  7.923E-10  0.7768  3.750E+00  3.468E+06  0.0223  7.206E+04
  7  4  2  1  5.052E-12  1.0972  2.830E+03  4.551E+06
  7  4  3  3  5.053E-12  1.0973  2.826E+03  4.549E+06
  7  4  4  5  5.079E-12  1.0968  2.797E+03  4.556E+06
  8  4  1  1  3.955E-09  0.7813  6.821E-01  5.076E+06
  8  4  2  1  5.857E-11  1.0400  6.657E+01  5.982E+06
  8  4  3  3  5.857E-11  1.0400  6.657E+01  5.982E+06
  8  4  4  5  5.857E-11  1.0400  6.657E+01  5.982E+06
  9  4  1  1  3.298E-09  0.7702  2.103E+00  6.441E+06
  9  4  2  1  1.954E-10  1.0263  1.639E+01  7.245E+06
  9  4  3  3  1.954E-10  1.0263  1.639E+01  7.245E+06
  9  4  4  5  2.005E-10  1.0265  1.555E+01  7.233E+06
 10  4  1  1  2.557E-09  0.7601  6.293E+00  8.091E+06
 10  4  2  1  2.383E-10  1.0297  2.093E+01  8.969E+06
 10  4  3  3  2.373E-10  1.0293  2.109E+01  8.994E+06
 10  4  4  5  2.414E-10  1.0284  2.032E+01  9.048E+06
 11  4  1  1  1.654E-09  0.7508  2.276E+01  9.950E+06
 11  4  2  1  3.566E-10  1.0201  2.005E+01  1.027E+07
 11  4  3  3  3.553E-10  1.0203  2.017E+01  1.026E+07
 11  4  4  5  3.553E-10  1.0203  2.017E+01  1.026E+07
 12  4  1  1  1.634E-09  0.7435  3.806E+01  1.205E+07
 12  4  2  1  3.920E-10  1.0223  2.790E+01  1.213E+07
 12  4  3  3  4.056E-10  1.0233  2.558E+01  1.215E+07
 12  4  4  5  3.989E-10  1.0231  2.601E+01  1.227E+07
 13  4  1  1  1.578E-09  0.7394  6.157E+01  1.427E+07
 13  4  2  1  3.975E-10  1.0142  4.906E+01  1.383E+07
 13  4  3  3  3.975E-10  1.0142  4.906E+01  1.383E+07
 13  4  4  5  4.000E-10  1.0140  4.853E+01  1.383E+07
 14  4  1  1  1.851E-09  0.7384  6.906E+01  1.644E+07
 14  4  2  1  5.174E-10  1.0173  4.276E+01  1.592E+07
 14  4  3  3  4.550E-10  1.0159  5.535E+01  1.608E+07
 14  4  4  5  4.855E-10  1.0165  4.778E+01  1.596E+07
 15  4  1  1  1.543E-09  0.7315  1.330E+02  1.926E+07
 15  4  2  1  3.021E-10  1.0073  2.140E+02  1.789E+07
 15  4  3  3  3.021E-10  1.0073  2.140E+02  1.789E+07
 15  4  4  5  3.061E-10  1.0074  2.082E+02  1.788E+07
 16  4  1  1  1.740E-09  0.7303  1.494E+02  2.193E+07
 16  4  2  1  4.072E-10  1.0094  1.609E+02  2.028E+07
 16  4  3  3  4.072E-10  1.0094  1.609E+02  2.028E+07
 16  4  4  5  4.288E-10  1.0098  1.449E+02  2.023E+07
 17  4  1  1  2.027E-09  0.7307  1.541E+02  2.470E+07
 17  4  2  1  2.360E-12  0.0000  7.878E+06  7.295E+07
 17  4  3  3  2.360E-12  0.0000  7.878E+06  7.295E+07
 17  4  4  5  5.157E-10  1.0116  1.343E+02  2.285E+07
 18  4  1  1  2.165E-09  0.7307  1.801E+02  2.753E+07
 18  4  2  1  2.562E-12  0.0000  8.879E+06  8.151E+07
 18  4  3  3  2.562E-12  0.0000  8.879E+06  8.151E+07
 18  4  4  5  2.547E-12  0.0000  8.976E+06  8.047E+07
 19  4  1  1  2.224E-09  0.7299  2.212E+02  3.069E+07
 19  4  2  1  2.294E-09  1.0043  1.396E+01  2.746E+07
 19  4  3  3  1.966E-09  1.0039  1.841E+01  2.784E+07
 19  4  4  5  1.865E-09  1.0038  2.051E+01  2.785E+07
 20  4  1  1  2.421E-09  0.7278  2.438E+02  3.424E+07
 20  4  2  1  3.348E-12  0.0000  9.589E+06  1.064E+08
 20  4  3  3  3.376E-12  0.0000  9.460E+06  1.079E+08
 20  4  4  5  2.856E-09  1.0049  1.108E+01  3.072E+07
 21  4  1  1  2.253E-09  0.7253  3.425E+02  3.802E+07
 21  4  2  1  3.566E-12  0.0000  1.069E+07  1.160E+08
 21  4  3  3  3.550E-12  0.0000  1.079E+07  1.148E+08
 21  4  4  5  3.188E-10  1.0051  1.147E+03  3.415E+07
 22  4  1  1  2.463E-09  0.7249  3.638E+02  4.164E+07
 22  4  2  1  4.365E-12  0.0000  9.777E+06  1.436E+08
 22  4  3  3  3.756E-12  0.0000  1.200E+07  1.242E+08
 22  4  4  5  3.773E-12  0.0000  1.192E+07  1.248E+08
 23  4  1  1  2.660E-09  0.7253  3.897E+02  4.538E+07
 23  4  2  1  4.534E-12  0.0000  1.113E+07  1.502E+08
 23  4  3  3  4.568E-12  0.0000  1.101E+07  1.515E+08
 23  4  4  5  3.986E-12  0.0000  1.318E+07  1.354E+08
 24  4  1  1  2.747E-09  0.7251  4.436E+02  4.921E+07
 24  4  2  1  4.783E-12  0.0000  1.221E+07  1.619E+08
 24  4  3  3  4.818E-12  0.0000  1.208E+07  1.635E+08
 24  4  4  5  4.191E-12  0.0000  1.455E+07  1.447E+08
 25  4  1  1  2.589E-09  0.7216  5.887E+02  5.400E+07
 25  4  2  1  5.067E-12  0.0000  1.333E+07  1.737E+08
 25  4  3  3  5.082E-12  0.0000  1.315E+07  1.776E+08
 25  4  4  5  4.417E-12  0.0000  1.584E+07  1.572E+08
 26  4  1  1  3.322E-09  0.7264  4.563E+02  5.746E+07
 26  4  2  1  5.937E-12  0.0000  1.250E+07  2.061E+08
 26  4  3  3  5.229E-12  0.0000  1.481E+07  1.837E+08
 26  4  4  5  4.511E-12  0.0000  1.810E+07  1.600E+08
 27  4  1  1  3.885E-09  0.7301  4.100E+02  6.101E+07
 27  4  2  1  6.172E-12  0.0000  1.377E+07  2.163E+08
 27  4  3  3  6.151E-12  0.0000  1.385E+07  2.149E+08
 27  4  4  5  4.730E-12  0.0000  1.962E+07  1.717E+08
 28  4  1  1  3.531E-09  0.7260  5.650E+02  6.627E+07
 28  4  2  1  6.464E-12  0.0000  1.480E+07  2.330E+08
 28  4  3  3  6.464E-12  0.0000  1.480E+07  2.330E+08
 28  4  4  5  4.934E-12  0.0000  2.126E+07  1.833E+08
 29  4  1  1  3.862E-09  0.7272  5.631E+02  7.100E+07
 29  4  2  1  7.414E-12  0.0000  1.419E+07  2.650E+08
 29  4  3  3  6.695E-12  0.0000  1.619E+07  2.446E+08
 29  4  4  5  5.110E-12  0.0000  2.324E+07  1.933E+08
 30  4  1  1  4.233E-09  0.7283  5.568E+02  7.545E+07
 30  4  2  1  7.737E-12  0.0000  1.522E+07  2.825E+08
 30  4  3  3  7.025E-12  0.0000  1.718E+07  2.639E+08
 30  4  4  5  5.320E-12  0.0000  2.502E+07  2.043E+08
 36  4  1  1  4.645E-09  0.7261  1.018E+03  1.083E+08
 36  4  2  1  1.038E-11  0.0000  2.047E+07  4.098E+08
 36  4  3  3  9.460E-12  0.0000  2.311E+07  3.801E+08
 36  4  4  5  5.338E-10  1.0058  5.350E+03  9.595E+07
 42  4  1  1  6.974E-09  0.7318  9.622E+02  1.438E+08
 42  4  2  1  1.476E-11  0.0000  2.284E+07  6.132E+08
 42  4  3  3  1.237E-11  0.0000  2.866E+07  5.372E+08
 42  4  4  5  9.789E-10  1.0089  3.113E+03  1.288E+08
 54  4  1  1  1.052E-08  0.7363  1.319E+03  2.321E+08
 54  4  2  1  2.285E-11  0.0000  3.226E+07  1.080E+09
 54  4  3  3  1.939E-11  0.0000  3.997E+07  9.402E+08
 54  4  4  1  1.153E-11  0.0000  7.197E+07  1.270E+09
  6  5  1  2  2.995E-09  0.7849  6.670E-03  1.943E+06  0.1597  4.955E+04
  6  5  2  4  2.238E-11  0.8637  1.536E+01  1.216E+06  0.2911  5.139E+04
  6  5  3  2  6.112E-14  5.4499  1.099E+05  3.030E+05  3.4184  2.199E+04
  6  5  4  4  6.112E-14  5.4499  1.099E+05  3.030E+05  3.4184  2.199E+04
  6  5  5  6  6.138E-14  5.3944  1.090E+05  3.043E+05  3.3655  2.217E+04
  7  5  1  2  2.410E-09  0.7948  1.231E-01  3.016E+06  0.0774  1.016E+05
  7  5  2  4  2.490E-11  0.8288  2.281E+02  2.363E+06  0.1574  1.035E+05
  7  5  3  2  7.111E-13  1.2650  1.715E+04  3.044E+06  0.2973  3.818E+04
  7  5  4  4  7.174E-13  1.2619  1.686E+04  3.055E+06  0.2968  3.819E+04
  7  5  5  6  7.174E-13  1.2619  1.686E+04  3.055E+06  0.2968  3.819E+04
  8  5  1  2  2.501E-09  0.7844  5.235E-01  4.470E+06  0.0447  1.642E+05
  8  5  2  4  1.946E-11  0.7670  1.733E+03  3.941E+06  0.1169  1.496E+05
  8  5  3  2  9.709E-12  1.0554  6.149E+02  7.160E+06  0.0671  7.267E+04
  8  5  4  4  9.892E-12  1.0552  5.923E+02  7.124E+06  0.0676  7.392E+04
  8  5  5  6  1.127E-11  1.0521  4.563E+02  7.181E+06  0.0657  7.600E+04
  9  5  1  2  2.236E-09  0.7725  1.828E+00  5.982E+06  0.0319  2.529E+05
  9  5  2  4  1.809E-11  0.7030  5.857E+03  5.943E+06  0.1007  1.846E+05
  9  5  3  2  2.420E-11  1.0322  3.618E+02  1.006E+07  0.0199  4.057E+04
  9  5  4  4  2.622E-11  1.0308  3.079E+02  1.013E+07  0.0195  3.789E+04
  9  5  5  6  2.941E-11  1.0312  2.436E+02  9.953E+06  0.0192  5.398E+04
 10  5  1  2  1.127E-09  0.7556  1.311E+01  8.047E+06  0.0250  2.771E+05
 10  5  2  4  1.227E-11  0.5958  2.690E+04  8.632E+06  0.1188  2.239E+05
 10  5  3  2  6.044E-11  0.9876  1.769E+02  1.186E+07  0.0293  1.920E+03
 10  5  4  4  6.044E-11  0.9876  1.769E+02  1.186E+07  0.0293  1.920E+03
 10  5  5  6  6.044E-11  0.9893  1.770E+02  1.185E+07  0.0277  2.155E+03
 11  5  1  2  4.040E-09  0.7665  2.908E+00  1.043E+07
 11  5  2  4  3.167E-11  0.7469  8.340E+03  1.043E+07
 11  5  3  2  2.104E-10  1.0231  2.832E+01  1.229E+07
 11  5  4  4  2.161E-10  1.0227  2.681E+01  1.234E+07
 11  5  5  6  2.208E-10  1.0236  2.485E+01  1.249E+07
 12  5  1  2  3.859E-09  0.7579  5.587E+00  1.235E+07
 12  5  2  4  2.682E-11  0.7072  1.978E+04  1.321E+07
 12  5  3  2  2.433E-10  1.0125  4.428E+01  1.386E+07
 12  5  4  4  2.368E-10  1.0121  4.694E+01  1.388E+07
 12  5  5  6  2.485E-10  1.0123  4.261E+01  1.384E+07
 13  5  1  2  2.284E-09  0.7480  2.178E+01  1.460E+07
 13  5  2  4  2.406E-11  0.6596  3.997E+04  1.685E+07
 13  5  3  2  4.222E-10  1.0020  2.942E+01  1.554E+07
 13  5  4  4  3.155E-10  1.0137  4.538E+01  1.562E+07
 13  5  5  6  3.141E-10  1.0138  4.428E+01  1.593E+07
 14  5  1  2  1.688E-09  0.7390  5.549E+01  1.716E+07
 14  5  2  4  1.668E-11  0.5942  1.153E+05  2.125E+07
 14  5  3  2  1.314E-09  1.0044  4.570E+00  1.770E+07
 14  5  4  4  1.404E-09  1.0046  3.998E+00  1.768E+07
 14  5  5  6  1.323E-09  1.0044  4.508E+00  1.769E+07
 15  5  1  2  1.948E-09  0.7375  6.372E+01  1.947E+07
 15  5  2  4  1.429E-11  0.5324  2.215E+05  2.682E+07
 15  5  3  2  2.717E-10  1.0071  1.628E+02  1.995E+07
 15  5  4  4  2.704E-10  1.0072  1.614E+02  2.012E+07
 15  5  5  6  3.106E-10  1.0052  1.219E+02  2.025E+07
 16  5  1  2  1.702E-09  0.7301  1.138E+02  2.253E+07
 16  5  2  4  1.438E-11  0.4924  3.127E+05  3.239E+07
 16  5  3  2  1.707E-12  0.0000  6.985E+06  8.031E+07
 16  5  4  4  1.718E-12  0.0000  6.909E+06  8.128E+07
 16  5  5  6  1.718E-12  0.0000  6.909E+06  8.128E+07
 17  5  1  2  1.655E-09  0.7262  1.636E+02  2.543E+07
 17  5  2  4  1.489E-11  0.4631  4.064E+05  3.814E+07
 17  5  3  2  1.858E-12  0.0000  8.138E+06  8.686E+07
 17  5  4  4  1.861E-12  0.0000  8.114E+06  8.713E+07
 17  5  5  6  1.863E-12  0.0000  8.101E+06  8.723E+07
 18  5  1  2  1.780E-09  0.7252  1.933E+02  2.837E+07
 18  5  2  4  1.486E-11  0.4228  5.518E+05  4.522E+07
 18  5  3  2  2.431E-12  0.0000  7.291E+06  1.110E+08
 18  5  4  4  2.037E-12  0.0000  9.277E+06  9.538E+07
 18  5  5  6  2.013E-12  0.0000  9.371E+06  9.339E+07
 19  5  1  2  2.079E-09  0.7245  1.954E+02  3.156E+07
 19  5  2  4  8.107E-12  0.0981  2.084E+06  8.111E+07
 19  5  3  2  2.608E-12  0.0000  8.371E+06  1.186E+08
 19  5  4  4  2.605E-12  0.0000  8.394E+06  1.181E+08
 19  5  5  6  2.192E-12  0.0000  1.065E+07  1.010E+08
 20  5  1  2  2.019E-09  0.7215  2.644E+02  3.506E+07
 20  5  2  4  8.993E-12  0.1311  2.211E+06  8.296E+07
 20  5  3  2  2.789E-12  0.0000  9.507E+06  1.277E+08
 20  5  4  4  2.797E-12  0.0000  9.460E+06  1.286E+08
 20  5  5  6  2.798E-12  0.0000  9.466E+06  1.282E+08
 21  5  1  2  2.055E-09  0.7200  3.236E+02  3.860E+07
 21  5  2  4  8.736E-12  0.0297  2.988E+06  1.092E+08
 21  5  3  2  3.004E-12  0.0000  1.064E+07  1.366E+08
 21  5  4  4  2.973E-12  0.0000  1.068E+07  1.366E+08
 21  5  5  6  2.956E-12  0.0000  1.080E+07  1.346E+08
 22  5  1  2  1.959E-09  0.7169  4.381E+02  4.258E+07
 22  5  2  4  8.422E-12  0.0000  3.848E+06  1.186E+08
 22  5  3  2  3.701E-12  0.0000  9.707E+06  1.679E+08
 22  5  4  4  3.173E-12  0.0000  1.185E+07  1.492E+08
 22  5  5  6  3.159E-12  0.0000  1.193E+07  1.468E+08
 23  5  1  2  2.131E-09  0.7166  4.679E+02  4.637E+07
 23  5  2  4  8.951E-12  0.0000  4.246E+06  1.282E+08
 23  5  3  2  3.895E-12  0.0000  1.088E+07  1.767E+08
 23  5  4  4  3.902E-12  0.0000  1.085E+07  1.772E+08
 23  5  5  6  3.335E-12  0.0000  1.331E+07  1.553E+08
 24  5  1  2  2.302E-09  0.7167  5.002E+02  5.030E+07
 24  5  2  4  9.476E-12  0.0000  4.674E+06  1.380E+08
 24  5  3  2  4.124E-12  0.0000  1.196E+07  1.907E+08
 24  5  4  4  4.112E-12  0.0000  1.203E+07  1.893E+08
 24  5  5  6  3.476E-12  0.0000  1.506E+07  1.621E+08
 25  5  1  2  2.450E-09  0.7160  5.442E+02  5.456E+07
 25  5  2  4  8.499E-12  0.0000  6.350E+06  1.286E+08
 25  5  3  2  4.313E-12  0.0000  1.330E+07  2.014E+08
 25  5  4  4  4.313E-12  0.0000  1.330E+07  1.999E+08
 25  5  5  6  3.691E-12  0.0000  1.628E+07  1.758E+08
 26  5  1  2  2.199E-09  0.7118  7.810E+02  5.946E+07
 26  5  2  4  9.020E-12  0.0000  6.834E+06  1.401E+08
 26  5  3  2  5.224E-12  0.0000  1.207E+07  2.405E+08
 26  5  4  4  4.571E-12  0.0000  1.432E+07  2.174E+08
 26  5  5  6  3.883E-12  0.0000  1.776E+07  1.884E+08
 27  5  1  2  2.654E-09  0.7148  6.726E+02  6.351E+07
 27  5  2  4  9.379E-12  0.0000  7.541E+06  1.475E+08
 27  5  3  2  5.445E-12  0.0000  1.327E+07  2.542E+08
 27  5  4  4  4.750E-12  0.0000  1.589E+07  2.247E+08
 27  5  5  6  4.086E-12  0.0000  1.922E+07  2.015E+08
 28  5  1  2  2.660E-09  0.7150  7.865E+02  6.761E+07
 28  5  2  4  9.080E-12  0.0000  9.128E+06  1.452E+08
 28  5  3  2  5.621E-12  0.0000  1.480E+07  2.596E+08
 28  5  4  4  4.940E-12  0.0000  1.740E+07  2.376E+08
 28  5  5  6  4.200E-12  0.0000  2.157E+07  2.072E+08
 29  5  1  2  2.679E-09  0.7128  9.094E+02  7.300E+07
 29  5  2  4  9.592E-12  0.0000  9.682E+06  1.572E+08
 29  5  3  2  5.903E-12  0.0000  1.581E+07  2.802E+08
 29  5  4  4  5.133E-12  0.0000  1.899E+07  2.485E+08
 29  5  5  6  4.439E-12  0.0000  2.284E+07  2.258E+08
 30  5  1  2  2.916E-09  0.7150  9.113E+02  7.726E+07
 30  5  2  4  9.858E-12  0.0000  1.071E+07  1.636E+08
 30  5  3  2  6.139E-12  0.0000  1.714E+07  2.967E+08
 30  5  4  4  5.337E-12  0.0000  2.059E+07  2.628E+08
 30  5  5  6  4.552E-12  0.0000  2.538E+07  2.315E+08
 36  5  1  2  3.422E-09  0.7122  1.533E+03  1.107E+08
 36  5  2  4  9.115E-12  0.0000  2.426E+07  1.694E+08
 36  5  3  2  8.588E-12  0.0000  2.218E+07  4.378E+08
 36  5  4  4  6.648E-12  0.0000  3.084E+07  3.581E+08
 36  5  5  6  5.066E-10  1.0056  4.495E+03  1.014E+08
 42  5  1  2  4.461E-09  0.7147  1.874E+03  1.481E+08
 42  5  2  2  1.144E-11  0.0000  2.723E+07  6.146E+08
 42  5  3  4  1.122E-09  1.0131  2.647E+03  8.570E+07
 42  5  4  4  8.085E-10  1.0078  3.537E+03  1.373E+08
 42  5  5  6  9.444E-10  1.0090  2.566E+03  1.359E+08
 54  5  1  2  5.917E-09  0.7162  3.263E+03  2.390E+08
 54  5  2  2  1.658E-11  0.0000  4.259E+07  9.934E+08
 54  5  3  4  1.986E-09  1.0434  1.751E+03  1.423E+08
 54  5  4  4  2.430E-09  1.0211  9.708E+02  2.270E+08
 54  5  5  6  2.663E-09  1.0220  8.049E+02  2.255E+08
  7  6  1  1  6.387E-10  0.7308  9.467E-02  2.954E+06  0.2440  6.739E+04
  7  6  2  3  1.196E-11  0.7751  4.419E+01  1.841E+06  0.4278  6.460E+04
  7  6  3  5  5.870E-12  0.8216  1.209E+02  1.570E+06  0.4792  6.408E+04
  7  6  4  5  1.826E-13  2.1980  1.950E+04  3.312E+05  1.4174  3.772E+04
  7  6  5  1  1.982E-13  2.3582  2.006E+04  2.630E+05  1.4890  4.052E+04
  7  6  6  5  6.297E-13  1.1383  1.439E+02  3.978E+06  0.5166  4.136E+04
  8  6  1  1  2.096E-09  0.7668  1.602E-01  4.377E+06  0.1070  1.392E+05
  8  6  2  3  4.147E-11  0.8006  8.409E+01  3.398E+06  0.1857  1.406E+05
  8  6  3  5  1.416E-11  0.8239  4.799E+02  2.971E+06  0.2330  1.395E+05
  8  6  4  5  3.522E-13  4.0291  1.733E+05  5.336E+05  1.5404  7.900E+04
  8  6  5  1  3.383E-13  3.6687  1.613E+05  5.927E+05  1.2369  6.426E+04
  8  6  6  5  2.043E-13  1.6972  7.553E+04  2.659E+06  0.7407  4.439E+04
  9  6  1  1  1.468E-09  0.7652  1.284E+00  6.039E+06  0.0664  2.235E+05
  9  6  2  3  3.508E-11  0.7693  5.657E+02  5.191E+06  0.1273  2.231E+05
  9  6  3  5  1.674E-11  0.7710  1.921E+03  4.939E+06  0.1531  2.139E+05
  9  6  4  5  4.552E-12  1.1235  6.904E+03  2.963E+06  0.1363  1.791E+05
  9  6  5  1  2.386E-12  1.2306  1.847E+04  2.824E+06  0.1642  1.183E+05
  9  6  6  5  2.906E-12  1.0866  4.147E+03  1.033E+07  0.1368  1.162E+05
 10  6  1  1  1.861E-09  0.7593  2.504E+00  8.037E+06  0.0406  3.255E+05
 10  6  2  3  3.121E-11  0.7230  2.133E+03  7.601E+06  0.0971  2.809E+05
 10  6  3  5  1.422E-11  0.6982  8.014E+03  7.456E+06  0.1281  2.676E+05
 10  6  4  5  9.485E-12  1.0743  5.189E+03  4.543E+06  0.0555  3.256E+05
 10  6  5  1  1.224E-11  1.0804  2.313E+03  4.844E+06  0.0565  1.590E+05
 10  6  6  5  9.020E-12  1.0440  2.038E+03  1.455E+07  0.0360  1.882E+05
 11  6  1  1  1.077E-09  0.7469  1.430E+01  1.018E+07  0.0289  3.593E+05
 11  6  2  3  2.918E-11  0.6750  5.755E+03  1.029E+07  0.0808  3.008E+05
 11  6  3  5  6.539E-12  0.4670  8.001E+04  1.157E+07  0.1921  2.657E+05
 11  6  4  5  1.656E-10  1.0245  4.181E+01  6.572E+06  0.0078  4.185E+05
 11  6  5  1  1.413E-11  1.0767  4.679E+03  6.373E+06  0.0131  2.069E+05
 11  6  6  5  5.765E-11  0.9657  1.740E+02  1.779E+07  0.0380  1.105E+03
 12  6  1  1  9.133E-10  0.7353  3.674E+01  1.263E+07  0.0211  4.049E+05
 12  6  2  3  3.158E-11  0.6484  9.793E+03  1.356E+07  0.0619  3.527E+05
 12  6  3  5  5.043E-12  0.1490  2.668E+05  1.983E+07  0.2787  2.898E+05
 12  6  4  5  5.873E-11  0.8948  8.260E+02  8.415E+06  0.1004  9.595E+02
 12  6  5  1  2.411E-10  1.0268  2.986E+01  8.308E+06  0.0118  2.891E+04
 12  6  6  5  2.022E-11  0.6777  3.627E+03  2.038E+07  0.2912  1.280E+03
 13  6  1  1  4.100E-09  0.7507  5.134E+00  1.603E+07
 13  6  2  3  5.200E-11  0.7313  6.151E+03  1.624E+07
 13  6  3  5  2.218E-11  0.7129  2.529E+04  1.644E+07
 13  6  4  5  1.192E-09  1.0069  3.368E+00  9.010E+06
 13  6  5  1  2.972E-10  1.0325  3.623E+01  9.676E+06
 13  6  6  5  8.867E-13  0.6127  3.210E+06  3.238E+07
 14  6  1  1  2.100E-09  0.7401  2.523E+01  1.842E+07
 14  6  2  3  4.301E-11  0.6974  1.415E+04  1.973E+07
 14  6  3  5  1.775E-11  0.6622  6.135E+04  2.040E+07
 14  6  4  5  1.386E-12  0.0000  4.635E+06  2.454E+07
 14  6  5  1  2.843E-10  1.0245  7.501E+01  1.081E+07
 14  6  6  5  9.315E-13  0.0000  5.728E+06  8.942E+07
 15  6  1  1  1.763E-09  0.7310  5.234E+01  2.117E+07
 15  6  2  3  4.265E-11  0.6768  2.226E+04  2.297E+07
 15  6  3  5  1.649E-11  0.6071  1.102E+05  2.551E+07
 15  6  4  5  1.857E-12  0.0000  4.270E+06  3.310E+07
 15  6  5  1  3.781E-10  1.0263  6.378E+01  1.239E+07
 15  6  6  5  1.093E-12  0.0000  6.476E+06  9.760E+07
 16  6  1  1  1.518E-09  0.7246  9.845E+01  2.390E+07
 16  6  2  3  3.209E-11  0.6323  5.358E+04  2.814E+07
 16  6  3  5  1.567E-11  0.5534  1.808E+05  3.149E+07
 16  6  4  5  2.133E-12  0.0000  4.775E+06  3.796E+07
 16  6  5  1  4.137E-10  1.0174  8.997E+01  1.377E+07
 16  6  6  5  1.230E-12  0.0000  7.675E+06  1.018E+08
 17  6  1  1  1.440E-09  0.7187  1.522E+02  2.712E+07
 17  6  2  3  2.866E-11  0.5990  9.244E+04  3.318E+07
 17  6  3  5  9.131E-12  0.3920  6.477E+05  4.387E+07
 17  6  4  5  2.663E-12  0.0000  4.651E+06  4.744E+07
 17  6  5  1  4.375E-10  1.0177  1.136E+02  1.557E+07
 17  6  6  5  1.700E-12  0.0000  6.575E+06  1.325E+08
 18  6  1  1  1.464E-09  0.7144  2.040E+02  3.025E+07
 18  6  2  3  2.847E-11  0.5725  1.298E+05  3.866E+07
 18  6  3  5  9.274E-12  0.3365  8.716E+05  5.370E+07
 18  6  4  5  2.977E-12  0.0000  5.166E+06  5.351E+07
 18  6  5  1  3.628E-10  1.0096  2.609E+02  1.723E+07
 18  6  6  5  1.890E-12  0.0000  7.415E+06  1.428E+08
 19  6  1  1  1.461E-09  0.7108  2.734E+02  3.371E+07
 19  6  2  3  2.100E-11  0.5106  2.893E+05  4.676E+07
 19  6  3  5  9.121E-12  0.2624  1.217E+06  6.699E+07
 19  6  4  5  3.227E-12  0.0000  5.926E+06  5.777E+07
 19  6  5  1  4.745E-10  1.0118  2.020E+02  1.903E+07
 19  6  6  5  2.056E-12  0.0000  8.476E+06  1.521E+08
 20  6  1  1  1.532E-09  0.7089  3.305E+02  3.713E+07
 20  6  2  3  2.079E-11  0.4739  3.908E+05  5.491E+07
 20  6  3  5  7.293E-12  0.0637  2.376E+06  1.027E+08
 20  6  4  5  3.890E-12  0.0000  5.725E+06  7.032E+07
 20  6  5  1  5.026E-10  1.0123  2.366E+02  2.109E+07
 20  6  6  5  2.659E-12  0.0000  7.626E+06  1.857E+08
 21  6  1  1  1.432E-09  0.7048  4.761E+02  4.102E+07
 21  6  2  3  1.739E-11  0.3970  6.871E+05  6.825E+07
 21  6  3  5  7.785E-12  0.0568  2.715E+06  1.117E+08
 21  6  4  5  4.170E-12  0.0000  6.467E+06  7.539E+07
 21  6  5  1  6.041E-10  1.0139  2.105E+02  2.321E+07
 21  6  6  5  2.858E-12  0.0000  8.589E+06  1.966E+08
 22  6  1  1  1.458E-09  0.7005  5.875E+02  4.526E+07
 22  6  2  3  1.786E-11  0.3797  8.301E+05  7.584E+07
 22  6  3  5  7.999E-12  0.0000  3.297E+06  1.365E+08
 22  6  4  5  4.449E-12  0.0000  7.236E+06  8.083E+07
 22  6  5  1  6.241E-10  1.0145  2.569E+02  2.514E+07
 22  6  6  5  3.064E-12  0.0000  9.551E+06  2.083E+08
 23  6  1  1  1.532E-09  0.7008  6.698E+02  4.908E+07
 23  6  2  3  1.853E-11  0.3615  9.762E+05  8.510E+07
 23  6  3  5  7.332E-12  0.0000  4.454E+06  1.305E+08
 23  6  4  5  4.770E-12  0.0000  7.945E+06  8.792E+07
 23  6  5  1  4.055E-10  1.0072  8.438E+02  2.741E+07
 23  6  6  5  3.275E-12  0.0000  1.054E+07  2.235E+08
 24  6  1  1  1.567E-09  0.6986  7.957E+02  5.340E+07
 24  6  2  3  1.072E-11  0.0895  3.062E+06  1.380E+08
 24  6  3  5  7.816E-12  0.0000  4.877E+06  1.390E+08
 24  6  4  5  5.037E-12  0.0000  8.838E+06  9.339E+07
 24  6  5  1  4.799E-10  1.0087  7.426E+02  2.967E+07
 24  6  6  5  3.423E-12  0.0000  1.199E+07  2.273E+08
 25  6  1  1  1.642E-09  0.6982  8.948E+02  5.767E+07
 25  6  2  3  1.089E-11  0.0404  3.653E+06  1.662E+08
 25  6  3  5  8.251E-12  0.0000  5.384E+06  1.486E+08
 25  6  4  5  4.789E-12  0.0000  1.129E+07  9.058E+07
 25  6  5  1  5.802E-10  1.0104  6.176E+02  3.204E+07
 25  6  6  5  3.639E-12  0.0000  1.306E+07  2.434E+08
 26  6  1  1  1.659E-09  0.6958  1.061E+03  6.253E+07
 26  6  2  3  1.115E-11  0.0129  4.236E+06  1.858E+08
 26  6  3  5  8.140E-12  0.0000  6.424E+06  1.501E+08
 26  6  4  5  5.020E-12  0.0000  1.246E+07  9.494E+07
 26  6  5  1  6.072E-10  1.0104  6.863E+02  3.462E+07
 26  6  6  5  3.873E-12  0.0000  1.405E+07  2.632E+08
 27  6  1  1  1.672E-09  0.6935  1.254E+03  6.763E+07
 27  6  2  3  1.078E-11  0.0000  5.188E+06  1.928E+08
 27  6  3  5  8.553E-12  0.0000  7.025E+06  1.590E+08
 27  6  4  5  5.350E-12  0.0000  1.326E+07  1.043E+08
 27  6  5  1  6.692E-10  1.0110  6.796E+02  3.730E+07
 27  6  6  5  4.043E-12  0.0000  1.554E+07  2.733E+08
 28  6  1  1  1.744E-09  0.6928  1.385E+03  7.245E+07
 28  6  2  3  1.135E-11  0.0000  5.617E+06  2.046E+08
 28  6  3  5  9.034E-12  0.0000  7.559E+06  1.696E+08
 28  6  4  5  5.529E-12  0.0000  1.481E+07  1.074E+08
 28  6  5  1  1.077E-09  1.0221  2.690E+02  4.031E+07
 28  6  6  5  4.226E-12  0.0000  1.700E+07  2.866E+08
 29  6  1  1  2.128E-09  0.6988  1.157E+03  7.589E+07
 29  6  2  3  1.006E-11  0.0000  7.577E+06  1.881E+08
 29  6  3  5  7.848E-12  0.0000  1.058E+07  1.507E+08
 29  6  4  5  4.172E-09  1.0058  2.688E+01  4.160E+07
 29  6  5  1  1.112E-09  1.0220  2.990E+02  4.314E+07
 29  6  6  5  4.391E-12  0.0000  1.869E+07  2.971E+08
 30  6  1  1  1.805E-09  0.6906  1.794E+03  8.293E+07
 30  6  2  3  1.056E-11  0.0000  8.100E+06  2.015E+08
 30  6  3  5  8.265E-12  0.0000  1.123E+07  1.631E+08
 30  6  4  5  4.311E-10  1.0061  3.032E+03  4.463E+07
 30  6  5  1  1.056E-09  1.0217  3.916E+02  4.625E+07
 30  6  6  5  4.619E-12  0.0000  1.990E+07  3.196E+08
 36  6  1  1  2.330E-09  0.6908  2.631E+03  1.171E+08
 36  6  2  3  1.043E-11  0.0000  1.688E+07  2.226E+08
 36  6  3  5  8.400E-12  0.0000  2.278E+07  1.810E+08
 36  6  4  5  1.454E-09  1.0276  4.726E+02  6.486E+07
 36  6  5  1  1.384E-09  1.0355  4.498E+02  6.660E+07
 36  6  6  5  5.753E-12  0.0000  3.065E+07  4.135E+08
 42  6  1  1  2.791E-09  0.6893  3.801E+03  1.583E+08
 42  6  2  3  5.064E-09  1.0051  1.126E+02  8.519E+07
 42  6  3  5  1.188E-09  1.0136  1.868E+03  8.561E+07
 42  6  4  5  1.529E-09  1.0403  7.370E+02  8.900E+07
 42  6  5  5  7.578E-10  1.0077  3.038E+03  1.458E+08
 42  6  6  1  1.158E-09  1.0497  1.098E+03  9.156E+07
 54  6  1  1  3.626E-09  0.6904  6.985E+03  2.542E+08
 54  6  2  3  2.445E-09  1.0358  1.015E+03  1.418E+08
 54  6  3  5  2.168E-09  1.0447  1.146E+03  1.435E+08
 54  6  4  5  1.580E-09  1.0122  2.073E+03  2.350E+08
 54  6  5  3  2.329E-09  1.0220  7.622E+02  2.439E+08
 54  6  6  5  6.407E-10  1.0716  9.466E+03  1.505E+08
  8  7  1  4  6.622E-11  0.6109  4.136E+00  4.214E+06  0.4093  8.770E+04
  8  7  2  4  4.488E-10  0.7193  3.621E-02  1.343E+07  0.2764  2.504E+04
  8  7  3  6  1.428E-10  0.9040  5.093E-02  6.116E+06  0.2450  3.730E+04
  8  7  4  4  1.149E-13  2.0050  3.375E+04  4.358E+05  1.9968  3.431E+04
  8  7  5  2  1.150E-13  2.0111  3.352E+04  4.361E+05  1.9840  3.438E+04
  9  7  1  4  5.595E-10  0.7083  1.462E+00  6.258E+06  0.1645  1.880E+05
  9  7  2  4  2.064E-13  6.5960  2.358E+05  4.869E+05  3.3498  8.012E+04
  9  7  3  6  2.064E-13  6.5960  2.358E+05  4.869E+05  3.3498  8.012E+04
  9  7  4  4  1.921E-13  6.8519  2.194E+05  4.624E+05  3.1387  6.659E+04
  9  7  5  2  1.922E-13  6.8483  2.191E+05  4.621E+05  3.1352  6.674E+04
 10  7  1  4  8.321E-10  0.7254  3.332E+00  8.696E+06  0.0921  3.044E+05
 10  7  2  4  6.703E-13  1.9033  1.603E+05  1.924E+06  0.4698  1.567E+05
 10  7  3  6  6.901E-13  1.8591  1.512E+05  1.961E+06  0.4568  1.562E+05
 10  7  4  2  7.582E-13  1.7082  1.165E+05  2.201E+06  0.3801  1.308E+05
 10  7  5  4  7.582E-13  1.7082  1.165E+05  2.201E+06  0.3801  1.308E+05
 11  7  1  4  1.087E-09  0.7284  6.132E+00  1.088E+07  0.0629  4.559E+05
 11  7  2  4  3.799E-12  1.1624  1.844E+04  4.926E+06  0.1299  3.054E+05
 11  7  3  6  3.799E-12  1.1624  1.844E+04  4.926E+06  0.1299  3.054E+05
 11  7  4  2  3.004E-12  1.2034  2.556E+04  4.920E+06  0.1361  2.246E+05
 11  7  5  4  2.506E-12  1.2411  3.648E+04  4.708E+06  0.1449  2.215E+05
 12  7  1  4  7.515E-10  0.7203  2.582E+01  1.355E+07  0.0436  5.691E+05
 12  7  2  4  2.756E-11  1.0484  9.890E+02  7.943E+06  0.0341  4.112E+05
 12  7  3  6  2.756E-11  1.0484  9.890E+02  7.943E+06  0.0341  4.112E+05
 12  7  4  2  1.961E-11  1.0617  1.656E+03  8.164E+06  0.0409  2.503E+05
 12  7  5  4  1.961E-11  1.0617  1.656E+03  8.164E+06  0.0409  2.503E+05
 13  7  1  4  7.728E-10  0.7152  4.818E+01  1.672E+07  0.0271  7.209E+05
 13  7  2  4  7.264E-11  1.0298  3.251E+02  1.017E+07  0.0050  6.104E+05
 13  7  3  6  7.264E-11  1.0298  3.251E+02  1.017E+07  0.0050  6.104E+05
 13  7  4  2  2.581E-11  1.0501  2.234E+03  1.018E+07  0.0074  3.008E+05
 13  7  5  4  2.952E-11  1.0471  1.705E+03  1.014E+07  0.0087  2.621E+05
 14  7  1  4  7.532E-10  0.7072  8.860E+01  1.997E+07  0.0185  6.949E+05
 14  7  2  4  3.210E-11  0.7597  3.970E+03  1.274E+07  0.2243  1.251E+03
 14  7  3  6  3.210E-11  0.7597  3.970E+03  1.274E+07  0.2243  1.251E+03
 14  7  4  2  7.972E-11  0.9575  5.250E+02  1.247E+07  0.0536  1.696E+03
 14  7  5  4  7.972E-11  0.9575  5.250E+02  1.247E+07  0.0536  1.696E+03
 15  7  1  4  1.570E-09  0.7190  4.177E+01  2.438E+07
 15  7  2  4  1.047E-09  1.0053  5.907E+00  1.280E+07
 15  7  3  6  1.065E-09  1.0054  5.704E+00  1.278E+07
 15  7  4  2  1.186E-09  1.0240  3.211E+00  1.356E+07
 15  7  5  4  1.186E-09  1.0240  3.211E+00  1.356E+07
 16  7  1  4  1.137E-09  0.7080  1.099E+02  2.745E+07
 16  7  2  4  1.437E-12  0.0000  5.622E+06  3.868E+07
 16  7  3  6  1.424E-12  0.0000  5.727E+06  3.751E+07
 16  7  4  2  3.175E-10  1.0165  8.552E+01  1.469E+07
 16  7  5  4  3.175E-10  1.0165  8.552E+01  1.469E+07
 17  7  1  4  1.146E-09  0.7033  1.593E+02  3.034E+07
 17  7  2  4  1.915E-12  0.0000  5.107E+06  5.016E+07
 17  7  3  6  1.640E-12  0.0000  6.412E+06  4.215E+07
 17  7  4  2  3.208E-10  1.0064  1.444E+02  1.626E+07
 17  7  5  4  3.606E-10  1.0174  9.793E+01  1.645E+07
 18  7  1  4  1.022E-09  0.6948  2.747E+02  3.391E+07
 18  7  2  4  2.154E-12  0.0000  5.763E+06  5.503E+07
 18  7  3  6  2.144E-12  0.0000  5.813E+06  5.414E+07
 18  7  4  2  2.978E-10  1.0085  2.370E+02  1.791E+07
 18  7  5  4  3.007E-10  1.0086  2.326E+02  1.788E+07
 19  7  1  4  9.722E-10  0.6898  4.087E+02  3.753E+07
 19  7  2  4  2.714E-12  0.0000  5.435E+06  6.780E+07
 19  7  3  6  2.715E-12  0.0000  5.432E+06  6.773E+07
 19  7  4  2  2.082E-12  0.0000  7.828E+06  5.426E+07
 19  7  5  4  3.300E-10  1.0087  2.666E+02  1.993E+07
 20  7  1  4  9.575E-10  0.6843  5.634E+02  4.150E+07
 20  7  2  4  3.368E-12  0.0000  5.142E+06  8.315E+07
 20  7  3  6  2.984E-12  0.0000  6.081E+06  7.329E+07
 20  7  4  2  6.667E-10  1.0025  9.874E+01  2.146E+07
 20  7  5  4  8.136E-10  1.0027  6.617E+01  2.143E+07
 21  7  1  4  1.011E-09  0.6827  6.726E+02  4.518E+07
 21  7  2  4  3.632E-12  0.0000  5.848E+06  8.818E+07
 21  7  3  6  3.649E-12  0.0000  5.781E+06  8.923E+07
 21  7  4  2  8.409E-10  1.0027  8.234E+01  2.370E+07
 21  7  5  4  2.805E-12  0.2837  7.676E+06  4.714E+07
 22  7  1  4  1.043E-09  0.6798  8.226E+02  4.947E+07
 22  7  2  4  4.360E-12  0.0000  5.628E+06  1.057E+08
 22  7  3  6  3.911E-12  0.0000  6.543E+06  9.374E+07
 22  7  4  2  3.122E-12  0.0000  8.833E+06  7.928E+07
 22  7  5  4  2.138E-09  1.0046  1.618E+01  2.563E+07
 23  7  1  4  1.049E-09  0.6763  1.032E+03  5.381E+07
 23  7  2  4  5.048E-12  0.0000  5.672E+06  1.182E+08
 23  7  3  6  4.627E-12  0.0000  6.368E+06  1.088E+08
 23  7  4  2  3.335E-12  0.0000  9.855E+06  8.412E+07
 23  7  5  4  2.527E-09  1.0051  1.483E+01  2.798E+07
 24  7  1  4  1.053E-09  0.6736  1.278E+03  5.857E+07
 24  7  2  4  5.430E-12  0.0000  6.197E+06  1.287E+08
 24  7  3  6  4.980E-12  0.0000  6.947E+06  1.185E+08
 24  7  4  2  3.600E-12  0.0000  1.077E+07  9.101E+07
 24  7  5  4  3.543E-12  0.0000  1.100E+07  8.863E+07
 25  7  1  4  1.089E-09  0.6713  1.488E+03  6.327E+07
 25  7  2  4  6.360E-12  0.0000  5.998E+06  1.481E+08
 25  7  3  6  5.312E-12  0.0000  7.591E+06  1.264E+08
 25  7  4  2  4.303E-12  0.0000  1.005E+07  1.082E+08
 25  7  5  4  3.756E-12  0.0000  1.212E+07  9.450E+07
 26  7  1  4  1.135E-09  0.6705  1.691E+03  6.809E+07
 26  7  2  4  6.777E-12  0.0000  6.519E+06  1.586E+08
 26  7  3  6  5.598E-12  0.0000  8.435E+06  1.329E+08
 26  7  4  2  4.545E-12  0.0000  1.108E+07  1.140E+08
 26  7  5  4  3.942E-12  0.0000  1.352E+07  9.842E+07
 27  7  1  4  1.177E-09  0.6687  1.921E+03  7.331E+07
 27  7  2  4  7.158E-12  0.0000  7.119E+06  1.673E+08
 27  7  3  6  6.477E-12  0.0000  8.122E+06  1.533E+08
 27  7  4  2  4.792E-12  0.0000  1.211E+07  1.211E+08
 27  7  5  4  4.169E-12  0.0000  1.471E+07  1.045E+08
 28  7  1  4  1.172E-09  0.6652  2.320E+03  7.926E+07
 28  7  2  4  7.583E-12  0.0000  7.671E+06  1.791E+08
 28  7  3  6  6.799E-12  0.0000  8.889E+06  1.610E+08
 28  7  4  2  5.074E-12  0.0000  1.304E+07  1.309E+08
 28  7  5  4  4.410E-12  0.0000  1.585E+07  1.131E+08
 29  7  1  4  1.295E-09  0.6672  2.319E+03  8.388E+07
 29  7  2  4  7.904E-12  0.0000  8.418E+06  1.881E+08
 29  7  3  6  7.165E-12  0.0000  9.589E+06  1.708E+08
 29  7  4  2  5.302E-12  0.0000  1.435E+07  1.351E+08
 29  7  5  4  2.088E-09  1.0039  7.978E+01  4.271E+07
 30  7  1  4  1.250E-09  0.6640  2.899E+03  8.992E+07
 30  7  2  4  8.310E-12  0.0000  9.077E+06  1.984E+08
 30  7  3  6  7.464E-12  0.0000  1.048E+07  1.785E+08
 30  7  4  2  5.525E-12  0.0000  1.573E+07  1.403E+08
 30  7  5  4  9.244E-10  1.0149  4.342E+02  4.558E+07
 36  7  1  4  1.497E-09  0.6596  4.992E+03  1.277E+08
 36  7  2  4  1.059E-11  0.0000  1.376E+07  2.652E+08
 36  7  3  6  8.652E-12  0.0000  1.802E+07  2.225E+08
 36  7  4  2  6.945E-12  0.0000  2.416E+07  1.865E+08
 36  7  5  4  1.459E-09  1.0273  3.475E+02  6.690E+07
 42  7  1  4  1.748E-09  0.6593  7.627E+03  1.705E+08
 42  7  2  4  9.302E-12  0.0000  3.023E+07  2.575E+08
 42  7  3  6  5.380E-09  1.0052  7.830E+01  8.557E+07
 42  7  4  2  1.204E-09  1.0127  1.411E+03  8.729E+07
 42  7  5  4  1.674E-09  1.0411  4.404E+02  9.182E+07
 54  7  1  4  2.624E-09  0.6641  1.134E+04  2.699E+08
 54  7  2  4  2.346E-09  1.0259  9.999E+02  1.429E+08
 54  7  3  6  2.256E-09  1.0362  9.120E+02  1.449E+08
 54  7  4  2  2.447E-09  1.0355  7.764E+02  1.454E+08
 54  7  5  6  1.341E-09  1.0115  2.072E+03  2.554E+08
  9  8  1  5  3.769E-11  0.5559  1.091E+01  6.413E+06  0.4534  1.095E+05
  9  8  2  3  9.336E-13  0.5155  2.288E+03  2.585E+06  1.0051  9.201E+04
  9  8  3  1  8.919E-13  0.6111  2.023E+03  2.403E+06  0.9518  9.539E+04
  9  8  4  5  8.412E-14  1.9968  2.439E+04  7.077E+05  1.4501  5.349E+04
  9  8  5  1  7.825E-13  1.1780  4.759E+02  1.925E+06  0.5100  6.133E+04
 10  8  1  5  1.773E-10  0.6434  9.924E+00  8.878E+06  0.2205  2.292E+05
 10  8  2  3  3.782E-12  0.6145  3.445E+03  5.533E+06  0.4932  1.939E+05
 10  8  3  1  2.438E-12  0.6154  6.728E+03  4.947E+06  0.5667  1.868E+05
 10  8  4  5  1.436E-13  6.2117  2.852E+05  6.158E+05  3.7331  9.648E+04
 10  8  5  1  1.380E-13  6.3277  2.745E+05  6.205E+05  3.1445  7.093E+04
 11  8  1  5  3.192E-10  0.6726  1.640E+01  1.263E+07  0.1232  3.725E+05
 11  8  2  3  7.209E-12  0.6166  6.196E+03  9.931E+06  0.2882  3.153E+05
 11  8  3  1  3.887E-12  0.5938  1.663E+04  8.975E+06  0.3616  2.968E+05
 11  8  4  5  5.913E-13  1.4963  1.753E+05  3.208E+06  0.5070  2.140E+05
 11  8  5  1  5.905E-13  1.6105  1.102E+05  3.085E+06  0.4146  1.308E+05
 12  8  1  5  4.031E-10  0.6803  3.205E+01  1.626E+07  0.0764  5.399E+05
 12  8  2  3  7.007E-12  0.5420  2.134E+04  1.511E+07  0.2338  4.120E+05
 12  8  3  1  4.550E-12  0.5143  4.257E+04  1.433E+07  0.2775  4.111E+05
 12  8  4  5  8.700E-12  1.0399  3.253E+03  8.489E+06  0.0790  4.543E+05
 12  8  5  1  4.909E-12  1.0983  6.785E+03  8.165E+06  0.1004  2.382E+05
 13  8  1  5  4.438E-10  0.6789  6.204E+01  1.940E+07  0.0571  7.410E+05
 13  8  2  3  7.694E-12  0.4993  4.325E+04  1.998E+07  0.2011  5.436E+05
 13  8  3  1  3.973E-12  0.3491  1.360E+05  2.046E+07  0.3074  5.147E+05
 13  8  4  5  2.866E-10  1.0097  8.618E+00  1.120E+07  0.0203  1.067E+06
 13  8  5  1  2.078E-11  1.0454  1.122E+03  1.135E+07  0.0416  3.972E+05
 14  8  1  5  4.615E-10  0.6753  1.143E+02  2.377E+07  0.0356  8.595E+05
 14  8  2  3  7.196E-12  0.3872  1.029E+05  2.837E+07  0.1910  6.101E+05
 14  8  3  1  3.514E-12  0.1271  3.618E+05  3.266E+07  0.3224  6.344E+05
 14  8  4  5  2.732E-12  0.9027  2.570E+05  1.648E+07 59.7430  3.223E+09
 14  8  5  1  7.634E-11  1.0242  2.050E+02  1.419E+07  0.0040  7.216E+05
 15  8  1  5  5.508E-10  0.6748  1.501E+02  2.772E+07  0.0213  1.109E+06
 15  8  2  3  6.418E-12  0.2226  2.373E+05  4.193E+07  0.2095  6.753E+05
 15  8  3  1  3.686E-12  0.0000  6.063E+05  5.049E+07  0.2909  7.615E+05
 15  8  4  5  2.010E-12  0.6692  9.660E+05  2.387E+07  0.0464  5.186E+08
 15  8  5  1  2.881E-11  0.7292  3.767E+03  1.729E+07  0.2442  1.279E+03
 16  8  1  5  8.773E-10  0.6853  1.115E+02  3.386E+07
 16  8  2  3  1.942E-11  0.6184  4.530E+04  3.764E+07
 16  8  3  1  1.275E-11  0.6015  8.803E+04  3.811E+07
 16  8  4  5  1.259E-12  0.0000  4.131E+06  6.358E+07
 16  8  5  1  1.294E-09  1.0092  2.555E+00  1.722E+07
 17  8  1  5  7.522E-10  0.6767  2.213E+02  3.678E+07
 17  8  2  3  1.835E-11  0.5694  7.998E+04  4.496E+07
 17  8  3  1  1.159E-11  0.5296  1.677E+05  4.754E+07
 17  8  4  5  1.728E-12  0.0000  3.758E+06  7.950E+07
 17  8  5  1  1.069E-12  0.0000  7.276E+06  5.090E+07
 18  8  1  5  6.805E-10  0.6667  3.866E+02  4.062E+07
 18  8  2  3  1.096E-11  0.4636  2.802E+05  5.844E+07
 18  8  3  1  1.092E-11  0.4620  2.820E+05  5.864E+07
 18  8  4  5  2.267E-12  0.0000  3.557E+06  9.555E+07
 18  8  5  1  1.242E-12  0.0000  8.069E+06  5.642E+07
 19  8  1  5  6.633E-10  0.6599  5.735E+02  4.447E+07
 19  8  2  3  1.092E-11  0.4091  4.083E+05  7.022E+07
 19  8  3  1  9.094E-12  0.3665  5.525E+05  7.549E+07
 19  8  4  5  2.566E-12  0.0000  4.007E+06  1.016E+08
 19  8  5  1  1.731E-12  0.0000  6.697E+06  7.509E+07
 20  8  1  5  6.699E-10  0.6546  7.761E+02  4.861E+07
 20  8  2  3  1.079E-11  0.3515  5.835E+05  8.505E+07
 20  8  3  1  8.769E-12  0.2862  8.291E+05  9.558E+07
 20  8  4  5  3.154E-12  0.0000  3.966E+06  1.158E+08
 20  8  5  1  1.908E-12  0.0000  7.625E+06  7.873E+07
 21  8  1  5  6.581E-10  0.6494  1.072E+03  5.292E+07
 21  8  2  3  1.044E-11  0.2793  8.465E+05  1.063E+08
 21  8  3  1  8.457E-12  0.1989  1.208E+06  1.243E+08
 21  8  4  5  3.526E-12  0.0000  4.336E+06  1.262E+08
 21  8  5  1  2.114E-12  0.0000  8.584E+06  8.291E+07
 22  8  1  5  6.854E-10  0.6464  1.313E+03  5.733E+07
 22  8  2  3  8.659E-12  0.1479  1.534E+06  1.492E+08
 22  8  3  1  8.745E-12  0.1574  1.504E+06  1.457E+08
 22  8  4  5  4.171E-12  0.0000  4.380E+06  1.404E+08
 22  8  5  1  2.716E-12  0.0000  7.555E+06  1.047E+08
 23  8  1  5  7.140E-10  0.6441  1.579E+03  6.195E+07
 23  8  2  3  8.732E-12  0.0942  1.966E+06  1.787E+08
 23  8  3  1  8.872E-12  0.1049  1.909E+06  1.747E+08
 23  8  4  5  4.555E-12  0.0000  4.809E+06  1.506E+08
 23  8  5  1  2.939E-12  0.0000  8.393E+06  1.111E+08
 24  8  1  5  6.832E-10  0.6367  2.162E+03  6.770E+07
 24  8  2  1  9.139E-12  0.0639  2.305E+06  2.060E+08
 24  8  3  3  9.108E-12  0.0599  2.320E+06  2.082E+08
 24  8  4  5  4.914E-12  0.0000  5.285E+06  1.600E+08
 24  8  5  1  3.121E-12  0.0000  9.467E+06  1.149E+08
 25  8  1  5  7.236E-10  0.6359  2.448E+03  7.264E+07
 25  8  2  1  9.426E-12  0.0278  2.744E+06  2.393E+08
 25  8  3  3  7.868E-12  0.0000  3.503E+06  2.311E+08
 25  8  4  5  5.235E-12  0.0000  5.886E+06  1.667E+08
 25  8  5  1  3.328E-12  0.0000  1.050E+07  1.202E+08
 26  8  1  5  7.556E-10  0.6351  2.800E+03  7.742E+07
 26  8  2  1  9.763E-12  0.0000  3.185E+06  2.715E+08
 26  8  3  3  8.409E-12  0.0000  3.833E+06  2.421E+08
 26  8  4  5  5.613E-12  0.0000  6.389E+06  1.775E+08
 26  8  5  1  3.536E-12  0.0000  1.156E+07  1.261E+08
 27  8  1  5  7.582E-10  0.6307  3.402E+03  8.406E+07
 27  8  2  1  1.044E-11  0.0000  3.450E+06  2.896E+08
 27  8  3  3  8.316E-12  0.0000  4.592E+06  2.412E+08
 27  8  4  5  5.926E-12  0.0000  7.054E+06  1.854E+08
 27  8  5  1  3.744E-12  0.0000  1.268E+07  1.336E+08
 28  8  1  5  7.889E-10  0.6292  3.842E+03  8.956E+07
 28  8  2  1  1.096E-11  0.0000  3.812E+06  2.986E+08
 28  8  3  3  8.848E-12  0.0000  4.959E+06  2.542E+08
 28  8  4  5  6.257E-12  0.0000  7.700E+06  1.945E+08
 28  8  5  1  3.953E-12  0.0000  1.382E+07  1.405E+08
 29  8  1  5  8.107E-10  0.6290  4.369E+03  9.503E+07
 29  8  2  1  1.168E-11  0.0000  4.077E+06  3.173E+08
 29  8  3  3  9.344E-12  0.0000  5.368E+06  2.705E+08
 29  8  4  5  6.657E-12  0.0000  8.260E+06  2.071E+08
 29  8  5  1  4.186E-12  0.0000  1.490E+07  1.493E+08
 30  8  1  5  8.533E-10  0.6278  4.759E+03  1.011E+08
 30  8  2  1  1.226E-11  0.0000  4.429E+06  3.313E+08
 30  8  3  3  8.363E-12  0.0000  7.131E+06  2.507E+08
 30  8  4  5  6.931E-12  0.0000  9.083E+06  2.145E+08
 30  8  5  1  4.302E-12  0.0000  1.679E+07  1.498E+08
 36  8  1  5  1.033E-09  0.6234  8.342E+03  1.417E+08
 36  8  2  1  1.598E-11  0.0000  6.725E+06  4.354E+08
 36  8  3  3  8.923E-12  0.0000  1.398E+07  2.817E+08
 36  8  4  5  8.071E-12  0.0000  1.594E+07  2.581E+08
 36  8  5  1  1.107E-09  1.0161  5.125E+02  6.765E+07
 42  8  1  5  1.256E-09  0.6232  1.220E+04  1.882E+08
 42  8  2  1  2.120E-11  0.0000  8.727E+06  5.791E+08
 42  8  3  3  8.738E-12  0.0000  2.674E+07  2.989E+08
 42  8  4  5  7.656E-12  0.0000  3.182E+07  2.678E+08
 42  8  5  1  1.839E-09  1.0296  3.165E+02  9.298E+07
 54  8  1  5  1.688E-09  0.6241  2.245E+04  2.986E+08
 54  8  2  1  3.626E-11  0.0000  1.172E+07  1.005E+09
 54  8  3  3  2.406E-09  1.0259  7.179E+02  1.470E+08
 54  8  4  5  2.471E-09  1.0270  6.751E+02  1.456E+08
 54  8  5  5  6.539E-12  0.0000  8.057E+07  1.068E+09
 10  9  1  4  1.295E-11  0.3556  6.739E+01  7.563E+06  0.6472  1.598E+05
 10  9  2  2  2.395E-13  0.0000  1.611E+04  1.899E+06  2.0196  1.193E+05
 11  9  1  4  5.176E-11  0.4811  7.751E+01  1.351E+07  0.3467  3.140E+05
 11  9  2  2  9.520E-13  0.1981  2.620E+04  6.352E+06  1.0560  2.325E+05
 12  9  1  4  1.249E-10  0.5600  7.748E+01  2.015E+07  0.1917  5.139E+05
 12  9  2  2  2.437E-12  0.4001  2.747E+04  1.347E+07  0.5348  3.971E+05
 13  9  1  4  2.011E-10  0.5984  1.013E+02  2.635E+07  0.1072  7.591E+05
 13  9  2  2  2.059E-12  0.1870  1.341E+05  2.459E+07  0.5071  4.901E+05
 14  9  1  4  2.468E-10  0.6113  1.649E+02  3.231E+07  0.0636  9.837E+05
 14  9  2  2  2.999E-12  0.1502  1.875E+05  4.067E+07  0.3616  6.365E+05
 15  9  1  4  2.981E-10  0.6173  2.372E+02  3.807E+07  0.0361  1.306E+06
 15  9  2  2  3.028E-12  0.0000  3.926E+05  6.443E+07  0.3357  8.185E+05
 16  9  1  4  3.384E-10  0.6175  3.380E+02  4.347E+07  0.0225  1.672E+06
 16  9  2  2  3.585E-12  0.0000  5.228E+05  8.114E+07  0.2709  1.095E+06
 17  9  1  4  4.354E-10  0.6262  3.604E+02  5.251E+07
 17  9  2  2  1.019E-11  0.5118  1.141E+05  6.506E+07
 18  9  1  4  4.228E-10  0.6181  5.880E+02  5.535E+07
 18  9  2  2  9.618E-12  0.4434  2.041E+05  7.897E+07
 19  9  1  4  4.044E-10  0.6099  9.347E+02  5.922E+07
 19  9  2  2  6.887E-12  0.3166  5.322E+05  1.088E+08
 20  9  1  4  3.992E-10  0.6025  1.362E+03  6.373E+07
 20  9  2  2  6.595E-12  0.2254  8.394E+05  1.406E+08
 21  9  1  4  4.070E-10  0.5968  1.819E+03  6.864E+07
 21  9  2  2  6.525E-12  0.1461  1.203E+06  1.797E+08
 22  9  1  4  4.281E-10  0.5954  2.234E+03  7.270E+07
 22  9  2  2  6.563E-12  0.0767  1.625E+06  2.259E+08
 23  9  1  4  4.227E-10  0.5885  3.007E+03  7.863E+07
 23  9  2  2  6.147E-12  0.0000  2.352E+06  2.804E+08
 24  9  1  4  4.341E-10  0.5846  3.714E+03  8.452E+07
 24  9  2  2  6.727E-12  0.0000  2.590E+06  2.934E+08
 25  9  1  4  4.710E-10  0.5863  4.081E+03  8.874E+07
 25  9  2  2  7.252E-12  0.0000  2.868E+06  3.019E+08
 26  9  1  4  4.791E-10  0.5823  4.967E+03  9.535E+07
 26  9  2  2  6.681E-12  0.0000  3.817E+06  2.834E+08
 27  9  1  4  5.045E-10  0.5808  5.617E+03  1.015E+08
 27  9  2  2  7.164E-12  0.0000  4.141E+06  2.960E+08
 28  9  1  4  5.081E-10  0.5766  6.786E+03  1.088E+08
 28  9  2  2  7.589E-12  0.0000  4.568E+06  3.042E+08
 29  9  1  4  5.402E-10  0.5769  7.375E+03  1.150E+08
 29  9  2  2  8.028E-12  0.0000  4.986E+06  3.144E+08
 30  9  1  4  5.284E-10  0.5705  9.182E+03  1.239E+08
 30  9  2  2  8.497E-12  0.0000  5.402E+06  3.297E+08
 36  9  1  4  6.842E-10  0.5709  1.489E+04  1.680E+08
 36  9  2  2  8.415E-12  0.0000  1.187E+07  3.431E+08
 42  9  1  4  8.282E-10  0.5708  2.249E+04  2.193E+08
 42  9  2  2  9.260E-12  0.0000  1.983E+07  3.938E+08
 54  9  1  4  1.109E-09  0.5712  4.285E+04  3.443E+08
 54  9  2  2  1.760E-09  1.0154  1.194E+03  1.467E+08
 11 10  1  1  5.095E-12  0.0000  3.546E+02  2.310E+06  0.9395  4.297E+05
 12 10  1  1  1.345E-11  0.1074  7.877E+02  7.925E+07  0.4631  5.027E+05
 13 10  1  1  3.107E-11  0.2854  8.207E+02  8.117E+07  0.2631  7.693E+05
 14 10  1  1  5.134E-11  0.3678  1.009E+03  8.514E+07  0.1646  1.084E+06
 15 10  1  1  7.550E-11  0.4244  1.206E+03  8.603E+07  0.1008  1.498E+06
 16 10  1  1  9.565E-11  0.4517  1.599E+03  9.252E+07  0.0612  1.986E+06
 17 10  1  1  1.144E-10  0.4665  2.108E+03  9.895E+07  0.0362  2.397E+06
 18 10  1  1  1.313E-10  0.4722  2.767E+03  1.066E+08  0.0208  2.725E+06
 19 10  1  1  1.590E-10  0.4867  3.096E+03  1.192E+08
 20 10  1  1  1.622E-10  0.4804  4.449E+03  1.204E+08
 21 10  1  1  1.647E-10  0.4734  6.182E+03  1.253E+08
 22 10  1  1  1.730E-10  0.4687  7.898E+03  1.302E+08
 23 10  1  1  1.800E-10  0.4650  9.950E+03  1.357E+08
 24 10  1  1  1.868E-10  0.4603  1.233E+04  1.432E+08
 25 10  1  1  1.924E-10  0.4562  1.514E+04  1.509E+08
 26 10  1  1  2.034E-10  0.4548  1.751E+04  1.579E+08
 27 10  1  1  2.125E-10  0.4518  2.042E+04  1.667E+08
 28 10  1  1  2.208E-10  0.4504  2.355E+04  1.749E+08
 29 10  1  1  2.271E-10  0.4464  2.753E+04  1.853E+08
 30 10  1  1  2.397E-10  0.4458  3.040E+04  1.941E+08
 36 10  1  1  3.051E-10  0.4446  5.297E+04  2.530E+08
 42 10  1  1  3.541E-10  0.4350  8.882E+04  3.334E+08
 54 10  1  1  4.923E-10  0.4400  1.645E+05  5.012E+08
 12 11  1  2  5.452E-11  0.6845  5.637E+00  1.551E+06  0.3945  8.360E+05
 13 11  1  2  3.171E-11  0.4493  1.821E+02  3.529E+07  0.2642  7.190E+05
 14 11  1  2  6.739E-11  0.4931  2.166E+02  4.491E+07  0.1667  9.046E+05
 15 11  1  2  1.128E-10  0.5330  2.618E+02  4.963E+07  0.0994  1.244E+06
 16 11  1  2  1.588E-10  0.5584  3.350E+02  5.188E+07  0.0591  1.656E+06
 17 11  1  2  1.790E-10  0.5641  5.390E+02  5.733E+07  0.0340  2.038E+06
 18 11  1  2  2.156E-10  0.5708  7.027E+02  6.146E+07  0.0169  2.845E+06
 19 11  1  2  2.516E-10  0.5771  8.854E+02  6.829E+07
 20 11  1  2  2.527E-10  0.5711  1.364E+03  6.926E+07
 21 11  1  2  2.578E-10  0.5655  1.955E+03  7.157E+07
 22 11  1  2  2.711E-10  0.5628  2.552E+03  7.416E+07
 23 11  1  2  2.792E-10  0.5588  3.360E+03  7.736E+07
 24 11  1  2  3.003E-10  0.5585  3.987E+03  8.062E+07
 25 11  1  2  3.197E-10  0.5582  4.712E+03  8.394E+07
 26 11  1  2  3.133E-10  0.5507  6.295E+03  9.035E+07
 27 11  1  2  3.340E-10  0.5516  7.145E+03  9.384E+07
 28 11  1  2  3.626E-10  0.5536  7.769E+03  9.785E+07
 29 11  1  2  3.761E-10  0.5509  9.021E+03  1.036E+08
 30 11  1  2  3.885E-10  0.5492  1.041E+04  1.095E+08
 36 11  1  2  4.936E-10  0.5469  1.900E+04  1.455E+08
 42 11  1  2  6.295E-10  0.5525  2.751E+04  1.846E+08
 54 11  1  2  8.258E-10  0.5485  5.795E+04  2.911E+08
 13 12  1  1  1.035E-09  0.6535  4.623E-02  1.564E+09  0.1261  1.533E+05
 13 12  2  1  1.198E-11  1.0022  5.318E-01  9.553E+05  0.4878  4.989E+05
 13 12  3  3  1.200E-11  1.0014  5.333E-01  9.658E+05  0.4867  4.991E+05
 13 12  4  5  1.198E-11  1.0032  5.328E-01  9.438E+05  0.4881  5.000E+05
 14 12  1  1  1.964E-10  0.6287  7.712E+00  2.951E+07  0.1523  4.804E+05
 14 12  2  1  8.660E-14  1.6863  2.403E+05  6.457E+06  0.6501  4.343E+05
 14 12  3  3  8.176E-14  1.7543  2.689E+05  6.110E+06  0.6857  4.380E+05
 14 12  4  5  8.044E-14  1.7802  2.767E+05  6.019E+06  0.6888  4.511E+05
 15 12  1  1  1.933E-10  0.6235  3.527E+01  2.694E+07  0.1168  7.395E+05
 15 12  2  1  5.170E-13  1.1532  6.512E+04  1.728E+07  0.1581  6.809E+05
 15 12  3  3  5.724E-13  1.1407  5.299E+04  1.758E+07  0.1535  6.995E+05
 15 12  4  5  1.705E-12  1.0676  5.811E+03  2.004E+07  0.1076  6.959E+05
 16 12  1  1  2.615E-10  0.6343  6.238E+01  2.803E+07  0.0773  1.059E+06
 16 12  2  1  7.599E-11  1.0108  1.383E+01  2.603E+07  0.0271  1.250E+06
 16 12  3  3  7.599E-11  1.0108  1.383E+01  2.603E+07  0.0271  1.250E+06
 16 12  4  5  7.599E-11  1.0108  1.383E+01  2.603E+07  0.0271  1.250E+06
 17 12  1  1  2.841E-10  0.6367  1.244E+02  3.039E+07  0.0520  1.363E+06
 17 12  2  1  4.928E-11  1.0015  1.285E+02  2.161E+07  0.0287  1.805E+07
 17 12  3  3  8.788E-11  1.0021  4.029E+01  2.140E+07  0.0266  1.746E+07
 17 12  4  5  4.886E-11  1.0015  1.310E+02  2.157E+07  0.0287  1.758E+07
 18 12  1  1  3.370E-10  0.6409  1.836E+02  3.323E+07  0.0320  1.717E+06
 18 12  2  1  2.000E-11  0.6055  2.335E+03  3.148E+07  0.3318  1.141E+03
 18 12  3  3  1.691E-11  0.5736  3.220E+03  3.135E+07  0.3633  1.148E+03
 18 12  4  5  1.691E-11  0.5736  3.220E+03  3.135E+07  0.3633  1.148E+03
 19 12  1  1  3.856E-10  0.6423  2.598E+02  3.572E+07  0.0196  2.208E+06
 19 12  2  1  5.917E-10  1.0099  4.427E+00  1.769E+07  0.0357  4.861E+07
 19 12  3  3  7.140E-10  1.0108  2.995E+00  1.697E+07  0.0378  4.673E+07
 19 12  4  5  6.836E-10  1.0113  3.252E+00  1.670E+07  0.0390  4.413E+07
 20 12  1  1  4.641E-10  0.6469  3.097E+02  4.220E+07
 20 12  2  1  8.819E-13  0.0000  4.529E+06  1.564E+08
 20 12  3  3  7.473E-13  0.0000  5.754E+06  1.263E+08
 20 12  4  5  6.933E-13  0.0000  6.334E+06  1.201E+08
 21 12  1  1  4.471E-10  0.6410  5.095E+02  4.349E+07
 21 12  2  1  1.054E-12  0.0000  5.081E+06  1.548E+08
 21 12  3  3  1.053E-12  0.0000  5.096E+06  1.540E+08
 21 12  4  5  1.049E-12  0.0000  5.116E+06  1.467E+08
 22 12  1  1  4.441E-10  0.6360  7.614E+02  4.514E+07
 22 12  2  1  1.276E-12  0.0000  5.660E+06  1.417E+08
 22 12  3  3  1.210E-12  0.0000  6.053E+06  1.365E+08
 22 12  4  5  1.195E-12  0.0000  6.019E+06  1.431E+08
 23 12  1  1  4.627E-10  0.6343  1.006E+03  4.695E+07
 23 12  2  1  1.661E-12  0.0000  5.303E+06  1.576E+08
 23 12  3  3  1.669E-12  0.0000  5.262E+06  1.591E+08
 23 12  4  5  1.668E-12  0.0000  5.265E+06  1.592E+08
 24 12  1  1  5.026E-10  0.6344  1.204E+03  4.866E+07
 24 12  2  1  1.840E-12  0.0000  6.092E+06  1.598E+08
 24 12  3  3  1.840E-12  0.0000  6.092E+06  1.596E+08
 24 12  4  5  1.861E-12  0.0000  5.934E+06  1.631E+08
 25 12  1  1  5.037E-10  0.6283  1.619E+03  5.222E+07
 25 12  2  1  2.425E-12  0.0000  5.483E+06  1.800E+08
 25 12  3  3  2.410E-12  0.0000  5.546E+06  1.770E+08
 25 12  4  5  2.049E-12  0.0000  6.851E+06  1.551E+08
 26 12  1  1  5.398E-10  0.6295  1.881E+03  5.429E+07
 26 12  2  1  2.640E-12  0.0000  6.158E+06  1.827E+08
 26 12  3  3  2.631E-12  0.0000  6.194E+06  1.780E+08
 26 12  4  5  2.631E-12  0.0000  6.195E+06  1.782E+08
 27 12  1  1  5.382E-10  0.6247  2.441E+03  5.812E+07
 27 12  2  1  2.947E-12  0.0000  6.726E+06  1.854E+08
 27 12  3  3  2.850E-12  0.0000  6.936E+06  1.853E+08
 27 12  4  5  2.871E-12  0.0000  6.813E+06  1.841E+08
 28 12  1  1  5.718E-10  0.6246  2.783E+03  6.091E+07
 28 12  2  1  3.547E-12  0.0000  6.441E+06  2.038E+08
 28 12  3  3  3.545E-12  0.0000  6.446E+06  2.036E+08
 28 12  4  5  3.029E-12  0.0000  7.840E+06  1.836E+08
 29 12  1  1  6.038E-10  0.6244  3.166E+03  6.420E+07
 29 12  2  1  3.776E-12  0.0000  7.171E+06  2.098E+08
 29 12  3  3  3.777E-12  0.0000  7.169E+06  2.060E+08
 29 12  4  5  3.744E-12  0.0000  7.285E+06  2.017E+08
 30 12  1  1  6.192E-10  0.6223  3.743E+03  6.775E+07
 30 12  2  1  4.596E-12  0.0000  6.714E+06  2.321E+08
 30 12  3  3  4.021E-12  0.0000  7.918E+06  2.133E+08
 30 12  4  5  4.039E-12  0.0000  7.828E+06  2.108E+08
 36 12  1  1  8.197E-10  0.6230  6.620E+03  9.048E+07
 36 12  2  1  6.915E-12  0.0000  9.871E+06  2.879E+08
 36 12  3  3  6.961E-12  0.0000  9.748E+06  2.898E+08
 36 12  4  5  6.195E-12  0.0000  1.118E+07  2.694E+08
 42 12  1  1  9.700E-10  0.6196  1.128E+04  1.189E+08
 42 12  2  1  1.065E-11  0.0000  1.164E+07  3.880E+08
 42 12  3  3  9.479E-12  0.0000  1.375E+07  3.555E+08
 42 12  4  5  8.688E-12  0.0000  1.476E+07  3.404E+08
 54 12  1  1  1.483E-09  0.6294  1.863E+04  1.819E+08
 54 12  2  1  1.781E-11  0.0000  1.801E+07  5.868E+08
 54 12  3  3  1.777E-11  0.0000  1.807E+07  5.849E+08
 54 12  4  5  1.193E-11  0.0000  2.918E+07  4.535E+08
 19 18  1  1  4.528E-11  0.4234  5.931E+00  2.897E+09  0.3049  1.645E+05
 20 18  1  1  2.248E-10  0.6605  6.175E+00  6.032E+06  0.3158  2.100E+05
 21 18  1  1  4.196E-11  0.2250  4.232E+02  1.110E+08  0.3993  3.973E+05
 22 18  1  1  3.989E-10  0.5658  9.517E+01  4.776E+07  0.1065  3.534E+05
 23 18  1  1  4.193E-10  0.5887  1.993E+02  2.207E+07  0.0925  2.012E+05
 24 18  1  1  5.744E-10  0.6220  2.282E+02  2.250E+07  0.0492  2.948E+05
 25 18  1  1  2.976E-10  0.4838  1.397E+03  4.566E+07  0.0586  1.672E+04
 26 18  1  1  3.341E-10  0.4865  1.891E+03  5.181E+07  0.0575  2.734E+04
 27 18  1  1  2.542E-10  0.3600  5.026E+03  5.480E+07  0.1142  2.509E+04
 28 18  1  1  3.076E-10  0.3849  5.284E+03  4.945E+07  0.1021  2.571E+04
 29 18  1  1  3.527E-10  0.4052  5.855E+03  5.691E+07  0.0884  3.626E+04
 30 18  1  1  3.964E-10  0.4107  6.576E+03  5.855E+07  0.0860  3.942E+04