H
HP
HE
HEP
HEPP
C
CP
C2P
C3P
C4P
C5P
N
NP
N2P
N3P
N4P
N5P
O
OP
O2P
O3P
O4P
O5P
O6P
O7P
NE
NEP
NE2P
NE3P
NE4P
NE5P
NE6P
NE7P
NE8P
NE9P
NA
NAP
MG
MGP
MG2P
SI
SIP
SI2P
SI3P
SI4P
SI5P
FE
FEP
FE2P
FE3P
FE4P
E
