dydt_iH = +ratraw(iR001)*ys(iHP)*ys(iE)-ratraw(iR053)*ys(iH)*ys(iE)-ratraw(iR105)*ys(iHEP)*ys(iH)+ratraw(iR106)*ys(iHE)*ys(iHP)-ratraw(iR107)*ys(iH)-ratraw(iR159)*ys(iHE2P)*ys(iH)-ratraw(iR160)*ys(iCP)*ys(iH)-ratraw(iR161)*ys(iC2P)*ys(iH)-ratraw(iR162)*ys(iC3P)*ys(iH)-ratraw(iR163)*ys(iC4P)*ys(iH)-ratraw(iR164)*ys(iNP)*ys(iH)-ratraw(iR165)*ys(iN2P)*ys(iH)-ratraw(iR166)*ys(iN3P)*ys(iH)-ratraw(iR167)*ys(iN4P)*ys(iH)-ratraw(iR168)*ys(iOP)*ys(iH)-ratraw(iR169)*ys(iO2P)*ys(iH)-ratraw(iR170)*ys(iO3P)*ys(iH)-ratraw(iR171)*ys(iO4P)*ys(iH)-ratraw(iR172)*ys(iNE2P)*ys(iH)-ratraw(iR173)*ys(iNE3P)*ys(iH)-ratraw(iR174)*ys(iNE4P)*ys(iH)-ratraw(iR175)*ys(iNA2P)*ys(iH)-ratraw(iR176)*ys(iMG2P)*ys(iH)-ratraw(iR177)*ys(iMG3P)*ys(iH)-ratraw(iR178)*ys(iSI2P)*ys(iH)-ratraw(iR179)*ys(iSI3P)*ys(iH)-ratraw(iR180)*ys(iSI4P)*ys(iH)-ratraw(iR181)*ys(iSP)*ys(iH)-ratraw(iR182)*ys(iS2P)*ys(iH)-ratraw(iR183)*ys(iS3P)*ys(iH)-ratraw(iR184)*ys(iS4P)*ys(iH)-ratraw(iR185)*ys(iCA3P)*ys(iH)-ratraw(iR186)*ys(iCA4P)*ys(iH)-ratraw(iR187)*ys(iFE2P)*ys(iH)-ratraw(iR188)*ys(iFE3P)*ys(iH)-ratraw(iR189)*ys(iFE4P)*ys(iH)+ratraw(iR190)*ys(iC)*ys(iHP)+ratraw(iR191)*ys(iN)*ys(iHP)+ratraw(iR192)*ys(iO)*ys(iHP)+ratraw(iR193)*ys(iNA)*ys(iHP)+ratraw(iR194)*ys(iMG)*ys(iHP)+ratraw(iR195)*ys(iMGP)*ys(iHP)+ratraw(iR196)*ys(iSI)*ys(iHP)+ratraw(iR197)*ys(iSIP)*ys(iHP)+ratraw(iR198)*ys(iS)*ys(iHP)+ratraw(iR199)*ys(iFE)*ys(iHP)+ratraw(iR200)*ys(iFEP)*ys(iHP)
dydt_iHP = -ratraw(iR001)*ys(iHP)*ys(iE)+ratraw(iR053)*ys(iH)*ys(iE)+ratraw(iR105)*ys(iHEP)*ys(iH)-ratraw(iR106)*ys(iHE)*ys(iHP)+ratraw(iR107)*ys(iH)+ratraw(iR159)*ys(iHE2P)*ys(iH)+ratraw(iR160)*ys(iCP)*ys(iH)+ratraw(iR161)*ys(iC2P)*ys(iH)+ratraw(iR162)*ys(iC3P)*ys(iH)+ratraw(iR163)*ys(iC4P)*ys(iH)+ratraw(iR164)*ys(iNP)*ys(iH)+ratraw(iR165)*ys(iN2P)*ys(iH)+ratraw(iR166)*ys(iN3P)*ys(iH)+ratraw(iR167)*ys(iN4P)*ys(iH)+ratraw(iR168)*ys(iOP)*ys(iH)+ratraw(iR169)*ys(iO2P)*ys(iH)+ratraw(iR170)*ys(iO3P)*ys(iH)+ratraw(iR171)*ys(iO4P)*ys(iH)+ratraw(iR172)*ys(iNE2P)*ys(iH)+ratraw(iR173)*ys(iNE3P)*ys(iH)+ratraw(iR174)*ys(iNE4P)*ys(iH)+ratraw(iR175)*ys(iNA2P)*ys(iH)+ratraw(iR176)*ys(iMG2P)*ys(iH)+ratraw(iR177)*ys(iMG3P)*ys(iH)+ratraw(iR178)*ys(iSI2P)*ys(iH)+ratraw(iR179)*ys(iSI3P)*ys(iH)+ratraw(iR180)*ys(iSI4P)*ys(iH)+ratraw(iR181)*ys(iSP)*ys(iH)+ratraw(iR182)*ys(iS2P)*ys(iH)+ratraw(iR183)*ys(iS3P)*ys(iH)+ratraw(iR184)*ys(iS4P)*ys(iH)+ratraw(iR185)*ys(iCA3P)*ys(iH)+ratraw(iR186)*ys(iCA4P)*ys(iH)+ratraw(iR187)*ys(iFE2P)*ys(iH)+ratraw(iR188)*ys(iFE3P)*ys(iH)+ratraw(iR189)*ys(iFE4P)*ys(iH)-ratraw(iR190)*ys(iC)*ys(iHP)-ratraw(iR191)*ys(iN)*ys(iHP)-ratraw(iR192)*ys(iO)*ys(iHP)-ratraw(iR193)*ys(iNA)*ys(iHP)-ratraw(iR194)*ys(iMG)*ys(iHP)-ratraw(iR195)*ys(iMGP)*ys(iHP)-ratraw(iR196)*ys(iSI)*ys(iHP)-ratraw(iR197)*ys(iSIP)*ys(iHP)-ratraw(iR198)*ys(iS)*ys(iHP)-ratraw(iR199)*ys(iFE)*ys(iHP)-ratraw(iR200)*ys(iFEP)*ys(iHP)
dydt_iHE = +ratraw(iR002)*ys(iHEP)*ys(iE)-ratraw(iR054)*ys(iHE)*ys(iE)+ratraw(iR105)*ys(iHEP)*ys(iH)-ratraw(iR106)*ys(iHE)*ys(iHP)-ratraw(iR108)*ys(iHE)-ratraw(iR201)*ys(iC3P)*ys(iHE)-ratraw(iR202)*ys(iC4P)*ys(iHE)-ratraw(iR203)*ys(iN2P)*ys(iHE)-ratraw(iR204)*ys(iN3P)*ys(iHE)-ratraw(iR205)*ys(iN4P)*ys(iHE)-ratraw(iR206)*ys(iO2P)*ys(iHE)-ratraw(iR207)*ys(iO3P)*ys(iHE)-ratraw(iR208)*ys(iO4P)*ys(iHE)-ratraw(iR209)*ys(iNE2P)*ys(iHE)-ratraw(iR210)*ys(iNE3P)*ys(iHE)-ratraw(iR211)*ys(iNE4P)*ys(iHE)-ratraw(iR212)*ys(iNA2P)*ys(iHE)-ratraw(iR213)*ys(iMG3P)*ys(iHE)-ratraw(iR214)*ys(iS3P)*ys(iHE)-ratraw(iR215)*ys(iS4P)*ys(iHE)-ratraw(iR216)*ys(iCA3P)*ys(iHE)-ratraw(iR217)*ys(iCA4P)*ys(iHE)-ratraw(iR218)*ys(iSI3P)*ys(iHE)-ratraw(iR219)*ys(iSI4P)*ys(iHE)-ratraw(iR220)*ys(iFE3P)*ys(iHE)-ratraw(iR221)*ys(iFE4P)*ys(iHE)+ratraw(iR222)*ys(iSI)*ys(iHEP)+ratraw(iR240)*ys(iSI2P)*ys(iHEP)
dydt_iHEP = -ratraw(iR002)*ys(iHEP)*ys(iE)+ratraw(iR003)*ys(iHE2P)*ys(iE)+ratraw(iR054)*ys(iHE)*ys(iE)-ratraw(iR055)*ys(iHEP)*ys(iE)-ratraw(iR105)*ys(iHEP)*ys(iH)+ratraw(iR106)*ys(iHE)*ys(iHP)+ratraw(iR108)*ys(iHE)-ratraw(iR109)*ys(iHEP)+ratraw(iR159)*ys(iHE2P)*ys(iH)+ratraw(iR201)*ys(iC3P)*ys(iHE)+ratraw(iR202)*ys(iC4P)*ys(iHE)+ratraw(iR203)*ys(iN2P)*ys(iHE)+ratraw(iR204)*ys(iN3P)*ys(iHE)+ratraw(iR205)*ys(iN4P)*ys(iHE)+ratraw(iR206)*ys(iO2P)*ys(iHE)+ratraw(iR207)*ys(iO3P)*ys(iHE)+ratraw(iR208)*ys(iO4P)*ys(iHE)+ratraw(iR209)*ys(iNE2P)*ys(iHE)+ratraw(iR210)*ys(iNE3P)*ys(iHE)+ratraw(iR211)*ys(iNE4P)*ys(iHE)+ratraw(iR212)*ys(iNA2P)*ys(iHE)+ratraw(iR213)*ys(iMG3P)*ys(iHE)+ratraw(iR214)*ys(iS3P)*ys(iHE)+ratraw(iR215)*ys(iS4P)*ys(iHE)+ratraw(iR216)*ys(iCA3P)*ys(iHE)+ratraw(iR217)*ys(iCA4P)*ys(iHE)+ratraw(iR218)*ys(iSI3P)*ys(iHE)+ratraw(iR219)*ys(iSI4P)*ys(iHE)+ratraw(iR220)*ys(iFE3P)*ys(iHE)+ratraw(iR221)*ys(iFE4P)*ys(iHE)-ratraw(iR222)*ys(iSI)*ys(iHEP)-ratraw(iR240)*ys(iSI2P)*ys(iHEP)
dydt_iHE2P = -ratraw(iR003)*ys(iHE2P)*ys(iE)+ratraw(iR055)*ys(iHEP)*ys(iE)+ratraw(iR109)*ys(iHEP)-ratraw(iR159)*ys(iHE2P)*ys(iH)
dydt_iC = +ratraw(iR004)*ys(iCP)*ys(iE)-ratraw(iR056)*ys(iC)*ys(iE)-ratraw(iR110)*ys(iC)+ratraw(iR160)*ys(iCP)*ys(iH)-ratraw(iR190)*ys(iC)*ys(iHP)+ratraw(iR223)*ys(iFE)*ys(iCP)+ratraw(iR224)*ys(iMG)*ys(iCP)+ratraw(iR225)*ys(iNA)*ys(iCP)+ratraw(iR226)*ys(iS)*ys(iCP)+ratraw(iR227)*ys(iSI)*ys(iCP)
dydt_iCP = -ratraw(iR004)*ys(iCP)*ys(iE)+ratraw(iR005)*ys(iC2P)*ys(iE)+ratraw(iR056)*ys(iC)*ys(iE)-ratraw(iR057)*ys(iCP)*ys(iE)+ratraw(iR110)*ys(iC)-ratraw(iR111)*ys(iCP)-ratraw(iR160)*ys(iCP)*ys(iH)+ratraw(iR161)*ys(iC2P)*ys(iH)+ratraw(iR190)*ys(iC)*ys(iHP)-ratraw(iR223)*ys(iFE)*ys(iCP)-ratraw(iR224)*ys(iMG)*ys(iCP)-ratraw(iR225)*ys(iNA)*ys(iCP)-ratraw(iR226)*ys(iS)*ys(iCP)-ratraw(iR227)*ys(iSI)*ys(iCP)
dydt_iC2P = -ratraw(iR005)*ys(iC2P)*ys(iE)+ratraw(iR006)*ys(iC3P)*ys(iE)+ratraw(iR057)*ys(iCP)*ys(iE)-ratraw(iR058)*ys(iC2P)*ys(iE)+ratraw(iR111)*ys(iCP)-ratraw(iR112)*ys(iC2P)-ratraw(iR161)*ys(iC2P)*ys(iH)+ratraw(iR162)*ys(iC3P)*ys(iH)+ratraw(iR201)*ys(iC3P)*ys(iHE)
dydt_iC3P = -ratraw(iR006)*ys(iC3P)*ys(iE)+ratraw(iR007)*ys(iC4P)*ys(iE)+ratraw(iR058)*ys(iC2P)*ys(iE)-ratraw(iR059)*ys(iC3P)*ys(iE)+ratraw(iR112)*ys(iC2P)-ratraw(iR113)*ys(iC3P)-ratraw(iR162)*ys(iC3P)*ys(iH)+ratraw(iR163)*ys(iC4P)*ys(iH)-ratraw(iR201)*ys(iC3P)*ys(iHE)+ratraw(iR202)*ys(iC4P)*ys(iHE)
dydt_iC4P = -ratraw(iR007)*ys(iC4P)*ys(iE)+ratraw(iR008)*ys(iC5P)*ys(iE)+ratraw(iR059)*ys(iC3P)*ys(iE)-ratraw(iR060)*ys(iC4P)*ys(iE)+ratraw(iR113)*ys(iC3P)-ratraw(iR114)*ys(iC4P)-ratraw(iR163)*ys(iC4P)*ys(iH)-ratraw(iR202)*ys(iC4P)*ys(iHE)
dydt_iC5P = -ratraw(iR008)*ys(iC5P)*ys(iE)+ratraw(iR060)*ys(iC4P)*ys(iE)+ratraw(iR114)*ys(iC4P)
dydt_iN = +ratraw(iR009)*ys(iNP)*ys(iE)-ratraw(iR061)*ys(iN)*ys(iE)-ratraw(iR115)*ys(iN)+ratraw(iR164)*ys(iNP)*ys(iH)-ratraw(iR191)*ys(iN)*ys(iHP)+ratraw(iR230)*ys(iFE)*ys(iNP)+ratraw(iR231)*ys(iMG)*ys(iNP)
dydt_iNP = -ratraw(iR009)*ys(iNP)*ys(iE)+ratraw(iR010)*ys(iN2P)*ys(iE)+ratraw(iR061)*ys(iN)*ys(iE)-ratraw(iR062)*ys(iNP)*ys(iE)+ratraw(iR115)*ys(iN)-ratraw(iR116)*ys(iNP)-ratraw(iR164)*ys(iNP)*ys(iH)+ratraw(iR165)*ys(iN2P)*ys(iH)+ratraw(iR191)*ys(iN)*ys(iHP)+ratraw(iR203)*ys(iN2P)*ys(iHE)-ratraw(iR230)*ys(iFE)*ys(iNP)-ratraw(iR231)*ys(iMG)*ys(iNP)
dydt_iN2P = -ratraw(iR010)*ys(iN2P)*ys(iE)+ratraw(iR011)*ys(iN3P)*ys(iE)+ratraw(iR062)*ys(iNP)*ys(iE)-ratraw(iR063)*ys(iN2P)*ys(iE)+ratraw(iR116)*ys(iNP)-ratraw(iR117)*ys(iN2P)-ratraw(iR165)*ys(iN2P)*ys(iH)+ratraw(iR166)*ys(iN3P)*ys(iH)-ratraw(iR203)*ys(iN2P)*ys(iHE)+ratraw(iR204)*ys(iN3P)*ys(iHE)
dydt_iN3P = -ratraw(iR011)*ys(iN3P)*ys(iE)+ratraw(iR012)*ys(iN4P)*ys(iE)+ratraw(iR063)*ys(iN2P)*ys(iE)-ratraw(iR064)*ys(iN3P)*ys(iE)+ratraw(iR117)*ys(iN2P)-ratraw(iR118)*ys(iN3P)-ratraw(iR166)*ys(iN3P)*ys(iH)+ratraw(iR167)*ys(iN4P)*ys(iH)-ratraw(iR204)*ys(iN3P)*ys(iHE)+ratraw(iR205)*ys(iN4P)*ys(iHE)
dydt_iN4P = -ratraw(iR012)*ys(iN4P)*ys(iE)+ratraw(iR013)*ys(iN5P)*ys(iE)+ratraw(iR064)*ys(iN3P)*ys(iE)-ratraw(iR065)*ys(iN4P)*ys(iE)+ratraw(iR118)*ys(iN3P)-ratraw(iR119)*ys(iN4P)-ratraw(iR167)*ys(iN4P)*ys(iH)-ratraw(iR205)*ys(iN4P)*ys(iHE)
dydt_iN5P = -ratraw(iR013)*ys(iN5P)*ys(iE)+ratraw(iR014)*ys(iN6P)*ys(iE)+ratraw(iR065)*ys(iN4P)*ys(iE)-ratraw(iR066)*ys(iN5P)*ys(iE)+ratraw(iR119)*ys(iN4P)-ratraw(iR120)*ys(iN5P)
dydt_iN6P = -ratraw(iR014)*ys(iN6P)*ys(iE)+ratraw(iR066)*ys(iN5P)*ys(iE)+ratraw(iR120)*ys(iN5P)
dydt_iO = +ratraw(iR015)*ys(iOP)*ys(iE)-ratraw(iR067)*ys(iO)*ys(iE)-ratraw(iR121)*ys(iO)+ratraw(iR168)*ys(iOP)*ys(iH)-ratraw(iR192)*ys(iO)*ys(iHP)+ratraw(iR232)*ys(iFE)*ys(iOP)
dydt_iOP = -ratraw(iR015)*ys(iOP)*ys(iE)+ratraw(iR016)*ys(iO2P)*ys(iE)+ratraw(iR067)*ys(iO)*ys(iE)-ratraw(iR068)*ys(iOP)*ys(iE)+ratraw(iR121)*ys(iO)-ratraw(iR122)*ys(iOP)-ratraw(iR168)*ys(iOP)*ys(iH)+ratraw(iR169)*ys(iO2P)*ys(iH)+ratraw(iR192)*ys(iO)*ys(iHP)+ratraw(iR206)*ys(iO2P)*ys(iHE)-ratraw(iR232)*ys(iFE)*ys(iOP)
dydt_iO2P = -ratraw(iR016)*ys(iO2P)*ys(iE)+ratraw(iR017)*ys(iO3P)*ys(iE)+ratraw(iR068)*ys(iOP)*ys(iE)-ratraw(iR069)*ys(iO2P)*ys(iE)+ratraw(iR122)*ys(iOP)-ratraw(iR123)*ys(iO2P)-ratraw(iR169)*ys(iO2P)*ys(iH)+ratraw(iR170)*ys(iO3P)*ys(iH)-ratraw(iR206)*ys(iO2P)*ys(iHE)+ratraw(iR207)*ys(iO3P)*ys(iHE)
dydt_iO3P = -ratraw(iR017)*ys(iO3P)*ys(iE)+ratraw(iR018)*ys(iO4P)*ys(iE)+ratraw(iR069)*ys(iO2P)*ys(iE)-ratraw(iR070)*ys(iO3P)*ys(iE)+ratraw(iR123)*ys(iO2P)-ratraw(iR124)*ys(iO3P)-ratraw(iR170)*ys(iO3P)*ys(iH)+ratraw(iR171)*ys(iO4P)*ys(iH)-ratraw(iR207)*ys(iO3P)*ys(iHE)+ratraw(iR208)*ys(iO4P)*ys(iHE)
dydt_iO4P = -ratraw(iR018)*ys(iO4P)*ys(iE)+ratraw(iR019)*ys(iO5P)*ys(iE)+ratraw(iR070)*ys(iO3P)*ys(iE)-ratraw(iR071)*ys(iO4P)*ys(iE)+ratraw(iR124)*ys(iO3P)-ratraw(iR125)*ys(iO4P)-ratraw(iR171)*ys(iO4P)*ys(iH)-ratraw(iR208)*ys(iO4P)*ys(iHE)
dydt_iO5P = -ratraw(iR019)*ys(iO5P)*ys(iE)+ratraw(iR020)*ys(iO6P)*ys(iE)+ratraw(iR071)*ys(iO4P)*ys(iE)-ratraw(iR072)*ys(iO5P)*ys(iE)+ratraw(iR125)*ys(iO4P)-ratraw(iR126)*ys(iO5P)
dydt_iO6P = -ratraw(iR020)*ys(iO6P)*ys(iE)+ratraw(iR021)*ys(iO7P)*ys(iE)+ratraw(iR072)*ys(iO5P)*ys(iE)-ratraw(iR073)*ys(iO6P)*ys(iE)+ratraw(iR126)*ys(iO5P)-ratraw(iR127)*ys(iO6P)
dydt_iO7P = -ratraw(iR021)*ys(iO7P)*ys(iE)+ratraw(iR073)*ys(iO6P)*ys(iE)+ratraw(iR127)*ys(iO6P)
dydt_iNE = +ratraw(iR022)*ys(iNEP)*ys(iE)-ratraw(iR074)*ys(iNE)*ys(iE)-ratraw(iR128)*ys(iNE)
dydt_iNEP = -ratraw(iR022)*ys(iNEP)*ys(iE)+ratraw(iR023)*ys(iNE2P)*ys(iE)+ratraw(iR074)*ys(iNE)*ys(iE)-ratraw(iR075)*ys(iNEP)*ys(iE)+ratraw(iR128)*ys(iNE)-ratraw(iR129)*ys(iNEP)+ratraw(iR172)*ys(iNE2P)*ys(iH)+ratraw(iR209)*ys(iNE2P)*ys(iHE)
dydt_iNE2P = -ratraw(iR023)*ys(iNE2P)*ys(iE)+ratraw(iR024)*ys(iNE3P)*ys(iE)+ratraw(iR075)*ys(iNEP)*ys(iE)-ratraw(iR076)*ys(iNE2P)*ys(iE)+ratraw(iR129)*ys(iNEP)-ratraw(iR130)*ys(iNE2P)-ratraw(iR172)*ys(iNE2P)*ys(iH)+ratraw(iR173)*ys(iNE3P)*ys(iH)-ratraw(iR209)*ys(iNE2P)*ys(iHE)+ratraw(iR210)*ys(iNE3P)*ys(iHE)
dydt_iNE3P = -ratraw(iR024)*ys(iNE3P)*ys(iE)+ratraw(iR025)*ys(iNE4P)*ys(iE)+ratraw(iR076)*ys(iNE2P)*ys(iE)-ratraw(iR077)*ys(iNE3P)*ys(iE)+ratraw(iR130)*ys(iNE2P)-ratraw(iR131)*ys(iNE3P)-ratraw(iR173)*ys(iNE3P)*ys(iH)+ratraw(iR174)*ys(iNE4P)*ys(iH)-ratraw(iR210)*ys(iNE3P)*ys(iHE)+ratraw(iR211)*ys(iNE4P)*ys(iHE)
dydt_iNE4P = -ratraw(iR025)*ys(iNE4P)*ys(iE)+ratraw(iR026)*ys(iNE5P)*ys(iE)+ratraw(iR077)*ys(iNE3P)*ys(iE)-ratraw(iR078)*ys(iNE4P)*ys(iE)+ratraw(iR131)*ys(iNE3P)-ratraw(iR132)*ys(iNE4P)-ratraw(iR174)*ys(iNE4P)*ys(iH)-ratraw(iR211)*ys(iNE4P)*ys(iHE)
dydt_iNE5P = -ratraw(iR026)*ys(iNE5P)*ys(iE)+ratraw(iR027)*ys(iNE6P)*ys(iE)+ratraw(iR078)*ys(iNE4P)*ys(iE)-ratraw(iR079)*ys(iNE5P)*ys(iE)+ratraw(iR132)*ys(iNE4P)-ratraw(iR133)*ys(iNE5P)
dydt_iNE6P = -ratraw(iR027)*ys(iNE6P)*ys(iE)+ratraw(iR028)*ys(iNE7P)*ys(iE)+ratraw(iR079)*ys(iNE5P)*ys(iE)-ratraw(iR080)*ys(iNE6P)*ys(iE)+ratraw(iR133)*ys(iNE5P)-ratraw(iR134)*ys(iNE6P)
dydt_iNE7P = -ratraw(iR028)*ys(iNE7P)*ys(iE)+ratraw(iR029)*ys(iNE8P)*ys(iE)+ratraw(iR080)*ys(iNE6P)*ys(iE)-ratraw(iR081)*ys(iNE7P)*ys(iE)+ratraw(iR134)*ys(iNE6P)-ratraw(iR135)*ys(iNE7P)
dydt_iNE8P = -ratraw(iR029)*ys(iNE8P)*ys(iE)+ratraw(iR030)*ys(iNE9P)*ys(iE)+ratraw(iR081)*ys(iNE7P)*ys(iE)-ratraw(iR082)*ys(iNE8P)*ys(iE)+ratraw(iR135)*ys(iNE7P)-ratraw(iR136)*ys(iNE8P)
dydt_iNE9P = -ratraw(iR030)*ys(iNE9P)*ys(iE)+ratraw(iR082)*ys(iNE8P)*ys(iE)+ratraw(iR136)*ys(iNE8P)
dydt_iNA = +ratraw(iR031)*ys(iNAP)*ys(iE)-ratraw(iR083)*ys(iNA)*ys(iE)-ratraw(iR137)*ys(iNA)-ratraw(iR193)*ys(iNA)*ys(iHP)-ratraw(iR225)*ys(iNA)*ys(iCP)-ratraw(iR228)*ys(iNA)*ys(iFEP)-ratraw(iR229)*ys(iNA)*ys(iMGP)-ratraw(iR235)*ys(iNA)*ys(iSP)-ratraw(iR239)*ys(iNA)*ys(iSIP)
dydt_iNAP = -ratraw(iR031)*ys(iNAP)*ys(iE)+ratraw(iR032)*ys(iNA2P)*ys(iE)+ratraw(iR083)*ys(iNA)*ys(iE)-ratraw(iR084)*ys(iNAP)*ys(iE)+ratraw(iR137)*ys(iNA)-ratraw(iR138)*ys(iNAP)+ratraw(iR175)*ys(iNA2P)*ys(iH)+ratraw(iR193)*ys(iNA)*ys(iHP)+ratraw(iR212)*ys(iNA2P)*ys(iHE)+ratraw(iR225)*ys(iNA)*ys(iCP)+ratraw(iR228)*ys(iNA)*ys(iFEP)+ratraw(iR229)*ys(iNA)*ys(iMGP)+ratraw(iR235)*ys(iNA)*ys(iSP)+ratraw(iR239)*ys(iNA)*ys(iSIP)
dydt_iNA2P = -ratraw(iR032)*ys(iNA2P)*ys(iE)+ratraw(iR084)*ys(iNAP)*ys(iE)+ratraw(iR138)*ys(iNAP)-ratraw(iR175)*ys(iNA2P)*ys(iH)-ratraw(iR212)*ys(iNA2P)*ys(iHE)
dydt_iMG = +ratraw(iR033)*ys(iMGP)*ys(iE)-ratraw(iR085)*ys(iMG)*ys(iE)-ratraw(iR139)*ys(iMG)-ratraw(iR194)*ys(iMG)*ys(iHP)-ratraw(iR224)*ys(iMG)*ys(iCP)+ratraw(iR229)*ys(iNA)*ys(iMGP)-ratraw(iR231)*ys(iMG)*ys(iNP)-ratraw(iR234)*ys(iMG)*ys(iSP)-ratraw(iR238)*ys(iMG)*ys(iSIP)
dydt_iMGP = -ratraw(iR033)*ys(iMGP)*ys(iE)+ratraw(iR034)*ys(iMG2P)*ys(iE)+ratraw(iR085)*ys(iMG)*ys(iE)-ratraw(iR086)*ys(iMGP)*ys(iE)+ratraw(iR139)*ys(iMG)-ratraw(iR140)*ys(iMGP)+ratraw(iR176)*ys(iMG2P)*ys(iH)+ratraw(iR194)*ys(iMG)*ys(iHP)-ratraw(iR195)*ys(iMGP)*ys(iHP)+ratraw(iR224)*ys(iMG)*ys(iCP)-ratraw(iR229)*ys(iNA)*ys(iMGP)+ratraw(iR231)*ys(iMG)*ys(iNP)+ratraw(iR234)*ys(iMG)*ys(iSP)+ratraw(iR238)*ys(iMG)*ys(iSIP)
dydt_iMG2P = -ratraw(iR034)*ys(iMG2P)*ys(iE)+ratraw(iR035)*ys(iMG3P)*ys(iE)+ratraw(iR086)*ys(iMGP)*ys(iE)-ratraw(iR087)*ys(iMG2P)*ys(iE)+ratraw(iR140)*ys(iMGP)-ratraw(iR141)*ys(iMG2P)-ratraw(iR176)*ys(iMG2P)*ys(iH)+ratraw(iR177)*ys(iMG3P)*ys(iH)+ratraw(iR195)*ys(iMGP)*ys(iHP)+ratraw(iR213)*ys(iMG3P)*ys(iHE)
dydt_iMG3P = -ratraw(iR035)*ys(iMG3P)*ys(iE)+ratraw(iR087)*ys(iMG2P)*ys(iE)+ratraw(iR141)*ys(iMG2P)-ratraw(iR177)*ys(iMG3P)*ys(iH)-ratraw(iR213)*ys(iMG3P)*ys(iHE)
dydt_iSI = +ratraw(iR036)*ys(iSIP)*ys(iE)-ratraw(iR088)*ys(iSI)*ys(iE)-ratraw(iR142)*ys(iSI)-ratraw(iR196)*ys(iSI)*ys(iHP)-ratraw(iR222)*ys(iSI)*ys(iHEP)-ratraw(iR227)*ys(iSI)*ys(iCP)-ratraw(iR236)*ys(iSI)*ys(iSP)+ratraw(iR237)*ys(iFE)*ys(iSIP)+ratraw(iR238)*ys(iMG)*ys(iSIP)+ratraw(iR239)*ys(iNA)*ys(iSIP)
dydt_iSIP = -ratraw(iR036)*ys(iSIP)*ys(iE)+ratraw(iR037)*ys(iSI2P)*ys(iE)+ratraw(iR088)*ys(iSI)*ys(iE)-ratraw(iR089)*ys(iSIP)*ys(iE)+ratraw(iR142)*ys(iSI)-ratraw(iR143)*ys(iSIP)+ratraw(iR178)*ys(iSI2P)*ys(iH)+ratraw(iR196)*ys(iSI)*ys(iHP)-ratraw(iR197)*ys(iSIP)*ys(iHP)+ratraw(iR222)*ys(iSI)*ys(iHEP)+ratraw(iR227)*ys(iSI)*ys(iCP)+ratraw(iR236)*ys(iSI)*ys(iSP)-ratraw(iR237)*ys(iFE)*ys(iSIP)-ratraw(iR238)*ys(iMG)*ys(iSIP)-ratraw(iR239)*ys(iNA)*ys(iSIP)
dydt_iSI2P = -ratraw(iR037)*ys(iSI2P)*ys(iE)+ratraw(iR038)*ys(iSI3P)*ys(iE)+ratraw(iR089)*ys(iSIP)*ys(iE)-ratraw(iR090)*ys(iSI2P)*ys(iE)+ratraw(iR143)*ys(iSIP)-ratraw(iR144)*ys(iSI2P)-ratraw(iR178)*ys(iSI2P)*ys(iH)+ratraw(iR179)*ys(iSI3P)*ys(iH)+ratraw(iR197)*ys(iSIP)*ys(iHP)+ratraw(iR218)*ys(iSI3P)*ys(iHE)-ratraw(iR240)*ys(iSI2P)*ys(iHEP)
dydt_iSI3P = -ratraw(iR038)*ys(iSI3P)*ys(iE)+ratraw(iR039)*ys(iSI4P)*ys(iE)+ratraw(iR090)*ys(iSI2P)*ys(iE)-ratraw(iR091)*ys(iSI3P)*ys(iE)+ratraw(iR144)*ys(iSI2P)-ratraw(iR145)*ys(iSI3P)-ratraw(iR179)*ys(iSI3P)*ys(iH)+ratraw(iR180)*ys(iSI4P)*ys(iH)-ratraw(iR218)*ys(iSI3P)*ys(iHE)+ratraw(iR219)*ys(iSI4P)*ys(iHE)+ratraw(iR240)*ys(iSI2P)*ys(iHEP)
dydt_iSI4P = -ratraw(iR039)*ys(iSI4P)*ys(iE)+ratraw(iR040)*ys(iSI5P)*ys(iE)+ratraw(iR091)*ys(iSI3P)*ys(iE)-ratraw(iR092)*ys(iSI4P)*ys(iE)+ratraw(iR145)*ys(iSI3P)-ratraw(iR146)*ys(iSI4P)-ratraw(iR180)*ys(iSI4P)*ys(iH)-ratraw(iR219)*ys(iSI4P)*ys(iHE)
dydt_iSI5P = -ratraw(iR040)*ys(iSI5P)*ys(iE)+ratraw(iR092)*ys(iSI4P)*ys(iE)+ratraw(iR146)*ys(iSI4P)
dydt_iS = +ratraw(iR041)*ys(iSP)*ys(iE)-ratraw(iR093)*ys(iS)*ys(iE)-ratraw(iR147)*ys(iS)+ratraw(iR181)*ys(iSP)*ys(iH)-ratraw(iR198)*ys(iS)*ys(iHP)-ratraw(iR226)*ys(iS)*ys(iCP)+ratraw(iR233)*ys(iFE)*ys(iSP)+ratraw(iR234)*ys(iMG)*ys(iSP)+ratraw(iR235)*ys(iNA)*ys(iSP)+ratraw(iR236)*ys(iSI)*ys(iSP)
dydt_iSP = -ratraw(iR041)*ys(iSP)*ys(iE)+ratraw(iR042)*ys(iS2P)*ys(iE)+ratraw(iR093)*ys(iS)*ys(iE)-ratraw(iR094)*ys(iSP)*ys(iE)+ratraw(iR147)*ys(iS)-ratraw(iR148)*ys(iSP)-ratraw(iR181)*ys(iSP)*ys(iH)+ratraw(iR182)*ys(iS2P)*ys(iH)+ratraw(iR198)*ys(iS)*ys(iHP)+ratraw(iR226)*ys(iS)*ys(iCP)-ratraw(iR233)*ys(iFE)*ys(iSP)-ratraw(iR234)*ys(iMG)*ys(iSP)-ratraw(iR235)*ys(iNA)*ys(iSP)-ratraw(iR236)*ys(iSI)*ys(iSP)
dydt_iS2P = -ratraw(iR042)*ys(iS2P)*ys(iE)+ratraw(iR043)*ys(iS3P)*ys(iE)+ratraw(iR094)*ys(iSP)*ys(iE)-ratraw(iR095)*ys(iS2P)*ys(iE)+ratraw(iR148)*ys(iSP)-ratraw(iR149)*ys(iS2P)-ratraw(iR182)*ys(iS2P)*ys(iH)+ratraw(iR183)*ys(iS3P)*ys(iH)+ratraw(iR214)*ys(iS3P)*ys(iHE)
dydt_iS3P = -ratraw(iR043)*ys(iS3P)*ys(iE)+ratraw(iR044)*ys(iS4P)*ys(iE)+ratraw(iR095)*ys(iS2P)*ys(iE)-ratraw(iR096)*ys(iS3P)*ys(iE)+ratraw(iR149)*ys(iS2P)-ratraw(iR150)*ys(iS3P)-ratraw(iR183)*ys(iS3P)*ys(iH)+ratraw(iR184)*ys(iS4P)*ys(iH)-ratraw(iR214)*ys(iS3P)*ys(iHE)+ratraw(iR215)*ys(iS4P)*ys(iHE)
dydt_iS4P = -ratraw(iR044)*ys(iS4P)*ys(iE)+ratraw(iR096)*ys(iS3P)*ys(iE)+ratraw(iR150)*ys(iS3P)-ratraw(iR184)*ys(iS4P)*ys(iH)-ratraw(iR215)*ys(iS4P)*ys(iHE)
dydt_iCA = +ratraw(iR045)*ys(iCAP)*ys(iE)-ratraw(iR097)*ys(iCA)*ys(iE)-ratraw(iR151)*ys(iCA)
dydt_iCAP = -ratraw(iR045)*ys(iCAP)*ys(iE)+ratraw(iR046)*ys(iCA2P)*ys(iE)+ratraw(iR097)*ys(iCA)*ys(iE)-ratraw(iR098)*ys(iCAP)*ys(iE)+ratraw(iR151)*ys(iCA)-ratraw(iR152)*ys(iCAP)
dydt_iCA2P = -ratraw(iR046)*ys(iCA2P)*ys(iE)+ratraw(iR047)*ys(iCA3P)*ys(iE)+ratraw(iR098)*ys(iCAP)*ys(iE)-ratraw(iR099)*ys(iCA2P)*ys(iE)+ratraw(iR152)*ys(iCAP)-ratraw(iR153)*ys(iCA2P)+ratraw(iR185)*ys(iCA3P)*ys(iH)+ratraw(iR216)*ys(iCA3P)*ys(iHE)
dydt_iCA3P = -ratraw(iR047)*ys(iCA3P)*ys(iE)+ratraw(iR048)*ys(iCA4P)*ys(iE)+ratraw(iR099)*ys(iCA2P)*ys(iE)-ratraw(iR100)*ys(iCA3P)*ys(iE)+ratraw(iR153)*ys(iCA2P)-ratraw(iR154)*ys(iCA3P)-ratraw(iR185)*ys(iCA3P)*ys(iH)+ratraw(iR186)*ys(iCA4P)*ys(iH)-ratraw(iR216)*ys(iCA3P)*ys(iHE)+ratraw(iR217)*ys(iCA4P)*ys(iHE)
dydt_iCA4P = -ratraw(iR048)*ys(iCA4P)*ys(iE)+ratraw(iR100)*ys(iCA3P)*ys(iE)+ratraw(iR154)*ys(iCA3P)-ratraw(iR186)*ys(iCA4P)*ys(iH)-ratraw(iR217)*ys(iCA4P)*ys(iHE)
dydt_iFE = +ratraw(iR049)*ys(iFEP)*ys(iE)-ratraw(iR101)*ys(iFE)*ys(iE)-ratraw(iR155)*ys(iFE)-ratraw(iR199)*ys(iFE)*ys(iHP)-ratraw(iR223)*ys(iFE)*ys(iCP)+ratraw(iR228)*ys(iNA)*ys(iFEP)-ratraw(iR230)*ys(iFE)*ys(iNP)-ratraw(iR232)*ys(iFE)*ys(iOP)-ratraw(iR233)*ys(iFE)*ys(iSP)-ratraw(iR237)*ys(iFE)*ys(iSIP)
dydt_iFEP = -ratraw(iR049)*ys(iFEP)*ys(iE)+ratraw(iR050)*ys(iFE2P)*ys(iE)+ratraw(iR101)*ys(iFE)*ys(iE)-ratraw(iR102)*ys(iFEP)*ys(iE)+ratraw(iR155)*ys(iFE)-ratraw(iR156)*ys(iFEP)+ratraw(iR187)*ys(iFE2P)*ys(iH)+ratraw(iR199)*ys(iFE)*ys(iHP)-ratraw(iR200)*ys(iFEP)*ys(iHP)+ratraw(iR223)*ys(iFE)*ys(iCP)-ratraw(iR228)*ys(iNA)*ys(iFEP)+ratraw(iR230)*ys(iFE)*ys(iNP)+ratraw(iR232)*ys(iFE)*ys(iOP)+ratraw(iR233)*ys(iFE)*ys(iSP)+ratraw(iR237)*ys(iFE)*ys(iSIP)
dydt_iFE2P = -ratraw(iR050)*ys(iFE2P)*ys(iE)+ratraw(iR051)*ys(iFE3P)*ys(iE)+ratraw(iR102)*ys(iFEP)*ys(iE)-ratraw(iR103)*ys(iFE2P)*ys(iE)+ratraw(iR156)*ys(iFEP)-ratraw(iR157)*ys(iFE2P)-ratraw(iR187)*ys(iFE2P)*ys(iH)+ratraw(iR188)*ys(iFE3P)*ys(iH)+ratraw(iR200)*ys(iFEP)*ys(iHP)+ratraw(iR220)*ys(iFE3P)*ys(iHE)
dydt_iFE3P = -ratraw(iR051)*ys(iFE3P)*ys(iE)+ratraw(iR052)*ys(iFE4P)*ys(iE)+ratraw(iR103)*ys(iFE2P)*ys(iE)-ratraw(iR104)*ys(iFE3P)*ys(iE)+ratraw(iR157)*ys(iFE2P)-ratraw(iR158)*ys(iFE3P)-ratraw(iR188)*ys(iFE3P)*ys(iH)+ratraw(iR189)*ys(iFE4P)*ys(iH)-ratraw(iR220)*ys(iFE3P)*ys(iHE)+ratraw(iR221)*ys(iFE4P)*ys(iHE)
dydt_iFE4P = -ratraw(iR052)*ys(iFE4P)*ys(iE)+ratraw(iR104)*ys(iFE3P)*ys(iE)+ratraw(iR158)*ys(iFE3P)-ratraw(iR189)*ys(iFE4P)*ys(iH)-ratraw(iR221)*ys(iFE4P)*ys(iHE)
dydt_iE = -ratraw(iR001)*ys(iHP)*ys(iE)-ratraw(iR002)*ys(iHEP)*ys(iE)-ratraw(iR003)*ys(iHE2P)*ys(iE)-ratraw(iR004)*ys(iCP)*ys(iE)-ratraw(iR005)*ys(iC2P)*ys(iE)-ratraw(iR006)*ys(iC3P)*ys(iE)-ratraw(iR007)*ys(iC4P)*ys(iE)-ratraw(iR008)*ys(iC5P)*ys(iE)-ratraw(iR009)*ys(iNP)*ys(iE)-ratraw(iR010)*ys(iN2P)*ys(iE)-ratraw(iR011)*ys(iN3P)*ys(iE)-ratraw(iR012)*ys(iN4P)*ys(iE)-ratraw(iR013)*ys(iN5P)*ys(iE)-ratraw(iR014)*ys(iN6P)*ys(iE)-ratraw(iR015)*ys(iOP)*ys(iE)-ratraw(iR016)*ys(iO2P)*ys(iE)-ratraw(iR017)*ys(iO3P)*ys(iE)-ratraw(iR018)*ys(iO4P)*ys(iE)-ratraw(iR019)*ys(iO5P)*ys(iE)-ratraw(iR020)*ys(iO6P)*ys(iE)-ratraw(iR021)*ys(iO7P)*ys(iE)-ratraw(iR022)*ys(iNEP)*ys(iE)-ratraw(iR023)*ys(iNE2P)*ys(iE)-ratraw(iR024)*ys(iNE3P)*ys(iE)-ratraw(iR025)*ys(iNE4P)*ys(iE)-ratraw(iR026)*ys(iNE5P)*ys(iE)-ratraw(iR027)*ys(iNE6P)*ys(iE)-ratraw(iR028)*ys(iNE7P)*ys(iE)-ratraw(iR029)*ys(iNE8P)*ys(iE)-ratraw(iR030)*ys(iNE9P)*ys(iE)-ratraw(iR031)*ys(iNAP)*ys(iE)-ratraw(iR032)*ys(iNA2P)*ys(iE)-ratraw(iR033)*ys(iMGP)*ys(iE)-ratraw(iR034)*ys(iMG2P)*ys(iE)-ratraw(iR035)*ys(iMG3P)*ys(iE)-ratraw(iR036)*ys(iSIP)*ys(iE)-ratraw(iR037)*ys(iSI2P)*ys(iE)-ratraw(iR038)*ys(iSI3P)*ys(iE)-ratraw(iR039)*ys(iSI4P)*ys(iE)-ratraw(iR040)*ys(iSI5P)*ys(iE)-ratraw(iR041)*ys(iSP)*ys(iE)-ratraw(iR042)*ys(iS2P)*ys(iE)-ratraw(iR043)*ys(iS3P)*ys(iE)-ratraw(iR044)*ys(iS4P)*ys(iE)-ratraw(iR045)*ys(iCAP)*ys(iE)-ratraw(iR046)*ys(iCA2P)*ys(iE)-ratraw(iR047)*ys(iCA3P)*ys(iE)-ratraw(iR048)*ys(iCA4P)*ys(iE)-ratraw(iR049)*ys(iFEP)*ys(iE)-ratraw(iR050)*ys(iFE2P)*ys(iE)-ratraw(iR051)*ys(iFE3P)*ys(iE)-ratraw(iR052)*ys(iFE4P)*ys(iE)-ratraw(iR053)*ys(iH)*ys(iE)+ratraw(iR053)*ys(iH)*ys(iE)+ratraw(iR053)*ys(iH)*ys(iE)-ratraw(iR054)*ys(iHE)*ys(iE)+ratraw(iR054)*ys(iHE)*ys(iE)+ratraw(iR054)*ys(iHE)*ys(iE)-ratraw(iR055)*ys(iHEP)*ys(iE)+ratraw(iR055)*ys(iHEP)*ys(iE)+ratraw(iR055)*ys(iHEP)*ys(iE)-ratraw(iR056)*ys(iC)*ys(iE)+ratraw(iR056)*ys(iC)*ys(iE)+ratraw(iR056)*ys(iC)*ys(iE)-ratraw(iR057)*ys(iCP)*ys(iE)+ratraw(iR057)*ys(iCP)*ys(iE)+ratraw(iR057)*ys(iCP)*ys(iE)-ratraw(iR058)*ys(iC2P)*ys(iE)+ratraw(iR058)*ys(iC2P)*ys(iE)+ratraw(iR058)*ys(iC2P)*ys(iE)-ratraw(iR059)*ys(iC3P)*ys(iE)+ratraw(iR059)*ys(iC3P)*ys(iE)+ratraw(iR059)*ys(iC3P)*ys(iE)-ratraw(iR060)*ys(iC4P)*ys(iE)+ratraw(iR060)*ys(iC4P)*ys(iE)+ratraw(iR060)*ys(iC4P)*ys(iE)-ratraw(iR061)*ys(iN)*ys(iE)+ratraw(iR061)*ys(iN)*ys(iE)+ratraw(iR061)*ys(iN)*ys(iE)-ratraw(iR062)*ys(iNP)*ys(iE)+ratraw(iR062)*ys(iNP)*ys(iE)+ratraw(iR062)*ys(iNP)*ys(iE)-ratraw(iR063)*ys(iN2P)*ys(iE)+ratraw(iR063)*ys(iN2P)*ys(iE)+ratraw(iR063)*ys(iN2P)*ys(iE)-ratraw(iR064)*ys(iN3P)*ys(iE)+ratraw(iR064)*ys(iN3P)*ys(iE)+ratraw(iR064)*ys(iN3P)*ys(iE)-ratraw(iR065)*ys(iN4P)*ys(iE)+ratraw(iR065)*ys(iN4P)*ys(iE)+ratraw(iR065)*ys(iN4P)*ys(iE)-ratraw(iR066)*ys(iN5P)*ys(iE)+ratraw(iR066)*ys(iN5P)*ys(iE)+ratraw(iR066)*ys(iN5P)*ys(iE)-ratraw(iR067)*ys(iO)*ys(iE)+ratraw(iR067)*ys(iO)*ys(iE)+ratraw(iR067)*ys(iO)*ys(iE)-ratraw(iR068)*ys(iOP)*ys(iE)+ratraw(iR068)*ys(iOP)*ys(iE)+ratraw(iR068)*ys(iOP)*ys(iE)-ratraw(iR069)*ys(iO2P)*ys(iE)+ratraw(iR069)*ys(iO2P)*ys(iE)+ratraw(iR069)*ys(iO2P)*ys(iE)-ratraw(iR070)*ys(iO3P)*ys(iE)+ratraw(iR070)*ys(iO3P)*ys(iE)+ratraw(iR070)*ys(iO3P)*ys(iE)-ratraw(iR071)*ys(iO4P)*ys(iE)+ratraw(iR071)*ys(iO4P)*ys(iE)+ratraw(iR071)*ys(iO4P)*ys(iE)-ratraw(iR072)*ys(iO5P)*ys(iE)+ratraw(iR072)*ys(iO5P)*ys(iE)+ratraw(iR072)*ys(iO5P)*ys(iE)-ratraw(iR073)*ys(iO6P)*ys(iE)+ratraw(iR073)*ys(iO6P)*ys(iE)+ratraw(iR073)*ys(iO6P)*ys(iE)-ratraw(iR074)*ys(iNE)*ys(iE)+ratraw(iR074)*ys(iNE)*ys(iE)+ratraw(iR074)*ys(iNE)*ys(iE)-ratraw(iR075)*ys(iNEP)*ys(iE)+ratraw(iR075)*ys(iNEP)*ys(iE)+ratraw(iR075)*ys(iNEP)*ys(iE)-ratraw(iR076)*ys(iNE2P)*ys(iE)+ratraw(iR076)*ys(iNE2P)*ys(iE)+ratraw(iR076)*ys(iNE2P)*ys(iE)-ratraw(iR077)*ys(iNE3P)*ys(iE)+ratraw(iR077)*ys(iNE3P)*ys(iE)+ratraw(iR077)*ys(iNE3P)*ys(iE)-ratraw(iR078)*ys(iNE4P)*ys(iE)+ratraw(iR078)*ys(iNE4P)*ys(iE)+ratraw(iR078)*ys(iNE4P)*ys(iE)-ratraw(iR079)*ys(iNE5P)*ys(iE)+ratraw(iR079)*ys(iNE5P)*ys(iE)+ratraw(iR079)*ys(iNE5P)*ys(iE)-ratraw(iR080)*ys(iNE6P)*ys(iE)+ratraw(iR080)*ys(iNE6P)*ys(iE)+ratraw(iR080)*ys(iNE6P)*ys(iE)-ratraw(iR081)*ys(iNE7P)*ys(iE)+ratraw(iR081)*ys(iNE7P)*ys(iE)+ratraw(iR081)*ys(iNE7P)*ys(iE)-ratraw(iR082)*ys(iNE8P)*ys(iE)+ratraw(iR082)*ys(iNE8P)*ys(iE)+ratraw(iR082)*ys(iNE8P)*ys(iE)-ratraw(iR083)*ys(iNA)*ys(iE)+ratraw(iR083)*ys(iNA)*ys(iE)+ratraw(iR083)*ys(iNA)*ys(iE)-ratraw(iR084)*ys(iNAP)*ys(iE)+ratraw(iR084)*ys(iNAP)*ys(iE)+ratraw(iR084)*ys(iNAP)*ys(iE)-ratraw(iR085)*ys(iMG)*ys(iE)+ratraw(iR085)*ys(iMG)*ys(iE)+ratraw(iR085)*ys(iMG)*ys(iE)-ratraw(iR086)*ys(iMGP)*ys(iE)+ratraw(iR086)*ys(iMGP)*ys(iE)+ratraw(iR086)*ys(iMGP)*ys(iE)-ratraw(iR087)*ys(iMG2P)*ys(iE)+ratraw(iR087)*ys(iMG2P)*ys(iE)+ratraw(iR087)*ys(iMG2P)*ys(iE)-ratraw(iR088)*ys(iSI)*ys(iE)+ratraw(iR088)*ys(iSI)*ys(iE)+ratraw(iR088)*ys(iSI)*ys(iE)-ratraw(iR089)*ys(iSIP)*ys(iE)+ratraw(iR089)*ys(iSIP)*ys(iE)+ratraw(iR089)*ys(iSIP)*ys(iE)-ratraw(iR090)*ys(iSI2P)*ys(iE)+ratraw(iR090)*ys(iSI2P)*ys(iE)+ratraw(iR090)*ys(iSI2P)*ys(iE)-ratraw(iR091)*ys(iSI3P)*ys(iE)+ratraw(iR091)*ys(iSI3P)*ys(iE)+ratraw(iR091)*ys(iSI3P)*ys(iE)-ratraw(iR092)*ys(iSI4P)*ys(iE)+ratraw(iR092)*ys(iSI4P)*ys(iE)+ratraw(iR092)*ys(iSI4P)*ys(iE)-ratraw(iR093)*ys(iS)*ys(iE)+ratraw(iR093)*ys(iS)*ys(iE)+ratraw(iR093)*ys(iS)*ys(iE)-ratraw(iR094)*ys(iSP)*ys(iE)+ratraw(iR094)*ys(iSP)*ys(iE)+ratraw(iR094)*ys(iSP)*ys(iE)-ratraw(iR095)*ys(iS2P)*ys(iE)+ratraw(iR095)*ys(iS2P)*ys(iE)+ratraw(iR095)*ys(iS2P)*ys(iE)-ratraw(iR096)*ys(iS3P)*ys(iE)+ratraw(iR096)*ys(iS3P)*ys(iE)+ratraw(iR096)*ys(iS3P)*ys(iE)-ratraw(iR097)*ys(iCA)*ys(iE)+ratraw(iR097)*ys(iCA)*ys(iE)+ratraw(iR097)*ys(iCA)*ys(iE)-ratraw(iR098)*ys(iCAP)*ys(iE)+ratraw(iR098)*ys(iCAP)*ys(iE)+ratraw(iR098)*ys(iCAP)*ys(iE)-ratraw(iR099)*ys(iCA2P)*ys(iE)+ratraw(iR099)*ys(iCA2P)*ys(iE)+ratraw(iR099)*ys(iCA2P)*ys(iE)-ratraw(iR100)*ys(iCA3P)*ys(iE)+ratraw(iR100)*ys(iCA3P)*ys(iE)+ratraw(iR100)*ys(iCA3P)*ys(iE)-ratraw(iR101)*ys(iFE)*ys(iE)+ratraw(iR101)*ys(iFE)*ys(iE)+ratraw(iR101)*ys(iFE)*ys(iE)-ratraw(iR102)*ys(iFEP)*ys(iE)+ratraw(iR102)*ys(iFEP)*ys(iE)+ratraw(iR102)*ys(iFEP)*ys(iE)-ratraw(iR103)*ys(iFE2P)*ys(iE)+ratraw(iR103)*ys(iFE2P)*ys(iE)+ratraw(iR103)*ys(iFE2P)*ys(iE)-ratraw(iR104)*ys(iFE3P)*ys(iE)+ratraw(iR104)*ys(iFE3P)*ys(iE)+ratraw(iR104)*ys(iFE3P)*ys(iE)+ratraw(iR107)*ys(iH)+ratraw(iR108)*ys(iHE)+ratraw(iR109)*ys(iHEP)+ratraw(iR110)*ys(iC)+ratraw(iR111)*ys(iCP)+ratraw(iR112)*ys(iC2P)+ratraw(iR113)*ys(iC3P)+ratraw(iR114)*ys(iC4P)+ratraw(iR115)*ys(iN)+ratraw(iR116)*ys(iNP)+ratraw(iR117)*ys(iN2P)+ratraw(iR118)*ys(iN3P)+ratraw(iR119)*ys(iN4P)+ratraw(iR120)*ys(iN5P)+ratraw(iR121)*ys(iO)+ratraw(iR122)*ys(iOP)+ratraw(iR123)*ys(iO2P)+ratraw(iR124)*ys(iO3P)+ratraw(iR125)*ys(iO4P)+ratraw(iR126)*ys(iO5P)+ratraw(iR127)*ys(iO6P)+ratraw(iR128)*ys(iNE)+ratraw(iR129)*ys(iNEP)+ratraw(iR130)*ys(iNE2P)+ratraw(iR131)*ys(iNE3P)+ratraw(iR132)*ys(iNE4P)+ratraw(iR133)*ys(iNE5P)+ratraw(iR134)*ys(iNE6P)+ratraw(iR135)*ys(iNE7P)+ratraw(iR136)*ys(iNE8P)+ratraw(iR137)*ys(iNA)+ratraw(iR138)*ys(iNAP)+ratraw(iR139)*ys(iMG)+ratraw(iR140)*ys(iMGP)+ratraw(iR141)*ys(iMG2P)+ratraw(iR142)*ys(iSI)+ratraw(iR143)*ys(iSIP)+ratraw(iR144)*ys(iSI2P)+ratraw(iR145)*ys(iSI3P)+ratraw(iR146)*ys(iSI4P)+ratraw(iR147)*ys(iS)+ratraw(iR148)*ys(iSP)+ratraw(iR149)*ys(iS2P)+ratraw(iR150)*ys(iS3P)+ratraw(iR151)*ys(iCA)+ratraw(iR152)*ys(iCAP)+ratraw(iR153)*ys(iCA2P)+ratraw(iR154)*ys(iCA3P)+ratraw(iR155)*ys(iFE)+ratraw(iR156)*ys(iFEP)+ratraw(iR157)*ys(iFE2P)+ratraw(iR158)*ys(iFE3P)
dydt_iEINT = 
